	country	page	project	views	4
0	GR	Main_Page	en.wikipedia	4030100	
1	GR	Πύλη:Κύρια	el.wikipedia	2457400	
2	GR	Special:Search	en.wikipedia	1525600	
3	GR	Ειδικό:Αναζήτηση	el.wikipedia	1392900	
4	GR	Ειδικό:Αναζήτηση	el.wiktionary	1063400	
5	GR	Ελλάδα	el.wikipedia	581000	
6	GR	Ουκρανία	el.wikipedia	504000	
7	GR	Βικιλεξικό:Κύρια_Σελίδα	el.wiktionary	395000	
8	GR	YouTube	el.wikipedia	365200	
9	GR	ΝΑΤΟ	el.wikipedia	343400	
10	GR	Ελισάβετ_Β΄_του_Ηνωμένου_Βασιλείου	el.wikipedia	307300	
11	GR	2022_Russian_invasion_of_Ukraine	en.wikipedia	277400	
12	GR	EuroBasket_2022	en.wikipedia	258400	
13	GR	Άγιος_Παΐσιος	el.wikipedia	197900	
14	GR	Jeffrey_Dahmer	en.wikipedia	197900	
15	GR	Νίκος_Ανδρουλάκης	el.wikipedia	191900	
16	GR	Ηνωμένες_Πολιτείες_Αμερικής	el.wikipedia	175500	
17	GR	Επέτειος_του_Όχι	el.wikipedia	174400	
18	GR	Βολοντίμιρ_Ζελένσκι	el.wikipedia	164400	
19	GR	Κυβέλη_(ηθοποιός)	el.wikipedia	154100	
20	GR	Παγκόσμιο_Κύπελλο_Ποδοσφαίρου_2022	el.wikipedia	152100	
21	GR	Βλαντίμιρ_Πούτιν	el.wikipedia	146400	
22	GR	Γεώργιος_Παπανδρέου	el.wikipedia	142800	
23	GR	Elizabeth_II	en.wikipedia	126000	
24	GR	Ρωσία	el.wikipedia	120900	
25	GR	Κεταμίνη	el.wikipedia	117900	
26	GR	Τζέφρυ_Ντάμερ	el.wikipedia	115900	
27	GR	Τάγμα_Αζόφ	el.wikipedia	115000	
28	GR	Παγκόσμιο_Κύπελλο_Ποδοσφαίρου	el.wikipedia	114700	
29	GR	2022_FIFA_World_Cup	en.wikipedia	114500	
30	GR	Τάιλερ_Ντόρσεϊ	el.wikipedia	104000	
31	GR	Αριστείδης_Σοϊλέδης	el.wikipedia	98900	
32	GR	Ηλίας_Ψινάκης	el.wikipedia	94400	
33	GR	Ειρήνη_Παπά	el.wikipedia	91400	
34	GR	Κάρολος_Γ΄_του_Ηνωμένου_Βασιλείου	el.wikipedia	91100	
35	GR	Ελληνική_Επανάσταση_του_1821	el.wikipedia	87200	
36	GR	Γιάννης_Αντετοκούνμπο	el.wikipedia	86500	
37	GR	Ελίνα_Τζένγκο	el.wikipedia	83100	
38	GR	Τσετσενία	el.wikipedia	82700	
39	GR	Βαγγέλης_Παπαθανασίου	el.wikipedia	76400	
40	GR	Ευρωμπάσκετ_2022	el.wikipedia	75300	
41	GR	Υπερδνειστερία	el.wikipedia	74500	
42	GR	EuroBasket	en.wikipedia	74100	
43	GR	Εξέγερση_του_Πολυτεχνείου	el.wikipedia	73300	
44	GR	Ρωσο-Ουκρανικός_Πόλεμος	el.wikipedia	73200	
45	GR	Ευρωπαϊκή_Ένωση	el.wikipedia	72900	
46	GR	Εορτασμός_της_Ελληνικής_Επανάστασης_του_1821	el.wikipedia	72600	
47	GR	Ταϊβάν	el.wikipedia	72300	
48	GR	Μάρθα_Καραγιάννη	el.wikipedia	71600	
49	GR	25_Μαρτίου	el.wikipedia	71200	
50	GR	Νταϊάνα	_πριγκίπισσα_της_Ουαλίας	el.wikipedia	71000.0
51	GR	Δημήτρης_Ιτούδης	el.wikipedia	69700	
52	GR	Πρίγκιπας_Φίλιππος	_Δούκας_του_Εδιμβούργου	el.wikipedia	69100.0
53	GR	Ukraine	en.wikipedia	69000	
54	GR	πτερνιστήρας	el.wiktionary	67300	
55	GR	Αλέξανδρος_Νικολαΐδης	el.wikipedia	67200	
56	GR	Λεξ_(ράπερ)	el.wikipedia	65200	
57	GR	Κατάρ	el.wikipedia	63900	
58	GR	Vladimir_Putin	en.wikipedia	63400	
59	GR	Γιώργος_Τράγκας	el.wikipedia	62800	
60	GR	Μαρινέλλα	el.wikipedia	62800	
61	GR	Γεώργιος_ΣΤ΄_του_Ηνωμένου_Βασιλείου	el.wikipedia	61500	
62	GR	Μνηστήρες_της_Πηνελόπης	el.wikipedia	61200	
63	GR	Άγιος_Αρσένιος_ο_Καππαδόκης	el.wikipedia	60100	
64	GR	Μαρσέλο	el.wikipedia	58600	
65	GR	Κατάλογος_χωρών_ανά_πληθυσμό	el.wikipedia	58400	
66	GR	Marcelo_(footballer	_born_1988)	en.wikipedia	58300.0
67	GR	Νίκος_Κοκλώνης	el.wikipedia	57800	
68	GR	Β΄_Παγκόσμιος_Πόλεμος	el.wikipedia	56800	
69	GR	Χαλοουίν	el.wikipedia	56700	
70	GR	Tyler_Dorsey	en.wikipedia	56300	
71	GR	Τρεις_Ιεράρχες	el.wikipedia	56200	
72	GR	Α΄_Παγκόσμιος_Πόλεμος	el.wikipedia	55100	
73	GR	Κωνσταντίνος_Β΄_της_Ελλάδας	el.wikipedia	54400	
74	GR	Κάλαντα_Πρωτοχρονιάς	el.wikisource	53600	
75	GR	Καζακστάν	el.wikipedia	53400	
76	GR	Ένωση_Σοβιετικών_Σοσιαλιστικών_Δημοκρατιών	el.wikipedia	53300	
77	GR	Eurovision_Song_Contest_2022	en.wikipedia	53200	
78	GR	Charles_III	en.wikipedia	53100	
79	GR	Ευαγόρας_Παλληκαρίδης	el.wikipedia	53000	
80	GR	Dennis_Schröder	en.wikipedia	52000	
81	GR	Βασιλομήτωρ_Ελισάβετ_του_Ηνωμένου_Βασιλείου	el.wikipedia	51100	
82	GR	Κωνσταντίνος_Πηλαδάκης	el.wikipedia	51000	
83	GR	James_Rodríguez	en.wikipedia	50600	
84	GR	Χάμες_Ροδρίγες	el.wikipedia	50500	
85	GR	Ντίνα_Κώνστα	el.wikipedia	49800	
86	GR	Βασίλης_Παπαθεοδώρου	el.wikipedia	49100	
87	GR	Θεόδωρος_Κολοκοτρώνης	el.wikipedia	48900	
88	GR	Γραμμή_3_(Μετρό_Αθήνας)	el.wikipedia	48900	
89	GR	Κώστας_Καζάκος	el.wikipedia	47900	
90	GR	Ρόμπερτ_Ουίλιαμς	el.wikipedia	47500	
91	GR	Μαρίζα_Ρίζου	el.wikipedia	47400	
92	GR	Volodymyr_Zelenskyy	en.wikipedia	47400	
93	GR	Ίλον_Μασκ	el.wikipedia	46900	
94	GR	Πυρηνικό_ατύχημα_του_Τσερνόμπιλ	el.wikipedia	46500	
95	GR	Πρωτάθλημα_Ελλάδας_ποδοσφαίρου_ανδρών	el.wikipedia	45500	
96	GR	Κριμαία	el.wikipedia	45400	
97	GR	Μήτσος_Μυράτ	el.wikipedia	45100	
98	GR	Κατηγορία:Χώρες_μέλη_του_ΝΑΤΟ	el.wikipedia	44400	
99	GR	Εθνική_Ελλάδας_(καλαθοσφαίριση_ανδρών)	el.wikipedia	44400	
100	GR	Anne_Heche	en.wikipedia	44200	
101	GR	Μίνα_Αδαμάκη	el.wikipedia	44200	
102	GR	Παγκόσμια_ρεκόρ_ανοικτού_στίβου	el.wikipedia	43600	
103	GR	Διαγωνισμός_Τραγουδιού_Eurovision_2022	el.wikipedia	43300	
104	GR	Μαριούπολη	el.wikipedia	43000	
105	GR	Ανδρέας_Παπανδρέου	el.wikipedia	42200	
106	GR	Sophia_Hadjipanteli	en.wikipedia	42200	
107	GR	Ευρωμπάσκετ	el.wikipedia	42200	
108	GR	Οδησσός	el.wikipedia	42000	
109	GR	Russo-Ukrainian_War	en.wikipedia	41500	
110	GR	ΟΥΕΦΑ_Τσάμπιονς_Λιγκ	el.wikipedia	41200	
111	GR	Bernard_(footballer)	en.wikipedia	41000	
112	GR	Κύπελλο_Ελλάδας_(ποδόσφαιρο_ανδρών)	el.wikipedia	40100	
113	GR	Όμιλος_Δαυίδ-Λεβέντη	el.wikipedia	39300	
114	GR	Spider-Man:_No_Way_Home	en.wikipedia	39100	
115	GR	Θεοφάνια_(εορτή)	el.wikipedia	39100	
116	GR	Κάρολος_Παπούλιας	el.wikipedia	38400	
117	GR	Μέριλιν_Μονρόε	el.wikipedia	38100	
118	GR	Ευλογιά_των_πιθήκων	el.wikipedia	37800	
119	GR	Yung_Light	el.wikipedia	37000	
120	GR	Mente_Fuerte	el.wikipedia	37000	
121	GR	UEFA_Champions_League	en.wikipedia	36100	
122	GR	Λασκαρίνα_Μπουμπουλίνα	el.wikipedia	35900	
123	GR	Giannis_Antetokounmpo	en.wikipedia	35800	
124	GR	Ηλίας_Ζερβός	el.wikipedia	35800	
125	GR	Ντονμπάς	el.wikipedia	35400	
126	GR	Πρίγκιπας_Χάρι	_Δούκας_του_Σάσσεξ	el.wikipedia	35300.0
127	GR	Μαργαρίτα_του_Ηνωμένου_Βασιλείου	el.wikipedia	35200	
128	GR	Γιώργος_Α._Παπανδρέου	el.wikipedia	35100	
129	GR	Ντέρμπι_Ολυμπιακού_-_Παναθηναϊκού_(ποδόσφαιρο_ανδρών)	el.wikipedia	34700	
130	GR	Δάκης	el.wikipedia	34100	
131	GR	Πόλεμος_στο_Ντονμπάς	el.wikipedia	34000	
132	GR	Ψυχρός_Πόλεμος	el.wikipedia	34000	
133	GR	Γιώργος_Αλκαίος	el.wikipedia	33700	
134	GR	FIFA_World_Cup	en.wikipedia	33100	
135	GR	Αφασία	el.wikipedia	32400	
136	GR	Χρήστος_Σαρτζετάκης	el.wikipedia	32300	
137	GR	Κοσσυφοπέδιο	el.wikipedia	31900	
138	GR	Εργατική_Πρωτομαγιά	el.wikipedia	31600	
139	GR	Βαγγέλης_Μαρινάκης	el.wikipedia	31300	
140	GR	Βασίλισσα_Βικτώρια	el.wikipedia	31300	
141	GR	Διάλυση_της_Σοβιετικής_Ένωσης	el.wikipedia	31300	
142	GR	Ζωζώ_Σαπουντζάκη	el.wikipedia	31300	
143	GR	Μολδαβία	el.wikipedia	31200	
144	GR	Γιώργος_Γ._Παπανδρέου	el.wikipedia	31200	
145	GR	Ελληνοϊταλικός_Πόλεμος	el.wikipedia	31200	
146	GR	Τιτανικός	el.wikipedia	31100	
147	GR	Αντιγόνη_Ντρισμπιώτη	el.wikipedia	30900	
148	GR	The_Lord_of_the_Rings:_The_Rings_of_Power	en.wikipedia	30800	
149	GR	Σύνδρομο_Μινχάουζεν_δια_αντιπροσώπου	el.wikipedia	30700	
150	GR	Μαντώ_Μαυρογένους	el.wikipedia	30500	
151	GR	Δωδεκάνησα	el.wikipedia	30400	
152	GR	Νίκος_Αντύπας	el.wikipedia	30300	
153	GR	Μήδεια	el.wikipedia	30100	
154	GR	Ημισκούμπρια	el.wikipedia	29900	
155	GR	Άγιος_Δημήτριος	el.wikipedia	29900	
156	GR	Πέτρος_Φιλιππίδης	el.wikipedia	29500	
157	GR	House_of_the_Dragon	en.wikipedia	29500	
158	GR	Μίτσελ_(ποδοσφαιριστής)	el.wikipedia	29500	
159	GR	Amber_Heard	en.wikipedia	28800	
160	GR	Ζάχος_Χατζηφωτίου	el.wikipedia	28800	
161	GR	Κίεβο	el.wikipedia	28700	
162	GR	Μιχαήλ_Γκορμπατσώφ	el.wikipedia	28300	
163	GR	Μαριέττα_Γιαννάκου	el.wikipedia	28200	
164	GR	Παγκόσμια_ημέρα_της_γυναίκας	el.wikipedia	28200	
165	GR	Γιάννης_Πλούταρχος	el.wikipedia	28000	
166	GR	Λευκορωσία	el.wikipedia	28000	
167	GR	ινστρούχτορας	el.wiktionary	27800	
168	GR	Olympiacos_F.C.	en.wikipedia	27500	
169	GR	Άμβλωση	el.wikipedia	27400	
170	GR	Νόσος_του_Χάνσεν	el.wikipedia	27400	
171	GR	Παρσέκ	el.wikipedia	27200	
172	GR	Rishi_Sunak	en.wikipedia	26900	
173	GR	Κωνσταντίνος_Τζούμας	el.wikipedia	26800	
174	GR	Κριστιάνο_Ρονάλντο	el.wikipedia	26800	
175	GR	Καμίλα_του_Ηνωμένου_Βασιλείου	el.wikipedia	26800	
176	GR	Σταμάτης_Κόκοτας	el.wikipedia	26400	
177	GR	Παπαφλέσσας	el.wikipedia	26400	
178	GR	Τσετσένοι	el.wikipedia	26300	
179	GR	ολιστικός	el.wiktionary	26300	
180	GR	Κάλαντα_Φώτων	el.wikisource	26200	
181	GR	Ευλογιά	el.wikipedia	26200	
182	GR	Don't_Look_Up_(2021_film)	en.wikipedia	26100	
183	GR	Ευτυχία_Παπαγιαννοπούλου	el.wikipedia	26000	
184	GR	Χριστόφορος_Παπακαλιάτης	el.wikipedia	25800	
185	GR	Greece_men's_national_basketball_team	en.wikipedia	25400	
186	GR	Panathinaikos_B.C.	en.wikipedia	25300	
187	GR	Πρίγκιπας_Ανδρέας	_Δούκας_της_Υόρκης	el.wikipedia	25300.0
188	GR	Άλμα_εις_μήκος	el.wikipedia	25200	
189	GR	Μαλβίνα_Κάραλη	el.wikipedia	25000	
190	GR	Prince_Philip	_Duke_of_Edinburgh	en.wikipedia	25000.0
191	GR	Dusty_Springfield	en.wikipedia	25000	
192	GR	Θανατική_ποινή_στην_Ελλάδα	el.wikipedia	24900	
193	GR	Γήπεδο_Αγιά_Σοφιά	el.wikipedia	24800	
194	GR	Anna_Sorokin	en.wikipedia	24700	
195	GR	ενεός	el.wiktionary	24600	
196	GR	Δημήτρης_Κοντομηνάς	el.wikipedia	24500	
197	GR	Μιράντα_Μυράτ	el.wikipedia	24000	
198	GR	Μεταμόρφωση_του_Σωτήρος	el.wikipedia	23800	
199	GR	Στάθης_Παναγιωτόπουλος	el.wikipedia	23700	
200	GR	Αμάντα_Γεωργιάδη	el.wikipedia	23700	
201	GR	Μίλτος_Τεντόγλου	el.wikipedia	23700	
202	GR	Ελισάβετ_της_Αυστρίας	el.wikipedia	23600	
203	GR	Μούσες	el.wikipedia	23500	
204	GR	Πρίγκιπας_Ανδρέας_της_Ελλάδας_και_της_Δανίας	el.wikipedia	23500	
205	GR	Πρώην_Σοβιετικές_Δημοκρατίες	el.wikipedia	23400	
206	GR	Juancho_Hernangómez	en.wikipedia	23400	
207	GR	ριπίδιο	el.wiktionary	23300	
208	GR	Vangelis	en.wikipedia	23100	
209	GR	Ηλίας_Μόσιαλος	el.wikipedia	23000	
210	GR	Φίλιππος	_Δούκας_του_Εδιμβούργου	el.wikipedia	22700.0
211	GR	Γεώργιος_Α΄_της_Ελλάδας	el.wikipedia	22600	
212	GR	Stranger_Things_(season_4)	en.wikipedia	22500	
213	GR	Γεώργιος_Ε΄_του_Ηνωμένου_Βασιλείου	el.wikipedia	22400	
214	GR	Ρίσι_Σούνακ	el.wikipedia	22300	
215	GR	Πασχάλης_(τραγουδιστής)	el.wikipedia	22200	
216	GR	Κατάλογος_προέδρων_των_Ηνωμένων_Πολιτειών	el.wikipedia	22200	
217	GR	Ευγενή_μέταλλα	el.wikipedia	22100	
218	GR	Γιουγκοσλαβικοί_πόλεμοι	el.wikipedia	22000	
219	GR	Γεώργιος_Καραϊσκάκης	el.wikipedia	22000	
220	GR	Johnny_Depp	en.wikipedia	22000	
221	GR	Κατάλογος_έργων_του_Αρκά	el.wikipedia	22000	
222	GR	Σταύρος_Ξαρχάκος	el.wikipedia	22000	
223	GR	Μαρία_Τζομπανάκη	el.wikipedia	21900	
224	GR	Πανσπουδαστική_Κίνηση_Συνεργασίας	el.wikipedia	21900	
225	GR	Φάρασα	el.wikipedia	21800	
226	GR	Betty_White	en.wikipedia	21600	
227	GR	UEFA_Nations_League	en.wikipedia	21600	
228	GR	Τροπονίνη	el.wikipedia	21400	
229	GR	νηπενθής	el.wiktionary	21300	
230	GR	2022–23_UEFA_Nations_League	en.wikipedia	21200	
231	GR	Πριγκίπισσα_Άννα	el.wikipedia	21200	
232	GR	Συνθήκη_του_Μοντρέ	el.wikipedia	21000	
233	GR	Carlos_Corberán	en.wikipedia	21000	
234	GR	Ισημερινός_(χώρα)	el.wikipedia	21000	
235	GR	Ηνωμένο_Βασίλειο	el.wikipedia	20900	
236	GR	Εισόδια_της_Θεοτόκου	el.wikipedia	20900	
237	GR	Cristiano_Ronaldo	en.wikipedia	20800	
238	GR	Εδουάρδος_Η΄_του_Ηνωμένου_Βασιλείου	el.wikipedia	20800	
239	GR	Ουίλιαμ	_Πρίγκιπας_της_Ουαλίας	el.wikipedia	20800.0
240	GR	Ρούλα_Κορομηλά	el.wikipedia	20700	
241	GR	Μαίρη_Χρονοπούλου	el.wikipedia	20600	
242	GR	Κυριακή_της_Ορθοδοξίας	el.wikipedia	20600	
243	GR	Liz_Truss	en.wikipedia	20600	
244	GR	Μαρία_Φαραντούρη	el.wikipedia	20400	
245	GR	Γιάννης_Βογιατζής_(ηθοποιός)	el.wikipedia	20400	
246	GR	Γιάννης_Πάριος	el.wikipedia	20200	
247	GR	Υπαπαντή	el.wikipedia	20200	
248	GR	Τζένη_Καρέζη	el.wikipedia	20100	
249	GR	Αντύπας_(τραγουδιστής)	el.wikipedia	20000	
250	GR	2022–23_UEFA_Europa_Conference_League	en.wikipedia	20000	
251	GR	Δημήτρης_Μυράτ	el.wikipedia	20000	
252	GR	Φρέντι_Μέρκιουρι	el.wikipedia	19900	
253	GR	Θέμης_Αδαμαντίδης	el.wikipedia	19900	
254	GR	Γιώργος_Μαργαρίτης	el.wikipedia	19900	
255	GR	Ύμνος_εις_την_Ελευθερίαν	el.wikipedia	19900	
256	GR	Djibril_Sidibé_(footballer	_born_1992)	en.wikipedia	19900.0
257	GR	Diana	_Princess_of_Wales	en.wikipedia	19800.0
258	GR	μαστροπεία	el.wiktionary	19700	
259	GR	Πυξ_Λαξ	el.wikipedia	19700	
260	GR	Διάλυση_της_Γιουγκοσλαβίας	el.wikipedia	19700	
261	GR	Kiyoshi_Kuromiya	en.wikipedia	19700	
262	GR	Γιαννούλης_Λαρεντζάκης	el.wikipedia	19700	
263	GR	Azov_Battalion	en.wikipedia	19500	
264	GR	Γιάννης_Μιχαηλίδης_(αναρχικός)	el.wikipedia	19500	
265	GR	SNIK	el.wikipedia	19400	
266	GR	Stefan_Banach	en.wikipedia	19400	
267	GR	Αγγελική_Ηλιάδη	el.wikipedia	19300	
268	GR	Nick_Kyrgios	en.wikipedia	19300	
269	GR	Míchel_(footballer	_born_1963)	en.wikipedia	19200.0
270	GR	Βίκυ_Λέανδρος	el.wikipedia	19100	
271	GR	Πρωτάθλημα_Εθνών_ΟΥΕΦΑ	el.wikipedia	19100	
272	GR	Κοινοπολιτεία_των_Εθνών	el.wikipedia	19100	
273	GR	Αλμπέρτο_Μποτία	el.wikipedia	19000	
274	GR	Τζιάνι_Βερσάτσε	el.wikipedia	18800	
275	GR	Ευαγγελισμός_της_Θεοτόκου	el.wikipedia	18800	
276	GR	Ιωβηλαίο	el.wikipedia	18800	
277	GR	Μπίλι_Μπο	el.wikipedia	18700	
278	GR	Olivia_Newton-John	en.wikipedia	18700	
279	GR	Αττική_Οδός	el.wikipedia	18500	
280	GR	αμετροέπεια	el.wiktionary	18500	
281	GR	Κάρολος	_Πρίγκιπας_της_Ουαλίας	el.wikipedia	18500.0
282	GR	Μέγκαν	_Δούκισσα_του_Σάσσεξ	el.wikipedia	18500.0
283	GR	Mostafa_El-Abbadi	en.wikipedia	18500	
284	GR	Σάσα_Ντάριο	el.wikipedia	18400	
285	GR	Θερμοβαρική_βόμβα	el.wikipedia	18400	
286	GR	Σάββας_Καλεντερίδης	el.wikipedia	18400	
287	GR	Τζορτζ_Μπάλντοκ	el.wikipedia	18400	
288	GR	Σάσα_Σταμάτη	el.wikipedia	18100	
289	GR	Πρωτάθλημα_Ελλάδας_καλαθοσφαίρισης_ανδρών	el.wikipedia	18000	
290	GR	List_of_UEFA_Champions_League_finals	en.wikipedia	18000	
291	GR	Νέλσον_Μαντέλα	el.wikipedia	17900	
292	GR	Αλέκος_Φασιανός	el.wikipedia	17800	
293	GR	Άντζελα_Δημητρίου	el.wikipedia	17800	
294	GR	Αργύρης_Ντινόπουλος	el.wikipedia	17800	
295	GR	2022–23_UEFA_Champions_League	en.wikipedia	17800	
296	GR	Όλγα_Δαμάνη	el.wikipedia	17700	
297	GR	Εμμανουήλ_Κωνσταντίνου	el.wikipedia	17700	
298	GR	Κοραλία_Καράντη	el.wikipedia	17600	
299	GR	Σρι_Λάνκα	el.wikipedia	17600	
300	GR	2022_Italian_general_election	en.wikipedia	17600	
301	GR	Andraž_Šporar	en.wikipedia	17500	
302	GR	Άννα	_Βασιλική_Πριγκίπισσα	el.wikipedia	17500.0
303	GR	Σημαία_της_Ελλάδας	el.wikipedia	17400	
304	GR	Μαρία_Πρωτόπαππα	el.wikipedia	17300	
305	GR	Πατριαρχείο	el.wikipedia	17300	
306	GR	Marilyn_Monroe	en.wikipedia	17200	
307	GR	εποποιία	el.wiktionary	17100	
308	GR	Παναθηναϊκός_(ποδόσφαιρο_ανδρών)	el.wikipedia	17000	
309	GR	Ζιγκ_Ζαγκ	el.wikipedia	16900	
310	GR	Εμανουέλ_Μακρόν	el.wikipedia	16900	
311	GR	Μέριλ_Στριπ	el.wikipedia	16900	
312	GR	Διονύσης_Σιμόπουλος	el.wikipedia	16900	
313	GR	Πέγκυ_Ζήνα	el.wikipedia	16800	
314	GR	Κατερίνα_Στανίση	el.wikipedia	16700	
315	GR	Σάκης_Ρουβάς	el.wikipedia	16500	
316	GR	Αλίκη_Θεοδωρίδου_-_Νορ	el.wikipedia	16500	
317	GR	Δόμνα_Μιχαηλίδου	el.wikipedia	16400	
318	GR	Κώστας_Γκουσγκούνης	el.wikipedia	16400	
319	GR	Γενοκτονία_των_Ελλήνων_του_Πόντου	el.wikipedia	16400	
320	GR	George_VI	en.wikipedia	16400	
321	GR	Κώστας_Μανωλάς	el.wikipedia	16300	
322	GR	Ο_Πεταλούδας_(ταινία)	el.wikipedia	16300	
323	GR	Christopher_Scarver	en.wikipedia	16300	
324	GR	Αλκυονίδες_νήσοι	el.wikipedia	16300	
325	GR	Μικρά_Αγγλία	el.wikipedia	16100	
326	GR	2022_European_Athletics_Championships	en.wikipedia	16100	
327	GR	1899_(TV_series)	en.wikipedia	16100	
328	GR	Κατάλογος_χωρών_ανά_έκταση	el.wikipedia	16000	
329	GR	Πεντηκοστή	el.wikipedia	16000	
330	GR	2022–23_UEFA_Europa_League	en.wikipedia	16000	
331	GR	Νατοϊκοί_βομβαρδισμοί_κατά_της_Γιουγκοσλαβίας	el.wikipedia	15700	
332	GR	Νίκος_Ξυλούρης	el.wikipedia	15600	
333	GR	Λου_Αντρέας-Σαλομέ	el.wikipedia	15600	
334	GR	2022_French_presidential_election	en.wikipedia	15500	
335	GR	Κατερίνα_Στεφανίδη	el.wikipedia	15500	
336	GR	Πρίγκιπας_Έντουαρντ	_Κόμης_του_Ουέσσεξ	el.wikipedia	15500.0
337	GR	Ολυμπιακός_Σ.Φ.Π._(ποδόσφαιρο)	el.wikipedia	15400	
338	GR	Giorgia_Meloni	en.wikipedia	15400	
339	GR	Wednesday_(TV_series)	en.wikipedia	15400	
340	GR	Σταμάτης_Γαρδέλης	el.wikipedia	15300	
341	GR	Ευρώπη	el.wikipedia	15300	
342	GR	Μαριανίνα_Κριεζή	el.wikipedia	15200	
343	GR	Κρίση_στην_Κριμαία_το_2014	el.wikipedia	15200	
344	GR	Άγιος_Φανούριος	el.wikipedia	15200	
345	GR	Μετρό_Θεσσαλονίκης	el.wikipedia	15200	
346	GR	Μίνως_Μάτσας	el.wikipedia	15100	
347	GR	Τζόρτζια_Μελόνι	el.wikipedia	15100	
348	GR	Κωνσταντίνος_Λούλης	el.wikipedia	15100	
349	GR	Γιουγκοσλαβία	el.wikipedia	15000	
350	GR	Ohi_Day	en.wikipedia	15000	
351	GR	Ισόβια_κάθειρξη	el.wikipedia	14900	
352	GR	Αντώνης_Παραράς	el.wikipedia	14800	
353	GR	Σοφία_Μινέικο	el.wikipedia	14800	
354	GR	Ιράν	el.wikipedia	14800	
355	GR	Μίμης_Στεφανάκος	el.wikipedia	14700	
356	GR	Ρωσο-ουκρανική_σύγκρουση	el.wikipedia	14700	
357	GR	Doctor_Strange_in_the_Multiverse_of_Madness	en.wikipedia	14700	
358	GR	Κώστας_Χατζής	el.wikipedia	14600	
359	GR	Τόνγκα	el.wikipedia	14600	
360	GR	Μακόλεϊ_Κάλκιν	el.wikipedia	14500	
361	GR	Θεόδωρος_Κουρεντζής	el.wikipedia	14500	
362	GR	Καθαρά_Δευτέρα	el.wikipedia	14500	
363	GR	Κάρλο_Αντσελότι	el.wikipedia	14500	
364	GR	Επιτελικό_κράτος	el.wikipedia	14400	
365	GR	Φιλική_Εταιρεία	el.wikipedia	14400	
366	GR	Κάλαντα_Χριστουγέννων	el.wikisource	14300	
367	GR	Το_τανγκό_των_Χριστουγέννων	el.wikipedia	14300	
368	GR	Ρετζέπ_Ταγίπ_Ερντογάν	el.wikipedia	14300	
369	GR	Ποντικός	el.wikipedia	14200	
370	GR	Carlo_Ancelotti	en.wikipedia	14200	
371	GR	Ray_Liotta	en.wikipedia	14200	
372	GR	Ολοκαύτωμα	el.wikipedia	14100	
373	GR	Αγγελική_Νικολούλη	el.wikipedia	14100	
374	GR	Γκουστάβο_Πογέτ	el.wikipedia	14100	
375	GR	Μητροπολίτης_Δωδώνης_Χρυσόστομος_Συνετός	el.wikipedia	14100	
376	GR	Μάχη_στο_Ύψωμα_731	el.wikipedia	14100	
377	GR	NATO	en.wikipedia	14000	
378	GR	Κάστρο_Μπαλμόραλ	el.wikipedia	14000	
379	GR	Εσωκομματικές_εκλογές_Κινήματος_Αλλαγής_2021	el.wikipedia	13900	
380	GR	Παύλος_Σιδηρόπουλος	el.wikipedia	13900	
381	GR	Σταμάτης_Σπανουδάκης	el.wikipedia	13900	
382	GR	Φωτεινή_Δάρρα	el.wikipedia	13900	
383	GR	Shinzo_Abe	en.wikipedia	13900	
384	GR	Αιμιλία_Υψηλάντη	el.wikipedia	13800	
385	GR	Γιώργος_Κατσαρός	el.wikipedia	13800	
386	GR	Γιάννης_Γκαγκαλούδης	el.wikipedia	13800	
387	GR	Μικρασιατική_Καταστροφή	el.wikipedia	13800	
388	GR	Alan_Pardew	en.wikipedia	13800	
389	GR	Λοράν_Μπλαν	el.wikipedia	13800	
390	GR	Κατηγορία:Δημοψηφίσματα_στην_Ελλάδα	el.wikipedia	13800	
391	GR	Κωνσταντίνος_Αργυρός	el.wikipedia	13700	
392	GR	Ολυμπιακός_Σ.Φ.Π._(καλαθοσφαίριση_ανδρών)	el.wikipedia	13700	
393	GR	Βίκτορ_Γιανουκόβιτς	el.wikipedia	13700	
394	GR	Μοχάμεντ_Άλι	el.wikipedia	13700	
395	GR	Γιάννης_Μαλούχος	el.wikipedia	13700	
396	GR	Φαραώ	el.wikipedia	13700	
397	GR	Ιησούς_Χριστός	el.wikipedia	13600	
398	GR	Taylor_Hawkins	en.wikipedia	13600	
399	GR	Marder_(infantry_fighting_vehicle)	en.wikipedia	13600	
400	GR	Jenna_Ortega	en.wikipedia	13600	
401	GR	Ράδιο_Αρβύλα_(εκπομπή)	el.wikipedia	13500	
402	GR	Ροζίτα_Σώκου	el.wikipedia	13500	
403	GR	Ο_Ναυαγός	el.wikipedia	13500	
404	GR	Πάσχα	el.wikipedia	13500	
405	GR	Ευρωλίγκα_ανδρών	el.wikipedia	13500	
406	GR	Ștefania_Mărăcineanu	en.wikipedia	13500	
407	GR	Κόκκινη_Εκκλησιά_(Βουργαρέλι)	el.wikipedia	13500	
408	GR	Pep_Biel	en.wikipedia	13500	
409	GR	Κατάλογος_τελικών_Παγκοσμίου_Κυπέλλου_Ποδοσφαίρου	el.wikipedia	13500	
410	GR	Εδουάρδος	_Κόμης_του_Ουέσσεξ	el.wikipedia	13400.0
411	GR	Mateusz_Ponitka	en.wikipedia	13400	
412	GR	Τα_Παιδιά_από_την_Πάτρα	el.wikipedia	13300	
413	GR	94th_Academy_Awards	en.wikipedia	13300	
414	GR	Αττίλας	el.wikipedia	13300	
415	GR	Άγιος_Νικόλαος	el.wikipedia	13200	
416	GR	Βαλάντης_(τραγουδιστής)	el.wikipedia	13200	
417	GR	Grzegorz_Krychowiak	en.wikipedia	13200	
418	GR	Roe_v._Wade	en.wikipedia	13200	
419	GR	Ιωάννης_Μεταξάς	el.wikipedia	13200	
420	GR	Φρέντυ_Σερπιέρης	el.wikipedia	13100	
421	GR	Νίκη_Κεραμέως	el.wikipedia	13100	
422	GR	Έλα_να_γυμνωθούμε_ντάρλινγκ	el.wikipedia	13100	
423	GR	Στάδιο_Γεώργιος_Καραϊσκάκης	el.wikipedia	13100	
424	GR	Μεγάλη_Παρασκευή	el.wikipedia	13000	
425	GR	Νίκος_Κούρκουλος	el.wikipedia	12900	
426	GR	Οι_Απαράδεκτοι	el.wikipedia	12900	
427	GR	Συνθήκη_της_Λωζάνης	el.wikipedia	12900	
428	GR	Τάκης_Μπουγάς	el.wikipedia	12900	
429	GR	Μαρέβα_Γκραμπόφσκι-Μητσοτάκη	el.wikipedia	12900	
430	GR	Taiwan	en.wikipedia	12900	
431	GR	Aaron_Carter	en.wikipedia	12900	
432	GR	Αγία_Αικατερίνη_η_Μεγαλομάρτυς	el.wikipedia	12900	
433	GR	Άννα_Καρένινα	el.wikipedia	12800	
434	GR	Φινλανδία	el.wikipedia	12800	
435	GR	Μεγάλη_Εβδομάδα	el.wikipedia	12800	
436	GR	Έμα_Στόουν	el.wikipedia	12800	
437	GR	Κατάλογος_χωρών_ανά_μήκος_ακτογραμμής	el.wikipedia	12800	
438	GR	Επτά_θαύματα_του_αρχαίου_κόσμου	el.wikipedia	12800	
439	GR	Νεκροί_του_Πολυτεχνείου	el.wikipedia	12800	
440	GR	Ταραχές_του_Δεκεμβρίου_2008_στην_Ελλάδα	el.wikipedia	12700	
441	GR	Jada_Pinkett_Smith	en.wikipedia	12700	
442	GR	Στρατιωτική_δικτατορία_στην_Ελλάδα_(1967_-_1974)	el.wikipedia	12700	
443	GR	Άγιο_Φως	el.wikipedia	12700	
444	GR	μυκτήρ	el.wiktionary	12700	
445	GR	Gianmarco_Pozzecco	en.wikipedia	12700	
446	GR	2026_FIFA_World_Cup	en.wikipedia	12700	
447	GR	Κώστας_Αντετοκούνμπο	el.wikipedia	12600	
448	GR	Κάθριν	_Πριγκίπισσα_της_Ουαλίας	el.wikipedia	12600.0
449	GR	Γιάννης_Μπρατάκος	el.wikipedia	12600	
450	GR	σπιρούνι	el.wiktionary	12600	
451	GR	Κυριακή_των_Βαΐων	el.wikipedia	12500	
452	GR	Μεγάλη_Πέμπτη	el.wikipedia	12500	
453	GR	Αγία_Παρασκευή_η_Μεγαλομάρτυς	el.wikipedia	12500	
454	GR	Λευτέρης_Πετρούνιας	el.wikipedia	12500	
455	GR	Robbie_Coltrane	en.wikipedia	12500	
456	GR	Mijat_Gaćinović	en.wikipedia	12400	
457	GR	Κωνσταντίνος_Πλεύρης	el.wikipedia	12400	
458	GR	Queer	el.wikipedia	12300	
459	GR	Καππαδοκία	el.wikipedia	12300	
460	GR	Russia	en.wikipedia	12300	
461	GR	Ελευθέριος_Βενιζέλος	el.wikipedia	12300	
462	GR	Σκληραίος_πτερνιστήρας	el.wikipedia	12300	
463	GR	Μαραθώνιος	el.wikipedia	12300	
464	GR	Σύμφωνο_της_Βαρσοβίας	el.wikipedia	12200	
465	GR	The_Batman_(film)	en.wikipedia	12200	
466	GR	Matías_Almeyda	en.wikipedia	12200	
467	GR	Πηνελόπη	el.wikipedia	12200	
468	GR	Ντονέτσκ	el.wikipedia	12100	
469	GR	Τσικνοπέμπτη	el.wikipedia	12100	
470	GR	Λούκυ_Λουκ	el.wikipedia	12100	
471	GR	Κόνι_Μεταξά	el.wikipedia	12100	
472	GR	2018_FIFA_World_Cup	en.wikipedia	12100	
473	GR	Αθανάσιος_Διάκος	el.wikipedia	12000	
474	GR	Εθνική_Ελλάδας_(ποδόσφαιρο_ανδρών)	el.wikipedia	12000	
475	GR	Αλβέρτος_Μπουρλά	el.wikipedia	11900	
476	GR	Karim_Benzema	en.wikipedia	11900	
477	GR	Russian_cruiser_Moskva	en.wikipedia	11900	
478	GR	Elon_Musk	en.wikipedia	11900	
479	GR	EuroBasket_2022_knockout_stage	en.wikipedia	11900	
480	GR	ανωμοτί	el.wiktionary	11800	
481	GR	Σαγκάη	el.wikipedia	11800	
482	GR	Ματίας_Αλμέιδα	el.wikipedia	11800	
483	GR	Διαγωνισμός_Τραγουδιού_Eurovision	el.wikipedia	11800	
484	GR	Κατάλογος_πρωθυπουργών_της_Ελλάδας	el.wikipedia	11800	
485	GR	Benjamin_Verbič	en.wikipedia	11800	
486	GR	Coolio	en.wikipedia	11800	
487	GR	Αθανασία_Τσουμελέκα	el.wikipedia	11700	
488	GR	Χρήστος_Δάντης	el.wikipedia	11700	
489	GR	Παναθηναϊκός_(καλαθοσφαίριση_ανδρών)	el.wikipedia	11700	
490	GR	Πυρηνικό_όπλο	el.wikipedia	11700	
491	GR	Oskar_Sala	en.wikipedia	11700	
492	GR	ψοφοδεής	el.wiktionary	11700	
493	GR	Φούρνος_μικροκυμάτων	el.wikipedia	11700	
494	GR	Mohamed_Al-Fayed	en.wikipedia	11700	
495	GR	Guillermo_Ochoa	en.wikipedia	11700	
496	GR	Πάπας_Φραγκίσκος	el.wikipedia	11600	
497	GR	Πανελλήνιο_Σοσιαλιστικό_Κίνημα	el.wikipedia	11600	
498	GR	Ίων_Δραγούμης	el.wikipedia	11600	
499	GR	Καίτη_Γαρμπή	el.wikipedia	11600	
