	country	page	project	views
0	BO	Wikipedia:Portada	es.wikipedia	1713500
1	BO	Cleopatra	es.wikipedia	671700
2	BO	Especial:Buscar	es.wikipedia	440500
3	BO	Copa_Mundial_de_Fútbol_de_2022	es.wikipedia	342100
4	BO	Main_Page	en.wikipedia	203700
5	BO	Bandera_de_Bolivia	es.wikipedia	153900
6	BO	Día_del_Mar	es.wikipedia	121700
7	BO	Himno_nacional_de_Bolivia	es.wikipedia	120300
8	BO	Bolivia	es.wikipedia	102200
9	BO	Día_Internacional_de_los_Trabajadores	es.wikipedia	90900
10	BO	Día_Internacional_de_la_Mujer	es.wikipedia	82800
11	BO	Revolución_de_Chuquisaca	es.wikipedia	77300
12	BO	Día_del_Padre	es.wikipedia	76700
13	BO	Guerra_del_Pacífico	es.wikipedia	74600
14	BO	Año_nuevo_aymara	es.wikipedia	73700
15	BO	Guerra_del_Chaco	es.wikipedia	68800
16	BO	Santa_Cruz_de_la_Sierra	es.wikipedia	64000
17	BO	Jeffrey_Dahmer	es.wikipedia	62500
18	BO	Isabel_II_del_Reino_Unido	es.wikipedia	62000
19	BO	Día_de_Todos_los_Santos	es.wikipedia	57800
20	BO	Rebelión_de_Oruro	es.wikipedia	51300
21	BO	Semana_Santa	es.wikipedia	46100
22	BO	Cleopatra_I_de_Egipto	es.wikipedia	40500
23	BO	Escudo_de_Bolivia	es.wikipedia	37800
24	BO	Corpus_Christi	es.wikipedia	37700
25	BO	Wikipedia:Wikiconcurso/WikiPorLosDerechosHumanos2022	es.wikipedia	37400
26	BO	Wikipedia:Encuentros/¡Alto!_Mujeres_trabajando	es.wikipedia	32400
27	BO	Batalla_del_Alto_de_la_Alianza	es.wikipedia	32200
28	BO	Día_de_la_Madre	es.wikipedia	30300
29	BO	Eduardo_Abaroa_Hidalgo	es.wikipedia	29800
30	BO	Copa_Mundial_de_Fútbol	es.wikipedia	27000
31	BO	Carnaval_en_Bolivia	es.wikipedia	25300
32	BO	Catar	es.wikipedia	24300
33	BO	Oruro	es.wikipedia	21400
34	BO	Guerra_de_la_Independencia_de_Bolivia	es.wikipedia	21300
35	BO	Fiesta_de_San_Juan	es.wikipedia	19800
36	BO	Halloween	es.wikipedia	19000
37	BO	Declaración_de_Independencia_de_Bolivia	es.wikipedia	18600
38	BO	Campeonato_de_Primera_División_2022_(Bolivia)	es.wikipedia	18400
39	BO	Simón_Bolívar	es.wikipedia	18300
40	BO	Día_Internacional_del_Hombre	es.wikipedia	17600
41	BO	Carnaval	es.wikipedia	16100
42	BO	Día_del_maestro	es.wikipedia	15600
43	BO	Gustavo_Costas	es.wikipedia	15500
44	BO	Irene_Bernasconi	es.wikipedia	15500
45	BO	Francia	es.wikipedia	15200
46	BO	Heroínas_de_la_Coronilla	es.wikipedia	15200
47	BO	Federalismo	es.wikipedia	13700
48	BO	Diana_de_Gales	es.wikipedia	12300
49	BO	Halo_(fenómeno_meteorológico)	es.wikipedia	12000
50	BO	Liga_de_Campeones_de_la_UEFA	es.wikipedia	11700
51	BO	Día_de_la_Tierra	es.wikipedia	11500
52	BO	Wikipedia:Contact_us	en.wikipedia	11200
53	BO	Vicente_Fernández	es.wikipedia	10700
54	BO	María_Galindo	es.wikipedia	10400
55	BO	Carlos_III_del_Reino_Unido	es.wikipedia	10200
56	BO	Independencia_de_Bolivia	es.wikipedia	10000
57	BO	Masacre_de_San_Juan	es.wikipedia	9800
58	BO	Día_de_San_Valentín	es.wikipedia	9600
59	BO	Diego_Bertie	es.wikipedia	9000
60	BO	Copa_Mundial_de_Fútbol_de_2026	es.wikipedia	8900
61	BO	Batalla_de_La_Tablada_(Tarija)	es.wikipedia	8700
62	BO	Ucrania	es.wikipedia	8600
63	BO	Fútbol_sala	es.wikipedia	8600
64	BO	OTAN	es.wikipedia	8300
65	BO	Cochabamba	es.wikipedia	8200
66	BO	Adela_Zamudio	es.wikipedia	7800
67	BO	Relaciones_exteriores_de_Bolivia	es.wikipedia	7200
68	BO	Elvira_Rawson	es.wikipedia	7100
69	BO	Elecciones_generales_de_Brasil_de_2022	es.wikipedia	6600
70	BO	Día_del_Árbol	es.wikipedia	6500
71	BO	Johann_Bollig	en.wikipedia	6400
72	BO	Revolución_de_Cochabamba_(1810)	es.wikipedia	6300
73	BO	Día_del_Niño	es.wikipedia	6200
74	BO	Spider-Man:_No_Way_Home	es.wikipedia	6100
75	BO	Miércoles_de_Ceniza	es.wikipedia	6100
76	BO	El_Alto	es.wikipedia	5900
77	BO	Día_Internacional_de_la_Amistad	es.wikipedia	5900
78	BO	Copa_Libertadores_2022	es.wikipedia	5800
79	BO	Julio_Ramón_Ribeyro	es.wikipedia	5700
80	BO	Gabriela_Brimmer	es.wikipedia	5500
81	BO	Jason_David_Frank	es.wikipedia	5500
82	BO	Rondodasosa	it.wikipedia	5400
83	BO	Michael_J._Fox	es.wikipedia	5400
84	BO	Omar_Ríos	es.wikipedia	5100
85	BO	Chris_Rock	es.wikipedia	5100
86	BO	Gales	es.wikipedia	4700
87	BO	Países_Bajos	es.wikipedia	4600
88	BO	Bandera_de_la_Reivindicación_Marítima	es.wikipedia	4500
89	BO	Domingo_de_Ramos	es.wikipedia	4500
90	BO	Olivia_Newton-John	es.wikipedia	4500
91	BO	Clasificación_de_Conmebol_para_la_Copa_Mundial_de_Fútbol_de_2022	es.wikipedia	4300
92	BO	Juancito_Pinto	es.wikipedia	4300
93	BO	Trinidad_y_Tobago	es.wikipedia	4200
94	BO	Browser	it.wikipedia	4200
95	BO	Día_de_la_Raza	es.wikipedia	4100
96	BO	La_Paz	es.wikipedia	4100
97	BO	Patricio_Julián_Rodríguez	es.wikipedia	3900
98	BO	Discriminación	es.wikipedia	3900
99	BO	Descubrimiento_de_América	es.wikipedia	3900
100	BO	Antonio_José_de_Sucre	es.wikipedia	3600
101	BO	Carnaval_de_Oruro	es.wikipedia	3600
102	BO	Wikipedia:Hauptseite	de.wikipedia	3600
103	BO	Historia_de_Bolivia	es.wikipedia	3600
104	BO	Virgen_de_Urkupiña	es.wikipedia	3600
105	BO	Marciano_Cantero	es.wikipedia	3500
106	BO	Kim_Hyun-joong	es.wikipedia	3500
107	BO	Anexo:Presidentes_de_Bolivia	es.wikipedia	3400
108	BO	Club_Independiente_Petrolero	es.wikipedia	3300
109	BO	Departamento_de_Cochabamba	es.wikipedia	3300
110	BO	Voleibol	es.wikipedia	3200
111	BO	Brote_de_viruela_símica_de_2022	es.wikipedia	3100
112	BO	Felipe_de_Edimburgo	es.wikipedia	3000
113	BO	Día_de_los_Fieles_Difuntos	es.wikipedia	3000
114	BO	Enner_Valencia	es.wikipedia	2900
115	BO	Gabriel_Boric	es.wikipedia	2800
116	BO	Miss_Universo_2021	es.wikipedia	2700
117	BO	Regalecus_glesne	es.wikipedia	2700
118	BO	Will_Smith	es.wikipedia	2600
119	BO	Oskar_Sala	es.wikipedia	2600
120	BO	Serbia	es.wikipedia	2400
121	BO	Carlos_de_Gales	es.wikipedia	2300
122	BO	Estado_de_excepción	es.wikipedia	2300
123	BO	Carmen_Salinas	es.wikipedia	2200
124	BO	Rodrigo_Amaral	es.wikipedia	2200
125	BO	Claudio_Biaggio	es.wikipedia	2200
126	BO	Miss_Bolivia_2022	es.wikipedia	2200
127	BO	Año_Nuevo	es.wikipedia	2100
128	BO	Genoveva_Ríos	es.wikipedia	2100
129	BO	Bacha_bazi	es.wikipedia	2100
130	BO	Copa_Libertadores_de_América	es.wikipedia	2100
131	BO	Portugal	es.wikipedia	2100
132	BO	Ley_marcial	es.wikipedia	2000
133	BO	Comadres_(fiesta)	es.wikipedia	2000
134	BO	Selección_de_fútbol_de_Bolivia	es.wikipedia	2000
135	BO	Cristiano_Ronaldo	es.wikipedia	2000
136	BO	Roque	es.wikipedia	1900
137	BO	Arabia_Saudita	es.wikipedia	1900
138	BO	Día_de_los_Santos_Inocentes	es.wikipedia	1800
139	BO	Jean-Christophe_Bahebeck	es.wikipedia	1800
140	BO	Vladímir_Putin	es.wikipedia	1800
141	BO	Isabel_Bowes-Lyon	es.wikipedia	1800
142	BO	Guillermo_de_Cambridge	es.wikipedia	1800
143	BO	Departamento_del_Beni	es.wikipedia	1800
144	BO	Selección_de_fútbol_de_Arabia_Saudita	es.wikipedia	1800
145	BO	Campeonato_de_Primera_División_2021_(Bolivia)	es.wikipedia	1700
146	BO	Combate_de_Calama	es.wikipedia	1700
147	BO	CODA_(película)	es.wikipedia	1700
148	BO	Pascua	es.wikipedia	1700
149	BO	Óscar_Alfaro	es.wikipedia	1700
150	BO	Chabelo	es.wikipedia	1700
151	BO	Luiz_Inácio_Lula_da_Silva	es.wikipedia	1700
152	BO	Estado_de_sitio	es.wikipedia	1700
153	BO	Túnez	es.wikipedia	1700
154	BO	Jeanine_Áñez	es.wikipedia	1600
155	BO	Challa	es.wikipedia	1600
156	BO	Revolución_boliviana_de_1952	es.wikipedia	1600
157	BO	Eclipse_lunar	es.wikipedia	1600
158	BO	Racismo	es.wikipedia	1600
159	BO	Íncubo	es.wikipedia	1600
160	BO	6_de_agosto	es.wikipedia	1600
161	BO	Daddy_Yankee	es.wikipedia	1600
162	BO	Andrés_Chávez	es.wikipedia	1500
163	BO	Selección_de_fútbol_de_Trinidad_y_Tobago	es.wikipedia	1500
164	BO	Diego_Verdaguer	es.wikipedia	1500
165	BO	J_Balvin	es.wikipedia	1500
166	BO	Special:MyLanguage/Celebrate_Women	meta.wikimedia	1500
167	BO	Día_Internacional_del_Libro	es.wikipedia	1500
168	BO	Elizabeth_II	en.wikipedia	1500
169	BO	Selección_de_fútbol_de_Catar	es.wikipedia	1500
170	BO	Intervención_aliada_en_la_Guerra_civil_rusa	es.wikipedia	1400
171	BO	Jada_Pinkett_Smith	es.wikipedia	1400
172	BO	Carlos_del_Reino_Unido	es.wikipedia	1400
173	BO	Enrique_de_Sussex	es.wikipedia	1400
174	BO	Potosí	es.wikipedia	1400
175	BO	Estado_Federal_de_Santa_Cruz_(Bolivia)	es.wikipedia	1400
176	BO	Copa_Mundial_de_Fútbol_de_2018	es.wikipedia	1400
177	BO	Fernanda_Pavisic	es.wikipedia	1400
178	BO	Holanda	es.wikipedia	1400
179	BO	Bob_Saget	es.wikipedia	1300
180	BO	Taylor_Hawkins	es.wikipedia	1300
181	BO	Shakira	es.wikipedia	1300
182	BO	21_de_septiembre	es.wikipedia	1300
183	BO	Hervé_Renard	es.wikipedia	1300
184	BO	Marc_François_Enoumba	es.wikipedia	1200
185	BO	Zhao_Yun	es.wikipedia	1200
