	country	page	project	views
0	HK	Wikipedia:首页	zh.wikipedia	15387300
1	HK	Special:搜索	zh.wikipedia	8665900
2	HK	Main_Page	en.wikipedia	7207000
3	HK	Special:Search	en.wikipedia	5907500
4	HK	习近平	zh.wikipedia	1261600
5	HK	家族榮耀	zh.wikipedia	1099000
6	HK	鐵拳英雄	zh.wikipedia	1091400
7	HK	六四事件	zh.wikipedia	852800
8	HK	MIRROR_(組合)	zh.wikipedia	797300
9	HK	李家超	zh.wikipedia	761000
10	HK	華燈初上_(電視劇)	zh.wikipedia	694400
11	HK	社內相親	zh.wikipedia	642800
12	HK	尚食_(電視劇)	zh.wikipedia	625500
13	HK	金宵大廈2	zh.wikipedia	612100
14	HK	張天賦	zh.wikipedia	576100
15	HK	飛虎3壯志英雄	zh.wikipedia	541700
16	HK	IT狗	zh.wikipedia	526500
17	HK	2022年國際足協世界盃	zh.wikipedia	487700
18	HK	姜濤	zh.wikipedia	478300
19	HK	SPY×FAMILY間諜家家酒	zh.wikipedia	475600
20	HK	美麗戰場	zh.wikipedia	450300
21	HK	聲生不息	zh.wikipedia	444600
22	HK	青春不要臉	zh.wikipedia	431600
23	HK	全民造星IV	zh.wikipedia	428400
24	HK	白色強人II	zh.wikipedia	419500
25	HK	伊丽莎白二世	zh.wikipedia	416000
26	HK	乌克兰	zh.wikipedia	407100
27	HK	2021年度叱咤樂壇流行榜頒獎典禮得獎名單	zh.wikipedia	403800
28	HK	メインページ	ja.wikipedia	403100
29	HK	谷爱凌	zh.wikipedia	398900
30	HK	安倍晋三	zh.wikipedia	395500
31	HK	月老_(電影)	zh.wikipedia	388100
32	HK	梅艷芳	zh.wikipedia	380800
33	HK	御赐小仵作	zh.wikipedia	380100
34	HK	殭屍校園	zh.wikipedia	370100
35	HK	COLLAR	zh.wikipedia	354400
36	HK	二十五，二十一	zh.wikipedia	335400
37	HK	超能使者	zh.wikipedia	334400
38	HK	中国共产党第二十次全国代表大会	zh.wikipedia	329500
39	HK	正義迴廊	zh.wikipedia	315000
40	HK	2022年俄羅斯入侵烏克蘭	zh.wikipedia	313000
41	HK	愛·回家之開心速遞	zh.wikipedia	307100
42	HK	法證先鋒V	zh.wikipedia	303500
43	HK	異搜店	zh.wikipedia	301300
44	HK	聲夢傳奇2	zh.wikipedia	297300
45	HK	天地男兒	zh.wikipedia	295400
46	HK	愛上我的衰神	zh.wikipedia	288700
47	HK	明日戰記	zh.wikipedia	272600
48	HK	蜘蛛人：無家日	zh.wikipedia	268800
49	HK	王力宏	zh.wikipedia	265600
50	HK	江泽民	zh.wikipedia	265300
51	HK	香港	zh.wikipedia	261900
52	HK	下流上車族	zh.wikipedia	257800
53	HK	林家謙	zh.wikipedia	256900
54	HK	非常律師禹英禑	zh.wikipedia	254700
55	HK	曾江	zh.wikipedia	252300
56	HK	李强_(1959年)	zh.wikipedia	249000
57	HK	鬼滅之刃	zh.wikipedia	248800
58	HK	張敬軒	zh.wikipedia	248600
59	HK	宮心計	zh.wikipedia	246000
60	HK	梦华录	zh.wikipedia	240900
61	HK	940920	zh.wikipedia	239000
62	HK	连花清瘟胶囊	zh.wikipedia	238100
63	HK	胡锦涛	zh.wikipedia	237800
64	HK	衣袖紅鑲邊	zh.wikipedia	233900
65	HK	曾比特	zh.wikipedia	225300
66	HK	I_SWIM	zh.wikipedia	224400
67	HK	2022年冬季奥林匹克运动会	zh.wikipedia	222300
68	HK	十八年後的終極告白2.0	zh.wikipedia	221800
69	HK	飯戲攻心	zh.wikipedia	221600
70	HK	十月初五的月光_(2021年電視劇)	zh.wikipedia	218400
71	HK	呂爵安	zh.wikipedia	216300
72	HK	炎明熹	zh.wikipedia	215500
73	HK	安孝燮	zh.wikipedia	212300
74	HK	女神降臨_(電視劇)	zh.wikipedia	211900
75	HK	梅艷芳_(電影)	zh.wikipedia	209300
76	HK	捍衛戰士：獨行俠	zh.wikipedia	209000
77	HK	青春本我	zh.wikipedia	201100
78	HK	哲仁王后_(電視劇)	zh.wikipedia	199700
79	HK	洪为民	zh.wikipedia	199600
80	HK	季前賽	zh.wikipedia	195300
81	HK	习明泽	zh.wikipedia	191700
82	HK	羽生結弦	zh.wikipedia	191200
83	HK	香港最高電影票房收入列表	zh.wikipedia	191200
84	HK	苍兰诀	zh.wikipedia	187900
85	HK	反起跑線聯盟	zh.wikipedia	185000
86	HK	俄乌战争	zh.wikipedia	184600
87	HK	黑話律師	zh.wikipedia	183900
88	HK	痞子殿下	zh.wikipedia	178800
89	HK	盧瀚霆	zh.wikipedia	178200
90	HK	鬼滅之刃_遊郭篇	zh.wikipedia	177100
91	HK	Tyson_Yoshi	zh.wikipedia	177000
92	HK	大角咀肢解父母案	zh.wikipedia	176200
93	HK	北大西洋公约组织	zh.wikipedia	171700
94	HK	雪降花	zh.wikipedia	163900
95	HK	黯夜守護者	zh.wikipedia	162900
96	HK	中华人民共和国	zh.wikipedia	162400
97	HK	那年，我們的夏天_(電視劇)	zh.wikipedia	160300
98	HK	徐英偉	zh.wikipedia	159000
99	HK	鏈鋸人	zh.wikipedia	156200
100	HK	奇異博士2：失控多重宇宙	zh.wikipedia	154100
101	HK	國際足協世界盃	zh.wikipedia	153400
102	HK	捍衛戰士	zh.wikipedia	153000
103	HK	金宵大廈	zh.wikipedia	152900
104	HK	星汉灿烂	zh.wikipedia	152100
105	HK	還魂_(電視劇)	zh.wikipedia	149500
106	HK	北京四通桥抗议	zh.wikipedia	149300
107	HK	雪中悍刀行	zh.wikipedia	147600
108	HK	食腦喪Ｂ	zh.wikipedia	147000
109	HK	劉沛蘅	zh.wikipedia	146600
110	HK	陳嘉慧	zh.wikipedia	146000
111	HK	弗拉基米尔·泽连斯基	zh.wikipedia	145100
112	HK	倪匡	zh.wikipedia	145000
113	HK	拳王_(2021年電視劇)	zh.wikipedia	144500
114	HK	胡春华	zh.wikipedia	144500
115	HK	智齒_(電影)	zh.wikipedia	144100
116	HK	慎海雄	zh.wikipedia	142600
117	HK	湯令山	zh.wikipedia	141300
118	HK	南希·佩洛西	zh.wikipedia	139900
119	HK	回歸_(無綫電視劇)	zh.wikipedia	139400
120	HK	三十九_(電視劇)	zh.wikipedia	136900
121	HK	魏浚笙	zh.wikipedia	136300
122	HK	黑金風暴	zh.wikipedia	135900
123	HK	李克强	zh.wikipedia	133900
124	HK	2021年度新城勁爆頒獎禮得獎名單	zh.wikipedia	131800
125	HK	弗拉基米尔·普京	zh.wikipedia	129800
126	HK	原振俠_(電視劇)	zh.wikipedia	128300
127	HK	七仙羽	zh.wikipedia	128100
128	HK	祝文君	zh.wikipedia	127300
129	HK	Oh！三光公寓！	zh.wikipedia	126900
130	HK	二月廿九_(電視劇)	zh.wikipedia	123000
131	HK	心花放	zh.wikipedia	121800
132	HK	中国东方航空5735号班机空难	zh.wikipedia	121500
133	HK	吳海昕	zh.wikipedia	119400
134	HK	Elizabeth_II	en.wikipedia	118300
135	HK	佟麗婭	zh.wikipedia	117800
136	HK	且试天下	zh.wikipedia	117500
137	HK	冥冥之中	zh.wikipedia	117200
138	HK	林俊賢	zh.wikipedia	116500
139	HK	Ghost_Doctor	zh.wikipedia	116400
140	HK	乔治六世	zh.wikipedia	115400
141	HK	林鄭月娥	zh.wikipedia	115200
142	HK	查爾斯三世	zh.wikipedia	115100
143	HK	封神榜_(2001年電視劇)	zh.wikipedia	114300
144	HK	單身即地獄	zh.wikipedia	114200
145	HK	2022_FIFA_World_Cup	en.wikipedia	114200
146	HK	File:中央氣象局107022號地震報告.gif	zh.wikipedia	112000
147	HK	林明禎	zh.wikipedia	111900
148	HK	戀上換裝娃娃	zh.wikipedia	111600
149	HK	張國榮	zh.wikipedia	111400
150	HK	超時空男臣	zh.wikipedia	111300
151	HK	雙生陌生人	zh.wikipedia	111200
152	HK	氣象廳的人們：社內戀愛殘酷史篇	zh.wikipedia	107200
153	HK	野人老師	zh.wikipedia	105400
154	HK	我們的藍調時光	zh.wikipedia	103900
155	HK	Good_Night_Show_全民造星	zh.wikipedia	103600
156	HK	2022年香港特別行政區行政長官選舉	zh.wikipedia	102500
157	HK	童時愛上你	zh.wikipedia	102500
158	HK	八號烈風或暴風信號	zh.wikipedia	102200
159	HK	流星_(韓國電視劇)	zh.wikipedia	101700
160	HK	誇世代	zh.wikipedia	101700
161	HK	少年法庭_(電視劇)	zh.wikipedia	101600
162	HK	金旻奎_(1994年)	zh.wikipedia	101100
163	HK	周星馳	zh.wikipedia	100900
164	HK	許軼	zh.wikipedia	99500
165	HK	林敏驄	zh.wikipedia	99000
166	HK	猛鬼差館	zh.wikipedia	98600
167	HK	星汉灿烂·月升沧海	zh.wikipedia	98600
168	HK	2022_Russian_invasion_of_Ukraine	en.wikipedia	98200
169	HK	珍寶王國	zh.wikipedia	98200
170	HK	陳卓賢	zh.wikipedia	97900
171	HK	冼國林	zh.wikipedia	97200
172	HK	王沪宁	zh.wikipedia	97100
173	HK	凌文龍	zh.wikipedia	96300
174	HK	丁薛祥	zh.wikipedia	96200
175	HK	徐若瑄	zh.wikipedia	96100
176	HK	艾爾登法環	zh.wikipedia	95600
177	HK	楚原	zh.wikipedia	95500
178	HK	阿媽有咗第二個	zh.wikipedia	95200
179	HK	蜘蛛人	zh.wikipedia	93400
180	HK	爱丁堡公爵菲利普亲王	zh.wikipedia	93200
181	HK	張敬軒演唱會列表	zh.wikipedia	93000
182	HK	IVE_(組合)	zh.wikipedia	92700
183	HK	林鈺洧	zh.wikipedia	92600
184	HK	2021年香港立法會選舉	zh.wikipedia	92300
185	HK	卡塔尔	zh.wikipedia	92300
186	HK	世正	zh.wikipedia	92200
187	HK	Again_My_Life	zh.wikipedia	91200
188	HK	月光騎士_(電視劇)	zh.wikipedia	90900
189	HK	蔡奇	zh.wikipedia	90900
190	HK	怪物_(2021年電視劇)	zh.wikipedia	90900
191	HK	派對咖孔明	zh.wikipedia	90500
192	HK	車銀優	zh.wikipedia	89400
193	HK	俄罗斯	zh.wikipedia	89400
194	HK	车臣共和国	zh.wikipedia	89400
195	HK	情逆三世緣	zh.wikipedia	88900
196	HK	開端	zh.wikipedia	88500
197	HK	岑珈其	zh.wikipedia	88400
198	HK	咒術迴戰	zh.wikipedia	88400
199	HK	怪奇物語	zh.wikipedia	88400
200	HK	團派	zh.wikipedia	87100
201	HK	第40屆香港電影金像獎	zh.wikipedia	85600
202	HK	猴痘	zh.wikipedia	85100
203	HK	葵涌邨	zh.wikipedia	84800
204	HK	Chill_Club_推介榜年度推介21/22	zh.wikipedia	83800
205	HK	孫藝真	zh.wikipedia	83700
206	HK	羅毓儀	zh.wikipedia	83000
207	HK	蘭桂坊慘劇	zh.wikipedia	82100
208	HK	強尼·戴普	zh.wikipedia	81700
209	HK	王淨	zh.wikipedia	81100
210	HK	怪獸與鄧不利多的秘密	zh.wikipedia	80900
211	HK	沙田至中環綫	zh.wikipedia	80800
212	HK	中国共产党中央政治局常务委员会	zh.wikipedia	80100
213	HK	李希	zh.wikipedia	80000
214	HK	馭鮫記	zh.wikipedia	79100
215	HK	怒火街頭2	zh.wikipedia	78800
216	HK	朴恩斌	zh.wikipedia	78700
217	HK	反對動態清零政策運動	zh.wikipedia	78700
218	HK	薛仁雅	zh.wikipedia	78600
219	HK	余生，请多指教	zh.wikipedia	78400
220	HK	袁嘉敏	zh.wikipedia	78100
221	HK	繩角	zh.wikipedia	76800
222	HK	湯姆·克魯斯	zh.wikipedia	76500
223	HK	陳漢娜	zh.wikipedia	76100
224	HK	萬千星輝頒獎典禮2021	zh.wikipedia	76000
225	HK	蔡潔	zh.wikipedia	75900
226	HK	馭鮫記之與君初相識·恰似故人歸	zh.wikipedia	75400
227	HK	大師兄_(電影)	zh.wikipedia	75000
228	HK	威爾斯王妃戴安娜	zh.wikipedia	74800
229	HK	陳瀅	zh.wikipedia	74500
230	HK	永恆族_(電影)	zh.wikipedia	74100
231	HK	財閥家的小兒子	zh.wikipedia	74000
232	HK	沉香如屑	zh.wikipedia	73900
233	HK	安柏·赫德	zh.wikipedia	73800
234	HK	小女子_(電視劇)	zh.wikipedia	73700
235	HK	姚焯菲	zh.wikipedia	73200
236	HK	譚俊彥	zh.wikipedia	72900
237	HK	乘风破浪_(第三季)	zh.wikipedia	72800
238	HK	刘雅瑟	zh.wikipedia	72200
239	HK	亚速营	zh.wikipedia	72100
240	HK	失语症	zh.wikipedia	72000
241	HK	千萬別抬頭	zh.wikipedia	71700
242	HK	狮子山下的故事	zh.wikipedia	71700
243	HK	陳僖儀	zh.wikipedia	70900
244	HK	東加	zh.wikipedia	70600
245	HK	區家麟	zh.wikipedia	70600
246	HK	COLLAR_(組合)	zh.wikipedia	69900
247	HK	Penthouse_2	zh.wikipedia	68900
248	HK	約克公爵安德魯王子	zh.wikipedia	68000
249	HK	吳亦凡	zh.wikipedia	68000
250	HK	劉德華	zh.wikipedia	67300
251	HK	蘇芷晴	zh.wikipedia	67300
252	HK	香港麻雀胡牌列表	zh.wikipedia	66800
253	HK	岑寧兒	zh.wikipedia	66500
254	HK	郭柏姸	zh.wikipedia	66200
255	HK	嘉玲	zh.wikipedia	66100
256	HK	Jeffrey_Dahmer	en.wikipedia	65900
257	HK	中国中央电视台	zh.wikipedia	65800
258	HK	袁澧林	zh.wikipedia	65500
259	HK	彭帥指控張高麗性醜聞事件	zh.wikipedia	65100
260	HK	雷神索爾：愛與雷霆	zh.wikipedia	65000
261	HK	安妮长公主	zh.wikipedia	64800
262	HK	邱彥筒	zh.wikipedia	64400
263	HK	李易峰	zh.wikipedia	64300
264	HK	哈利·波特	zh.wikipedia	64000
265	HK	三夫	zh.wikipedia	63700
266	HK	黃栢文	zh.wikipedia	63700
267	HK	中華民國	zh.wikipedia	63400
268	HK	第三佈局_塵沙惑	zh.wikipedia	63400
269	HK	白色強人	zh.wikipedia	63300
270	HK	爱德华八世	zh.wikipedia	63300
271	HK	明宣宗	zh.wikipedia	63200
272	HK	楊茜堯	zh.wikipedia	62200
273	HK	朴所羅門	zh.wikipedia	62200
274	HK	李玟	zh.wikipedia	62000
275	HK	赵乐际	zh.wikipedia	61900
276	HK	胡锦涛二十大离场事件	zh.wikipedia	61700
277	HK	千元律師	zh.wikipedia	61400
278	HK	十月初五的月光	zh.wikipedia	60400
279	HK	Queendom_2	zh.wikipedia	60400
280	HK	王丹妮	zh.wikipedia	60300
281	HK	媽的多重宇宙	zh.wikipedia	60000
282	HK	2022年度香港小姐競選	zh.wikipedia	59700
283	HK	Top_Gun:_Maverick	en.wikipedia	59600
284	HK	徐熙媛	zh.wikipedia	59500
285	HK	還有明天	zh.wikipedia	59200
286	HK	十月初五的月光_(2000年電視劇)	zh.wikipedia	59000
287	HK	王子奇	zh.wikipedia	59000
288	HK	利陸雁群	zh.wikipedia	58600
289	HK	威爾斯親王威廉	zh.wikipedia	58600
290	HK	習近平派系	zh.wikipedia	58500
291	HK	史美倫	zh.wikipedia	58400
292	HK	C_AllStar	zh.wikipedia	58100
293	HK	趙怡賢	zh.wikipedia	58000
294	HK	苏联	zh.wikipedia	57600
295	HK	2020年度叱咤樂壇流行榜頒獎典禮得獎名單	zh.wikipedia	57400
296	HK	蘇雅琳	zh.wikipedia	57400
297	HK	南京大屠殺	zh.wikipedia	57300
298	HK	苏晓彤	zh.wikipedia	57200
299	HK	使徒行者2：諜影行動	zh.wikipedia	56800
300	HK	栗战书	zh.wikipedia	56700
301	HK	Serrini	zh.wikipedia	56300
302	HK	葉蒨文	zh.wikipedia	56100
303	HK	LE_SSERAFIM	zh.wikipedia	56000
304	HK	紙房子：韓國篇	zh.wikipedia	56000
305	HK	機動戰士GUNDAM_水星的魔女	zh.wikipedia	55600
306	HK	2019冠状病毒病疫情	zh.wikipedia	55500
307	HK	駭客任務：復活	zh.wikipedia	55400
308	HK	廖子妤	zh.wikipedia	55300
309	HK	陳湛文	zh.wikipedia	55200
310	HK	難兄難弟_(1997年電視劇)	zh.wikipedia	55200
311	HK	陳蕾	zh.wikipedia	55100
312	HK	王家晴	zh.wikipedia	54900
313	HK	威爾·史密斯	zh.wikipedia	54800
314	HK	安德魯·加菲爾德	zh.wikipedia	54500
315	HK	為何是吳秀才	zh.wikipedia	54500
316	HK	林麗嬋	zh.wikipedia	54100
317	HK	鄭欣宜	zh.wikipedia	54000
318	HK	刘惜君	zh.wikipedia	54000
319	HK	願榮光歸香港	zh.wikipedia	53900
320	HK	馮允謙	zh.wikipedia	53800
321	HK	月光騎士	zh.wikipedia	53800
322	HK	Charles_III	en.wikipedia	53800
323	HK	黑客帝国	zh.wikipedia	53600
324	HK	胡海峰	zh.wikipedia	53600
325	HK	蜘蛛侠系列电影	zh.wikipedia	53300
326	HK	咒_(電影)	zh.wikipedia	53300
327	HK	怒火街頭	zh.wikipedia	53000
328	HK	全民造星II	zh.wikipedia	52800
329	HK	伍樂怡	zh.wikipedia	52800
330	HK	蔡思韵	zh.wikipedia	52700
331	HK	張蔓姿	zh.wikipedia	52400
332	HK	朴持厚	zh.wikipedia	52300
333	HK	玄彬	zh.wikipedia	52300
334	HK	倚天屠龍記_(2019年電視劇)	zh.wikipedia	52300
335	HK	里希·苏纳克	zh.wikipedia	52000
336	HK	Top_Gun	en.wikipedia	51700
337	HK	神探大戰	zh.wikipedia	51700
338	HK	Spider-Man:_No_Way_Home	en.wikipedia	51500
339	HK	我的情敵女婿	zh.wikipedia	51500
340	HK	謝賢	zh.wikipedia	51300
341	HK	寄生上流	zh.wikipedia	51000
342	HK	侏羅紀世界：統霸天下	zh.wikipedia	50700
343	HK	单依纯	zh.wikipedia	50600
344	HK	江泽民派系	zh.wikipedia	50600
345	HK	Anna_Sorokin	en.wikipedia	50500
346	HK	金湯匙_(電視劇)	zh.wikipedia	50500
347	HK	中國的最後警告	zh.wikipedia	50400
348	HK	泰坦尼克号_(1997年电影)	zh.wikipedia	50300
349	HK	漫威电影宇宙	zh.wikipedia	49900
350	HK	南柱赫	zh.wikipedia	49900
351	HK	酷龍	zh.wikipedia	49900
352	HK	Penthouse_(電視劇)	zh.wikipedia	49500
353	HK	文佳煐	zh.wikipedia	49400
354	HK	林翠	zh.wikipedia	49200
355	HK	Lycoris_Recoil_莉可麗絲	zh.wikipedia	49200
356	HK	瑪嘉烈公主_(斯諾登伯爵夫人)	zh.wikipedia	49200
357	HK	乔治五世	zh.wikipedia	49000
358	HK	李彩華	zh.wikipedia	48700
359	HK	金泰梨	zh.wikipedia	48400
360	HK	鍾柔美	zh.wikipedia	48300
361	HK	拆弹专家_(电影)	zh.wikipedia	48100
362	HK	香港特別行政區行政長官	zh.wikipedia	48000
363	HK	強烈熱帶風暴尼格_(2022年)	zh.wikipedia	48000
364	HK	江𤒹生	zh.wikipedia	47900
365	HK	柯玲玲	zh.wikipedia	47900
366	HK	薄熙来	zh.wikipedia	47900
367	HK	許瑋甯	zh.wikipedia	47800
368	HK	王心凌	zh.wikipedia	47700
369	HK	宋芸樺	zh.wikipedia	47500
370	HK	李施嬅	zh.wikipedia	47300
371	HK	Shinzo_Abe	en.wikipedia	47200
372	HK	劉俊謙_(香港)	zh.wikipedia	47100
373	HK	李少光	zh.wikipedia	47100
374	HK	大都會_(電視劇)	zh.wikipedia	46900
375	HK	BY2	zh.wikipedia	46800
376	HK	成吉思汗_(無綫電視劇)	zh.wikipedia	46800
377	HK	黑亞當_(電影)	zh.wikipedia	46700
378	HK	追龍_(電影)	zh.wikipedia	46600
379	HK	傅家俊	zh.wikipedia	46600
380	HK	2022年世界女子排球錦標賽	zh.wikipedia	46500
381	HK	徐州八孩母亲风波	zh.wikipedia	46400
382	HK	威塞克斯伯爵爱德华王子	zh.wikipedia	46400
383	HK	周國賢	zh.wikipedia	46300
384	HK	基斯坦奴·朗拿度	zh.wikipedia	46200
385	HK	黑豹2：瓦干達萬歲	zh.wikipedia	46100
386	HK	蜘蛛人：離家日	zh.wikipedia	45800
387	HK	赵紫阳	zh.wikipedia	45800
388	HK	闔家辣	zh.wikipedia	45700
389	HK	聲夢傳奇	zh.wikipedia	45200
390	HK	洪嘉豪	zh.wikipedia	45200
391	HK	吳啟洋	zh.wikipedia	45100
392	HK	焦姣	zh.wikipedia	45000
393	HK	賭城風雲III	zh.wikipedia	44900
394	HK	中国共产党中央政治局	zh.wikipedia	44600
395	HK	陈巍	zh.wikipedia	44400
396	HK	汤姆·赫兰德	zh.wikipedia	44300
397	HK	Ukraine	en.wikipedia	44300
398	HK	Amber_Heard	en.wikipedia	44200
399	HK	神田沙也加	zh.wikipedia	44100
400	HK	姜麗文	zh.wikipedia	44100
401	HK	周笔畅	zh.wikipedia	44000
402	HK	伊丽莎白·特拉斯	zh.wikipedia	44000
403	HK	叱咤樂壇流行榜頒獎典禮	zh.wikipedia	43700
404	HK	Eileen_Gu	en.wikipedia	43600
405	HK	Rishi_Sunak	en.wikipedia	43500
406	HK	七夕	zh.wikipedia	43300
407	HK	東鐵綫	zh.wikipedia	42900
408	HK	林子祥	zh.wikipedia	42800
409	HK	柳應廷	zh.wikipedia	42700
410	HK	曾慕雪	zh.wikipedia	42500
411	HK	金世正	zh.wikipedia	42300
412	HK	Ansel_Adams	en.wikipedia	42100
413	HK	利孝和	zh.wikipedia	42000
414	HK	Liz_Truss	en.wikipedia	41900
415	HK	白色情人節	zh.wikipedia	41700
416	HK	彭帥與張高麗性醜聞	zh.wikipedia	41600
417	HK	胡楓	zh.wikipedia	41200
418	HK	瘋狂愛上你	zh.wikipedia	41200
419	HK	王岐山	zh.wikipedia	41100
420	HK	楊家將_(無綫電視劇)	zh.wikipedia	41000
421	HK	蜘蛛人：返校日	zh.wikipedia	40900
422	HK	2022年上海乌鲁木齐中路抗议	zh.wikipedia	40900
423	HK	羅啟銳	zh.wikipedia	40800
424	HK	何詩蓓	zh.wikipedia	40500
425	HK	我的出走日記	zh.wikipedia	40500
426	HK	Penthouse_3	zh.wikipedia	40400
427	HK	大發不動產	zh.wikipedia	40400
428	HK	王智騫	zh.wikipedia	40400
429	HK	86－不存在的戰區－	zh.wikipedia	40200
430	HK	邱澤	zh.wikipedia	40100
431	HK	楊偉倫	zh.wikipedia	40000
432	HK	托比·马圭尔	zh.wikipedia	39900
433	HK	孙力军	zh.wikipedia	39900
434	HK	林志穎	zh.wikipedia	39900
435	HK	傅政华	zh.wikipedia	39700
436	HK	2022年女子排球國家聯賽	zh.wikipedia	39700
437	HK	Rondodasosa	it.wikipedia	39500
438	HK	Missing：他們存在過	zh.wikipedia	39400
439	HK	殺出個黃昏	zh.wikipedia	39400
440	HK	2018年國際足協世界盃	zh.wikipedia	39400
441	HK	熊抱青春記	zh.wikipedia	39300
442	HK	陳木勝	zh.wikipedia	39200
443	HK	伊莉莎白王太后	zh.wikipedia	39200
444	HK	卿卿日常	zh.wikipedia	39200
445	HK	P1X3L	zh.wikipedia	39100
446	HK	古天樂	zh.wikipedia	39100
447	HK	哈萨克斯坦	zh.wikipedia	39000
448	HK	追龍II：賊王	zh.wikipedia	38900
449	HK	冰壺	zh.wikipedia	38700
450	HK	少女时代	zh.wikipedia	38600
451	HK	非同質化代幣	zh.wikipedia	38400
452	HK	朱易	zh.wikipedia	38400
453	HK	浜口愛子	ja.wikipedia	38200
454	HK	區明妙	zh.wikipedia	38100
455	HK	白俄罗斯	zh.wikipedia	38100
456	HK	秦沛	zh.wikipedia	37800
457	HK	疟疾	zh.wikipedia	37700
458	HK	六合彩	zh.wikipedia	37400
459	HK	陶大宇	zh.wikipedia	37300
460	HK	賭俠大戰拉斯維加斯	zh.wikipedia	37300
461	HK	颱風山竹_(2018年)	zh.wikipedia	37300
462	HK	蔡東豪	zh.wikipedia	37100
463	HK	蜘蛛人_(電影)	zh.wikipedia	36800
464	HK	黃正宜	zh.wikipedia	36800
465	HK	BIGBANG	zh.wikipedia	36800
466	HK	葛綽瑤	zh.wikipedia	36700
467	HK	可怜天下父母心_(电影)	zh.wikipedia	36600
468	HK	萬聖夜	zh.wikipedia	36600
469	HK	克里米亚	zh.wikipedia	36500
470	HK	2022年太平洋颱風季	zh.wikipedia	36500
471	HK	2022年南西·裴洛西訪問台灣	zh.wikipedia	36500
472	HK	大國文化集團	zh.wikipedia	36400
473	HK	薛影儀	zh.wikipedia	36400
474	HK	One_the_Woman	zh.wikipedia	36400
475	HK	林夏薇	zh.wikipedia	36100
476	HK	藤子不二雄Ⓐ	zh.wikipedia	36000
477	HK	聲夢JUNIOR	zh.wikipedia	35900
478	HK	FIFA_World_Cup	en.wikipedia	35900
479	HK	沈殿霞	zh.wikipedia	35800
480	HK	翻車魚	zh.wikipedia	35800
481	HK	2022年世界羽毛球錦標賽	zh.wikipedia	35700
482	HK	她和她的她	zh.wikipedia	35600
483	HK	陳國基	zh.wikipedia	35500
484	HK	陈吉宁	zh.wikipedia	35500
485	HK	何韻詩	zh.wikipedia	35000
486	HK	MakerVille	zh.wikipedia	34900
487	HK	任暟晴	zh.wikipedia	34900
488	HK	國殤之柱	zh.wikipedia	34700
489	HK	會展站	zh.wikipedia	34700
490	HK	郭柏妍	zh.wikipedia	34700
491	HK	哈利波特系列電影	zh.wikipedia	34200
492	HK	徐州八孩母親事件	zh.wikipedia	34200
493	HK	胡耀邦	zh.wikipedia	34200
494	HK	元宇宙	zh.wikipedia	34100
495	HK	陳曉華	zh.wikipedia	33900
496	HK	邵國華_(主持人)	zh.wikipedia	33800
497	HK	蔡若蓮	zh.wikipedia	33700
498	HK	台灣海峽飛彈危機	zh.wikipedia	33600
499	HK	王羽	zh.wikipedia	33400
