	country	page	project	views	4
0	PH	Main_Page	en.wikipedia	19838500	
1	PH	Special:Search	en.wikipedia	8601200	
2	PH	Cleopatra	en.wikipedia	3400400	
3	PH	YouTube	en.wikipedia	2532700	
4	PH	Philippines	en.wikipedia	1610100	
5	PH	Bongbong_Marcos	en.wikipedia	1507800	
6	PH	Facebook	en.wikipedia	1401900	
7	PH	2022_Philippine_presidential_election	en.wikipedia	1200700	
8	PH	Google	en.wikipedia	1124500	
9	PH	Roblox	en.wikipedia	1105700	
10	PH	CEO	en.wikipedia	1036400	
11	PH	Candidates_in_the_2022_Philippine_Senate_election	en.wikipedia	1023100	
12	PH	YouTube_Music	en.wikipedia	1013600	
13	PH	Ferdinand_Marcos	en.wikipedia	995800	
14	PH	YouTube_Premium	en.wikipedia	971700	
15	PH	Susan_Wojcicki	en.wikipedia	964800	
16	PH	List_of_presidents_of_the_Philippines	en.wikipedia	942900	
17	PH	Jeffrey_Dahmer	en.wikipedia	932400	
18	PH	Meta_Platforms	en.wikipedia	898700	
19	PH	Internet	en.wikipedia	872700	
20	PH	José_Rizal	en.wikipedia	830500	
21	PH	Leni_Robredo	en.wikipedia	783300	
22	PH	2016_Philippine_presidential_election	en.wikipedia	781900	
23	PH	IOS	en.wikipedia	767500	
24	PH	Google_Translate	en.wikipedia	761500	
25	PH	Gmail	en.wikipedia	747200	
26	PH	Microsoft_Windows	en.wikipedia	739100	
27	PH	Video_hosting_service	en.wikipedia	728100	
28	PH	Android_(operating_system)	en.wikipedia	718800	
29	PH	Spider-Man:_No_Way_Home	en.wikipedia	663400	
30	PH	Academic_grading_in_the_Philippines	en.wikipedia	614000	
31	PH	All_of_Us_Are_Dead	en.wikipedia	583500	
32	PH	Elizabeth_II	en.wikipedia	554900	
33	PH	JavaScript	en.wikipedia	537200	
34	PH	2021_Southeast_Asian_Games	en.wikipedia	477000	
35	PH	2_Good_2_Be_True	en.wikipedia	461200	
36	PH	MacOS	en.wikipedia	452900	
37	PH	2022_Russian_invasion_of_Ukraine	en.wikipedia	449200	
38	PH	Candidates_in_the_2022_Philippine_presidential_election	en.wikipedia	446000	
39	PH	Doctor_Strange_in_the_Multiverse_of_Madness	en.wikipedia	442900	
40	PH	Rodrigo_Duterte	en.wikipedia	431800	
41	PH	Senate_of_the_Philippines	en.wikipedia	406700	
42	PH	People's_Television_Network	en.wikipedia	406400	
43	PH	Sara_Duterte	en.wikipedia	400400	
44	PH	Ñ	en.wikipedia	362000	
45	PH	C++	en.wikipedia	343600	
46	PH	Extraordinary_Attorney_Woo	en.wikipedia	334700	
47	PH	Snowdrop_(South_Korean_TV_series)	en.wikipedia	333900	
48	PH	Google_Drive	en.wikipedia	333300	
49	PH	House_of_the_Dragon	en.wikipedia	324100	
50	PH	Business_Proposal	en.wikipedia	311500	
51	PH	Encanto_(film)	en.wikipedia	296700	
52	PH	Twenty-Five_Twenty-One	en.wikipedia	293500	
53	PH	Alchemy_of_Souls	en.wikipedia	284700	
54	PH	Top_Gun:_Maverick	en.wikipedia	276700	
55	PH	Miss_Universe_2021	en.wikipedia	276200	
56	PH	Wika	tl.wikipedia	272200	
57	PH	Charles_III	en.wikipedia	261400	
58	PH	Thor:_Love_and_Thunder	en.wikipedia	261200	
59	PH	2022_Philippine_Senate_election	en.wikipedia	259200	
60	PH	Metro_Manila	en.wikipedia	258500	
61	PH	Google_Classroom	en.wikipedia	256600	
62	PH	Cherie_Gil	en.wikipedia	253600	
63	PH	Imelda_Marcos	en.wikipedia	252700	
64	PH	2022_Philippine_general_election	en.wikipedia	252200	
65	PH	Commons:Wiki_Loves_Earth_2022_in_the_Philippines	commons.wikimedia	251500	
66	PH	Eternals_(film)	en.wikipedia	249400	
67	PH	Natatangi:Maghanap	tl.wikipedia	248300	
68	PH	People_Power_Revolution	en.wikipedia	244200	
69	PH	Amber_Heard	en.wikipedia	237100	
70	PH	Rowena_Guanzon	en.wikipedia	231000	
71	PH	Pinoy_Big_Brother:_Kumunity_Season_10	en.wikipedia	230500	
72	PH	Single-player	en.wikipedia	230200	
73	PH	Manifest_(TV_series)	en.wikipedia	221100	
74	PH	UniTeam_Alliance	en.wikipedia	214800	
75	PH	El_filibusterismo	en.wikipedia	212400	
76	PH	The_Batman_(film)	en.wikipedia	212400	
77	PH	Black_Panther:_Wakanda_Forever	en.wikipedia	209200	
78	PH	Party-list_representation_in_the_House_of_Representatives_of_the_Philippines	en.wikipedia	207100	
79	PH	Our_Beloved_Summer	en.wikipedia	206500	
80	PH	Noli_Me_Tángere_(novel)	en.wikipedia	204000	
81	PH	2010_Philippine_presidential_election	en.wikipedia	203700	
82	PH	Stranger_Things	en.wikipedia	201500	
83	PH	Darna_(2022_TV_series)	en.wikipedia	199600	
84	PH	Johnny_Depp	en.wikipedia	199300	
85	PH	Imee_Marcos	en.wikipedia	199200	
86	PH	Big_Mouth_(South_Korean_TV_series)	en.wikipedia	195400	
87	PH	Ukraine	en.wikipedia	192300	
88	PH	Vladimir_Putin	en.wikipedia	191900	
89	PH	Isko_Moreno	en.wikipedia	188500	
90	PH	Philippines_at_the_2021_Southeast_Asian_Games	en.wikipedia	188500	
91	PH	Russo-Ukrainian_War	en.wikipedia	188200	
92	PH	Commons:Wiki_Loves_Monuments_2022_in_the_Philippines	commons.wikimedia	186000	
93	PH	Park_Eun-bin	en.wikipedia	185800	
94	PH	Volodymyr_Zelenskyy	en.wikipedia	185500	
95	PH	Black_Adam_(film)	en.wikipedia	183200	
96	PH	Anna_Sorokin	en.wikipedia	180500	
97	PH	Beeg	en.wikipedia	175400	
98	PH	Stranger_Things_(season_4)	en.wikipedia	173200	
99	PH	Kim_Se-jeong	en.wikipedia	170200	
100	PH	Ahn_Hyo-seop	en.wikipedia	167800	
101	PH	Noli_Me_Tangere/Characters	en.wikibooks	165700	
102	PH	File:YouTube_social_white_squircle.svg	commons.wikimedia	163900	
103	PH	Euphoria_(American_TV_series)	en.wikipedia	160700	
104	PH	Globalisasyon	tl.wikipedia	159500	
105	PH	Robin_Padilla	en.wikipedia	159100	
106	PH	Corazon_Aquino	en.wikipedia	158400	
107	PH	Diana	_Princess_of_Wales	en.wikipedia	155300.0
108	PH	Susan_Roces	en.wikipedia	154400	
109	PH	Aaron_Carter	en.wikipedia	152900	
110	PH	Kim_Tae-ri	en.wikipedia	152800	
111	PH	Leni_Robredo_2022_presidential_campaign	en.wikipedia	152600	
112	PH	Opinion_polling_for_the_2022_Philippine_presidential_election	en.wikipedia	151600	
113	PH	Christopher_Scarver	en.wikipedia	148800	
114	PH	George_VI	en.wikipedia	146400	
115	PH	Moon_Knight_(TV_series)	en.wikipedia	145900	
116	PH	Java_(programming_language)	en.wikipedia	144300	
117	PH	Kang_Tae-oh	en.wikipedia	143200	
118	PH	President_of_the_Philippines	en.wikipedia	142900	
119	PH	Shinzo_Abe	en.wikipedia	142100	
120	PH	Morbius_(film)	en.wikipedia	141100	
121	PH	Orphan:_First_Kill	en.wikipedia	140900	
122	PH	My_Dress-Up_Darling	en.wikipedia	140600	
123	PH	Aimee_Marcos	en.wikipedia	140600	
124	PH	Incantation_(film)	en.wikipedia	140300	
125	PH	Little_Women_(2022_TV_series)	en.wikipedia	138800	
126	PH	2022_Pacific_typhoon_season	en.wikipedia	138600	
127	PH	Bongbong_Marcos_2022_presidential_campaign	en.wikipedia	137300	
128	PH	Liberal_Party_(Philippines)	en.wikipedia	136200	
129	PH	The_Broken_Marriage_Vow	en.wikipedia	135300	
130	PH	UAAP_Season_84_women's_volleyball_tournament	en.wikipedia	134800	
131	PH	Miss_World_2021	en.wikipedia	134600	
132	PH	The_Sandman_(TV_series)	en.wikipedia	133800	
133	PH	Martial_law_in_the_Philippines	en.wikipedia	132700	
134	PH	First_Mass_in_the_Philippines	en.wikipedia	131500	
135	PH	Don't_Look_Up_(2021_film)	en.wikipedia	131400	
136	PH	Juancho_Hernangómez	en.wikipedia	131300	
137	PH	2022_Philippine_barangay_and_Sangguniang_Kabataan_elections	en.wikipedia	131100	
138	PH	The_Lord_of_the_Rings:_The_Rings_of_Power	en.wikipedia	129400	
139	PH	Fidel_V._Ramos	en.wikipedia	127300	
140	PH	2022_FIFA_World_Cup	en.wikipedia	126500	
141	PH	Prince_Philip	_Duke_of_Edinburgh	en.wikipedia	124300.0
142	PH	Choi_Woo-shik	en.wikipedia	122000	
143	PH	Spy_×_Family	en.wikipedia	120600	
144	PH	Wednesday_(TV_series)	en.wikipedia	120400	
145	PH	Deanna_Wong	en.wikipedia	120200	
146	PH	Katipunan	en.wikipedia	119400	
147	PH	Clarita_Carlos	en.wikipedia	119400	
148	PH	Maria_Clara_at_Ibarra	en.wikipedia	119100	
149	PH	Cry_of_Pugad_Lawin	en.wikipedia	118400	
150	PH	Shopee	en.wikipedia	116600	
151	PH	Member_states_of_NATO	en.wikipedia	115000	
152	PH	Drag_Race_Philippines	en.wikipedia	115000	
153	PH	Miss_Universe_Philippines_2022	en.wikipedia	113800	
154	PH	Cho_Yi-hyun	en.wikipedia	113700	
155	PH	Wikipedia:Featured_pictures	en.wikipedia	113200	
156	PH	NATO	en.wikipedia	112500	
157	PH	Mga_wika_sa_Pilipinas	tl.wikipedia	111600	
158	PH	Marilyn_Monroe	en.wikipedia	108800	
159	PH	Science_and_technology_in_the_Philippines	en.wikipedia	105400	
160	PH	2022_Quezon_City_local_elections	en.wikipedia	105200	
161	PH	2022_NBA_draft	en.wikipedia	105200	
162	PH	Sh**ting_Stars	en.wikipedia	104900	
163	PH	Unang_Digmaang_Pandaigdig	tl.wikipedia	103900	
164	PH	2022_Premier_Volleyball_League_Open_Conference	en.wikipedia	103400	
165	PH	Elon_Musk	en.wikipedia	102700	
166	PH	Happiness_(South_Korean_TV_series)	en.wikipedia	101400	
167	PH	Top_Gun	en.wikipedia	101100	
168	PH	Panfilo_Lacson	en.wikipedia	99800	
169	PH	Edward_VIII	en.wikipedia	99300	
170	PH	Manila	en.wikipedia	98700	
171	PH	Ikalawang_Digmaang_Pandaigdig	tl.wikipedia	98300	
172	PH	Stephen_Curry	en.wikipedia	97700	
173	PH	Kim_Min-kyu_(actor)	en.wikipedia	97400	
174	PH	Seol_In-ah	en.wikipedia	96700	
175	PH	Jurassic_World_Dominion	en.wikipedia	94600	
176	PH	Typhoon_Haiyan	en.wikipedia	93900	
177	PH	Yoon_Chan-young	en.wikipedia	93900	
178	PH	The_Boys_(TV_series)	en.wikipedia	93100	
179	PH	Ang_Probinsyano	en.wikipedia	92500	
180	PH	Jenna_Ortega	en.wikipedia	91800	
181	PH	2022_Asian_Women's_Volleyball_Cup	en.wikipedia	91800	
182	PH	2022_Philippine_House_of_Representatives_elections	en.wikipedia	91300	
183	PH	Google_Maps	en.wikipedia	90700	
184	PH	Princess_Margaret	_Countess_of_Snowdon	en.wikipedia	90600.0
185	PH	2004_Philippine_presidential_election	en.wikipedia	89300	
186	PH	2022_Manila_local_elections	en.wikipedia	89000	
187	PH	Francis_Pangilinan	en.wikipedia	88800	
188	PH	Toni_Gonzaga	en.wikipedia	88600	
189	PH	The_Pirate_Bay	en.wikipedia	87900	
190	PH	2022_Premier_Volleyball_League_Reinforced_Conference	en.wikipedia	87000	
191	PH	Russia–Ukraine_relations	en.wikipedia	86700	
192	PH	Mitolohiya	tl.wikipedia	86200	
193	PH	20th_Century_Girl	en.wikipedia	86200	
194	PH	Gloria_Macapagal_Arroyo	en.wikipedia	85900	
195	PH	William	_Prince_of_Wales	en.wikipedia	85900.0
196	PH	Miss_Universe_2022	en.wikipedia	85600	
197	PH	Orphan_(2009_film)	en.wikipedia	85200	
198	PH	Marcos_family	en.wikipedia	84200	
199	PH	Juan_Ponce_Enrile	en.wikipedia	83400	
200	PH	Olivia_Rodrigo	en.wikipedia	83300	
201	PH	List_of_ZIP_codes_in_the_Philippines	en.wikipedia	82400	
202	PH	UAAP_Season_84	en.wikipedia	82400	
203	PH	Ghost_Doctor	en.wikipedia	82200	
204	PH	Leody_de_Guzman	en.wikipedia	82100	
205	PH	Son_Ye-jin	en.wikipedia	81500	
206	PH	Moon_Knight	en.wikipedia	81200	
207	PH	Typhoon_Rai	en.wikipedia	80700	
208	PH	Kai_Sotto	en.wikipedia	79200	
209	PH	Araneta_family	en.wikipedia	78700	
210	PH	Prince_Harry	_Duke_of_Sussex	en.wikipedia	78500.0
211	PH	Hawkeye_(2021_TV_series)	en.wikipedia	77700	
212	PH	Andrew_Garfield	en.wikipedia	76900	
213	PH	The_Gray_Man_(2022_film)	en.wikipedia	75900	
214	PH	International_State_College_of_the_Philippines	en.wikipedia	75300	
215	PH	George_V	en.wikipedia	75200	
216	PH	Andrés_Bonifacio	en.wikipedia	74700	
217	PH	A_Business_Proposal	en.wikipedia	74600	
218	PH	List_of_Miss_Universe_titleholders	en.wikipedia	74500	
219	PH	Everything_Everywhere_All_at_Once	en.wikipedia	74000	
220	PH	The_Red_Sleeve	en.wikipedia	73500	
221	PH	Francisco_Balagtas	en.wikipedia	72500	
222	PH	Eve_(South_Korean_TV_series)	en.wikipedia	71800	
223	PH	Queen_Elizabeth_The_Queen_Mother	en.wikipedia	71600	
224	PH	Risa_Hontiveros	en.wikipedia	71500	
225	PH	She-Hulk:_Attorney_at_Law	en.wikipedia	71100	
226	PH	Anne	_Princess_Royal	en.wikipedia	70900.0
227	PH	Money_Heist:_Korea_–_Joint_Economic_Area	en.wikipedia	70400	
228	PH	Russia	en.wikipedia	70200	
229	PH	Queen_Victoria	en.wikipedia	69900	
230	PH	Jacob_Batalon	en.wikipedia	69600	
231	PH	Park_Ji-hoo	en.wikipedia	69600	
232	PH	Talaan_ng_mga_kabanata_sa_Noli_Me_Tangere	tl.wikipedia	69500	
233	PH	Hustle_(2022_film)	en.wikipedia	68600	
234	PH	Salawikain	tl.wikipedia	68300	
235	PH	Midnights	en.wikipedia	68200	
236	PH	Fantastic_Beasts:_The_Secrets_of_Dumbledore	en.wikipedia	68100	
237	PH	Benigno_Aquino_III	en.wikipedia	68000	
238	PH	Timog-silangang_Asya	tl.wikipedia	67600	
239	PH	Choi_Tae-joon	en.wikipedia	67500	
240	PH	Soviet_Union	en.wikipedia	67400	
241	PH	Jung_So-min	en.wikipedia	67100	
242	PH	Fernando_Poe_Jr.	en.wikipedia	66400	
243	PH	Nope_(film)	en.wikipedia	66300	
244	PH	Jordan_Clarkson	en.wikipedia	66300	
245	PH	F4_Thailand:_Boys_Over_Flowers	en.wikipedia	65900	
246	PH	Binibining_Pilipinas_2022	en.wikipedia	65500	
247	PH	Money_Heist	en.wikipedia	64900	
248	PH	Prince_Andrew	_Duke_of_York	en.wikipedia	64300.0
249	PH	Tham_Luang_cave_rescue	en.wikipedia	64200	
250	PH	Evan_Peters	en.wikipedia	64000	
251	PH	Gregorio_del_Pilar	en.wikipedia	63700	
252	PH	Dahmer_–_Monster:_The_Jeffrey_Dahmer_Story	en.wikipedia	63700	
253	PH	Deutsche_Welle	en.wikipedia	63600	
254	PH	Manny_Pacquiao	en.wikipedia	63500	
255	PH	Kim_Mi-soo	en.wikipedia	63200	
256	PH	Heograpiya	tl.wikipedia	63200	
257	PH	Sofia_Carson	en.wikipedia	62700	
258	PH	The_School_for_Good_and_Evil_(film)	en.wikipedia	62700	
259	PH	John_Wayne_Gacy	en.wikipedia	62500	
260	PH	The_Umbrella_Academy_(TV_series)	en.wikipedia	62400	
261	PH	1872_Cavite_mutiny	en.wikipedia	61700	
262	PH	Jesus_Crispin_Remulla	en.wikipedia	61600	
263	PH	2022_FIVB_Volleyball_Women's_Nations_League	en.wikipedia	61600	
264	PH	Loren_Legarda	en.wikipedia	61300	
265	PH	Joseph_Estrada	en.wikipedia	61300	
266	PH	Kuwentong-bayan	tl.wikipedia	61100	
267	PH	Taylor_Swift	en.wikipedia	60900	
268	PH	2022_FIBA_Asia_Cup	en.wikipedia	60800	
269	PH	Love_in_Contract	en.wikipedia	60800	
270	PH	UAAP_Season_84_men's_basketball_tournament	en.wikipedia	60500	
271	PH	The_Silent_Sea_(TV_series)	en.wikipedia	60200	
272	PH	Jesse_Robredo	en.wikipedia	60200	
273	PH	Mark_Zuckerberg	en.wikipedia	59500	
274	PH	Isabelle_Fuhrman	en.wikipedia	59500	
275	PH	Eduardo_Saverin	en.wikipedia	59400	
276	PH	Katips	en.wikipedia	59100	
277	PH	Chainsaw_Man	en.wikipedia	58900	
278	PH	Abot-Kamay_na_Pangarap	en.wikipedia	58500	
279	PH	Ibong_Adarna	en.wikipedia	58300	
280	PH	The_Witcher_(TV_series)	en.wikipedia	58100	
281	PH	2022_FIVB_Volleyball_Women's_World_Championship	en.wikipedia	57500	
282	PH	List_of_senators_elected_in_the_2022_Philippine_Senate_election	en.wikipedia	57400	
283	PH	Turning_Red	en.wikipedia	57000	
284	PH	Millie_Bobby_Brown	en.wikipedia	56900	
285	PH	The_Matrix_Resurrections	en.wikipedia	56500	
286	PH	Netflix	en.wikipedia	56300	
287	PH	Hyun_Bin	en.wikipedia	56300	
288	PH	Under_the_Queen's_Umbrella	en.wikipedia	56300	
289	PH	Southeast_Asian_Games	en.wikipedia	56200	
290	PH	Tobey_Maguire	en.wikipedia	56100	
291	PH	Sierra_Madre_(Philippines)	en.wikipedia	56100	
292	PH	Emma_D'Arcy	en.wikipedia	56000	
293	PH	2037_(film)	en.wikipedia	55300	
294	PH	Bella_Poarch	en.wikipedia	55300	
295	PH	Jason_David_Frank	en.wikipedia	55100	
296	PH	2022_FIVB_Volleyball_Men's_Nations_League	en.wikipedia	54900	
297	PH	UAAP_Season_85_basketball_tournaments	en.wikipedia	54900	
298	PH	Flag_of_the_Philippines	en.wikipedia	54500	
299	PH	2022_Laguna_local_elections	en.wikipedia	54400	
300	PH	FIFA_World_Cup	en.wikipedia	54300	
301	PH	Don't_Worry_Darling	en.wikipedia	54200	
302	PH	2022_Batangas_local_elections	en.wikipedia	54200	
303	PH	Mark_Gil	en.wikipedia	54200	
304	PH	Grace_Poe	en.wikipedia	54100	
305	PH	Roe_v._Wade	en.wikipedia	53700	
306	PH	BTS	en.wikipedia	53600	
307	PH	Beatrice_Gomez	en.wikipedia	53600	
308	PH	Idol_Philippines_(season_2)	en.wikipedia	53400	
309	PH	Reborn_Rich	en.wikipedia	53400	
310	PH	Miss_Universe	en.wikipedia	53100	
311	PH	Pambansang_wika	tl.wikipedia	53000	
312	PH	365_Days_(2020_film)	en.wikipedia	52900	
313	PH	Inventing_Anna	en.wikipedia	52600	
314	PH	Pachinko_(TV_series)	en.wikipedia	52500	
315	PH	Cebu–Cordova_Link_Expressway	en.wikipedia	52500	
316	PH	Dominic_Roco	en.wikipedia	52300	
317	PH	Forecasting_Love_and_Weather	en.wikipedia	52200	
318	PH	Andrés_Bonifacio	tl.wikipedia	52200	
319	PH	The_King's_Man	en.wikipedia	52100	
320	PH	Leo_Martinez	en.wikipedia	51900	
321	PH	Uncharted_(film)	en.wikipedia	51700	
322	PH	Demon_Slayer:_Kimetsu_no_Yaiba	en.wikipedia	51600	
323	PH	The_Penthouse:_War_in_Life	en.wikipedia	51300	
324	PH	List_of_vice_presidents_of_the_Philippines	en.wikipedia	51200	
325	PH	Lipunan	tl.wikipedia	50900	
326	PH	Eddie_Mesa	en.wikipedia	50700	
327	PH	Characteristics_of_research	en.wikiversity	50500	
328	PH	Edward_VII	en.wikipedia	50500	
329	PH	Philippines_women's_national_football_team	en.wikipedia	50400	
330	PH	Florante_at_Laura	en.wikipedia	50200	
331	PH	Jada_Pinkett_Smith	en.wikipedia	50100	
332	PH	WrestleMania_38	en.wikipedia	50000	
333	PH	List_of_highest-grossing_Philippine_films	en.wikipedia	49900	
334	PH	Operation_London_Bridge	en.wikipedia	49900	
335	PH	Walden_Bello	en.wikipedia	49800	
336	PH	Cambridge	_Massachusetts	en.wikipedia	49500.0
337	PH	2022_AFF_Women's_Championship	en.wikipedia	49500	
338	PH	File:YouTube_full-color_icon_(2017).svg	meta.wikimedia	49400	
339	PH	Benjamin_Diokno	en.wikipedia	49100	
340	PH	Information_and_communications_technology	en.wikipedia	48800	
341	PH	Peacemaker_(TV_series)	en.wikipedia	48700	
342	PH	All_TV_(Philippines)	en.wikipedia	48700	
343	PH	Obi-Wan_Kenobi_(TV_series)	en.wikipedia	48300	
344	PH	Danny_Javier	en.wikipedia	48300	
345	PH	Wikang_Filipino	tl.wikipedia	48000	
346	PH	Liz_Truss	en.wikipedia	47800	
347	PH	Rosemarie_Gil	en.wikipedia	47500	
348	PH	Panitikan	tl.wikipedia	47500	
349	PH	Team_Robredo–Pangilinan	en.wikipedia	47400	
350	PH	Demon_Slayer:_Kimetsu_no_Yaiba_(season_2)	en.wikipedia	47100	
351	PH	Betty_White	en.wikipedia	47100	
352	PH	Black_Knight_(Dane_Whitman)	en.wikipedia	47100	
353	PH	List_of_Teachers'_Days	en.wikipedia	47100	
354	PH	1998_Philippine_presidential_election	en.wikipedia	46800	
355	PH	United_Kingdom	en.wikipedia	46700	
356	PH	Anne_Heche	en.wikipedia	46300	
357	PH	Bridgerton	en.wikipedia	46100	
358	PH	The_dress	en.wikipedia	46000	
359	PH	List_of_NBA_champions	en.wikipedia	45900	
360	PH	Lovi_Poe	en.wikipedia	45900	
361	PH	Nam_Joo-hyuk	en.wikipedia	45700	
362	PH	Keith_Martin_(musician)	en.wikipedia	45700	
363	PH	Why_Her	en.wikipedia	45700	
364	PH	1899_(TV_series)	en.wikipedia	45600	
365	PH	Gomburza	en.wikipedia	45500	
366	PH	Prey_(2022_film)	en.wikipedia	45400	
367	PH	Paul_Soriano	en.wikipedia	45300	
368	PH	Sinking_of_MV_Sewol	en.wikipedia	45200	
369	PH	Mark_Villar	en.wikipedia	45200	
370	PH	List_of_Demon_Slayer:_Kimetsu_no_Yaiba_episodes	en.wikipedia	44600	
371	PH	Jung_Hae-in	en.wikipedia	44300	
372	PH	Kit_Thompson	en.wikipedia	44300	
373	PH	God_of_War_Ragnarök	en.wikipedia	44200	
374	PH	ACT-CIS_Partylist	en.wikipedia	44100	
375	PH	Unang_Pahina	tl.wikipedia	44100	
376	PH	Meghan	_Duchess_of_Sussex	en.wikipedia	44100.0
377	PH	Celeste_Cortesi	en.wikipedia	44000	
378	PH	Black_Adam	en.wikipedia	44000	
379	PH	Typhoons_in_the_Philippines	en.wikipedia	43900	
380	PH	Tom_Holland	en.wikipedia	43900	
381	PH	1986_Philippine_presidential_election	en.wikipedia	43900	
382	PH	Prince_Edward	_Earl_of_Wessex	en.wikipedia	43800.0
383	PH	PDP–Laban	en.wikipedia	43700	
384	PH	Catherine	_Princess_of_Wales	en.wikipedia	43400.0
385	PH	Emilio_Aguinaldo	en.wikipedia	43300	
386	PH	Lomon	en.wikipedia	43300	
387	PH	Charles_Cullen	en.wikipedia	43300	
388	PH	Ghostbusters:_Afterlife	en.wikipedia	43200	
389	PH	Lee_Yoo-mi	en.wikipedia	43200	
390	PH	Jane_De_Leon	en.wikipedia	43200	
391	PH	Severino_Reyes	en.wikipedia	43100	
392	PH	Martial_law_under_Ferdinand_Marcos	en.wikipedia	42900	
393	PH	2021_Metro_Manila_Film_Festival	en.wikipedia	42700	
394	PH	Camilo_Cascolan	en.wikipedia	42700	
395	PH	The_Witch:_Part_2._The_Other_One	en.wikipedia	42600	
396	PH	Periodic_table	en.wikipedia	42400	
397	PH	Miss_Grand_International_2022	en.wikipedia	42400	
398	PH	Park_Shin-hye	en.wikipedia	42100	
399	PH	Irene_Marcos	en.wikipedia	42100	
400	PH	Tom_Sturridge	en.wikipedia	41400	
401	PH	Rizal_Law	en.wikipedia	41300	
402	PH	Presidential_Communications_Group_(Philippines)	en.wikipedia	41300	
403	PH	Talumpati	tl.wikipedia	41300	
404	PH	Necrophilia	en.wikipedia	41100	
405	PH	Guillermo_del_Toro's_Cabinet_of_Curiosities	en.wikipedia	41100	
406	PH	Elections_in_the_Philippines	en.wikipedia	40900	
407	PH	List_of_Marvel_Cinematic_Universe_films	en.wikipedia	40800	
408	PH	Don't_Breathe_2	en.wikipedia	40600	
409	PH	Camilla	_Queen_consort_of_the_United_Kingdom	en.wikipedia	40600.0
410	PH	María_Clara	en.wikipedia	40600	
411	PH	Thirty-Nine	en.wikipedia	40500	
412	PH	Basketball_at_the_2021_Southeast_Asian_Games	en.wikipedia	40500	
413	PH	Texas_Chainsaw_Massacre_(2022_film)	en.wikipedia	40200	
414	PH	365_Days:_This_Day	en.wikipedia	40100	
415	PH	2022_monkeypox_outbreak	en.wikipedia	39800	
416	PH	Commission_on_Elections_(Philippines)	en.wikipedia	39700	
417	PH	Nutribun	en.wikipedia	39700	
418	PH	Miss_Earth_2022	en.wikipedia	39700	
419	PH	Bay_Area_Dragons	en.wikipedia	39600	
420	PH	Ms._Marvel_(TV_series)	en.wikipedia	39400	
421	PH	List_of_highest-grossing_films	en.wikipedia	39300	
422	PH	Cheslie_Kryst	en.wikipedia	39300	
423	PH	Bryanboy	en.wikipedia	39200	
424	PH	94th_Academy_Awards	en.wikipedia	39200	
425	PH	Philosophy	en.wikipedia	39200	
426	PH	The_Sound_of_Magic	en.wikipedia	38900	
427	PH	Resident_Evil:_Welcome_to_Raccoon_City	en.wikipedia	38800	
428	PH	Gemma_Chan	en.wikipedia	38800	
429	PH	Byeon_Woo-seok	en.wikipedia	38800	
430	PH	Royal_Rumble_(2022)	en.wikipedia	38600	
431	PH	2021_Mnet_Asian_Music_Awards	en.wikipedia	38400	
432	PH	World_Teachers'_Day	en.wikipedia	38400	
433	PH	Rishi_Sunak	en.wikipedia	38300	
434	PH	File:YouTube_full-color_icon_(2017).svg	commons.wikimedia	38200	
435	PH	List_of_senators_elected_in_the_2019_Philippine_Senate_election	en.wikipedia	38200	
436	PH	The_Hunt_(2020_film)	en.wikipedia	38200	
437	PH	Barbarian_(2022_film)	en.wikipedia	38100	
438	PH	Mobile_Legends_World_Championships	en.wikipedia	37800	
439	PH	Queendom_(TV_series)	en.wikipedia	37800	
440	PH	Will_Smith	en.wikipedia	37800	
441	PH	List_of_presidents_of_the_Philippines_by_previous_executive_experience	en.wikipedia	37800	
442	PH	Jamie_Campbell_Bower	en.wikipedia	37700	
443	PH	Black_Panther_(film)	en.wikipedia	37700	
444	PH	Taylor_Hawkins	en.wikipedia	37600	
445	PH	Red-tagging_in_the_Philippines	en.wikipedia	37500	
446	PH	Norberto_Gonzales	en.wikipedia	37400	
447	PH	Do_Revenge	en.wikipedia	37300	
448	PH	Chel_Diokno	en.wikipedia	36800	
449	PH	Nonito_Donaire	en.wikipedia	36600	
450	PH	Sandro_Marcos	en.wikipedia	36500	
451	PH	Leila_de_Lima	en.wikipedia	36400	
452	PH	Park_Ji-hu	en.wikipedia	36200	
453	PH	Assassination_of_Shinzo_Abe	en.wikipedia	35900	
454	PH	2019_Southeast_Asian_Games	en.wikipedia	35800	
455	PH	Parasite_(2019_film)	en.wikipedia	35700	
456	PH	Attack_on_Titan_(season_4)	en.wikipedia	35600	
457	PH	YIFY	en.wikipedia	35500	
458	PH	The_Sandman_(comic_book)	en.wikipedia	35500	
459	PH	Blunt_trauma	en.wikipedia	35300	
460	PH	Han_Hyo-joo	en.wikipedia	35000	
461	PH	Ricci_Rivero	en.wikipedia	35000	
462	PH	Killing_of_Percy_Lapid	en.wikipedia	34900	
463	PH	The_Adam_Project	en.wikipedia	34800	
464	PH	Smile_(2022_film)	en.wikipedia	34700	
465	PH	Xochitl_Gomez	en.wikipedia	34600	
466	PH	Partido_Federal_ng_Pilipinas	en.wikipedia	34500	
467	PH	Inauguration_of_Bongbong_Marcos	en.wikipedia	34200	
468	PH	Milly_Alcock	en.wikipedia	34100	
469	PH	Angelica_Panganiban	en.wikipedia	34000	
470	PH	Independence_Day_(Philippines)	en.wikipedia	34000	
471	PH	America_Chavez	en.wikipedia	33900	
472	PH	Elden_Ring	en.wikipedia	33800	
473	PH	Golden_State_Warriors	en.wikipedia	33800	
474	PH	Jesse_Anderson	en.wikipedia	33800	
475	PH	The_Unforgivable	en.wikipedia	33700	
476	PH	Olivia_Newton-John	en.wikipedia	33700	
477	PH	Mark_Magsayo	en.wikipedia	33500	
478	PH	Hwang_Min-hyun	en.wikipedia	33300	
479	PH	Katipunan	tl.wikipedia	33300	
480	PH	Presidential_elections_in_the_Philippines	en.wikipedia	33200	
481	PH	Darna	en.wikipedia	33200	
482	PH	Lydia_de_Vega	en.wikipedia	33000	
483	PH	Enola_Holmes_(film)	en.wikipedia	33000	
484	PH	Chad_Hurley	en.wikipedia	33000	
485	PH	Hilagang_Asya	tl.wikipedia	32700	
486	PH	Komunikasyon	tl.wikipedia	32600	
487	PH	List_of_Knowing_Bros_episodes	en.wikipedia	32500	
488	PH	Climate_change	en.wikipedia	32500	
489	PH	2019_Philippine_Senate_election	en.wikipedia	32400	
490	PH	Buhay_Party-List	en.wikipedia	32200	
491	PH	Simon_Leviev	en.wikipedia	32100	
492	PH	Sing_2	en.wikipedia	32000	
493	PH	Lightyear_(film)	en.wikipedia	32000	
494	PH	Boy_Abunda	en.wikipedia	31900	
495	PH	Now	_We_Are_Breaking_Up	en.wikipedia	31800.0
496	PH	Easter_Sunday_(film)	en.wikipedia	31800	
497	PH	Paolo_Banchero	en.wikipedia	31800	
498	PH	Cat	en.wikipedia	31800	
499	PH	San_Juanico_Bridge	en.wikipedia	31700	
