	country	page	project	views
0	AL	Main_Page	en.wikipedia	1109000
1	AL	Faqja_kryesore	sq.wikipedia	285700
2	AL	Ukraina	sq.wikipedia	39500
3	AL	Skënderbeu	sq.wikipedia	31300
4	AL	Bajram_Begaj	sq.wikipedia	21900
5	AL	Vladimir_Putin	en.wikipedia	20000
6	AL	Elizabeth_II	en.wikipedia	19600
7	AL	Fjalë_të_urta_shqiptare	sq.wikiquote	19400
8	AL	Ukraine	en.wikipedia	18500
9	AL	Rusia	sq.wikipedia	16300
10	AL	Radio_Television_of_Kosovo	en.wikipedia	16000
11	AL	Shpallja_e_Pavarësisë_së_Kosovës	sq.wikipedia	15500
12	AL	Lidhja_e_Prizrenit	sq.wikipedia	13500
13	AL	28_Nëntori_-_Dita_e_Flamurit	sq.wikipedia	10100
14	AL	Dita_Ndërkombëtare_e_Gruas	sq.wikipedia	9800
15	AL	Florian_Marku	en.wikipedia	9600
16	AL	Parkinson	sq.wikipedia	9500
17	AL	Lufta_e_Dytë_Botërore	sq.wikipedia	9300
18	AL	Bujar_Nishani	en.wikipedia	8900
19	AL	Fatkeqësia_e_Çernobilit	sq.wikipedia	8600
20	AL	Volodymyr_Zelenskyy	en.wikipedia	8600
21	AL	Mid'hat_Frashëri	sq.wikipedia	7400
22	AL	Dita_e_Tokës	sq.wikipedia	6800
23	AL	Vedat_Kokona	sq.wikipedia	6500
24	AL	Ilir_Shaqiri	sq.wikipedia	6300
25	AL	Liljana_Cingu	sq.wikipedia	6100
26	AL	Dita_e_mësuesit	sq.wikipedia	5800
27	AL	Jeffrey_Dahmer	en.wikipedia	5800
28	AL	UEFA_Youth_League	en.wikipedia	5700
29	AL	Beatrix_Ramosaj	en.wikipedia	5600
30	AL	Palace_of_Congresses	en.wikipedia	5500
31	AL	Mësonjëtorja_e_Korçës	sq.wikipedia	5500
32	AL	Çernobili	sq.wikipedia	5300
33	AL	Charles_III	en.wikipedia	5100
34	AL	Qatar	en.wikipedia	4800
35	AL	Dita_e_Arafatit	sq.wikipedia	4700
36	AL	Nevruzi	sq.wikipedia	4600
37	AL	Elizabeta_II	sq.wikipedia	4600
38	AL	Katari	sq.wikipedia	4600
39	AL	Anthony_Albanese	en.wikipedia	4400
40	AL	Bajram_Begaj	en.wikipedia	4400
41	AL	Përdoruesi:Dona12345/Ese_per_pavaresine_e_Kosoves	sq.wikipedia	4200
42	AL	Wolfgang_Amadeus_Mozart	sq.wikipedia	4200
43	AL	Dita_e_Verës	sq.wikipedia	4100
44	AL	Decathlon	it.wikipedia	4100
45	AL	Çeçenia	sq.wikipedia	4000
46	AL	NATO	sq.wikipedia	3700
47	AL	Rishi_Sunak	en.wikipedia	3700
48	AL	Dita_ndërkombëtare_e_fëmijëve	sq.wikipedia	3600
49	AL	Diana	_Princess_of_Wales	en.wikipedia
50	AL	Nata_e_Kadrit	sq.wikipedia	3500
51	AL	Independent_Albania	en.wikipedia	3500
52	AL	Pallati_i_Kongreseve_(Tiranë)	sq.wikipedia	3400
53	AL	Russia	en.wikipedia	3400
54	AL	Mino_Raiola	en.wikipedia	3400
55	AL	Luiza_Gega	en.wikipedia	3300
56	AL	Ramazani	sq.wikipedia	3200
57	AL	Ndryshimi_i_klimës	sq.wikipedia	3200
58	AL	Armët_bërthamore	sq.wikipedia	3100
59	AL	Member_states_of_NATO	en.wikipedia	3000
60	AL	2022_Russian_invasion_of_Ukraine	en.wikipedia	3000
61	AL	Women's_Super_League	en.wikipedia	3000
62	AL	Sëmundja_e_Alzheimerit	sq.wikipedia	2900
63	AL	Targat_e_automjeteve_të_Shqipërisë	sq.wikipedia	2800
64	AL	NATO	en.wikipedia	2700
65	AL	Shinzo_Abe	en.wikipedia	2700
66	AL	Stade_de_France	en.wikipedia	2600
67	AL	Alqi_Bllako	sq.wikipedia	2500
68	AL	Dita_e_Shën_Valentinit	sq.wikipedia	2400
69	AL	Kastriot_Myftaraj	sq.wikipedia	2400
70	AL	Skanderbeg	en.wikipedia	2300
71	AL	Naim_Frashëri	sq.wikipedia	2300
72	AL	List_of_UEFA_Champions_League_finals	en.wikipedia	2100
73	AL	Supertaça_Cândido_de_Oliveira	en.wikipedia	2000
74	AL	Greek_Football_Cup	en.wikipedia	2000
75	AL	Irene_Papas	en.wikipedia	1900
76	AL	Futbolli	sq.wikipedia	1900
77	AL	Monika_Lubonja	sq.wikipedia	1800
78	AL	Flag_Day_(Albania)	en.wikipedia	1800
79	AL	International_Women's_Day	en.wikipedia	1700
80	AL	Fitër_Bajrami	sq.wikipedia	1700
81	AL	Ray_Liotta	en.wikipedia	1700
82	AL	Eposi_i_kreshnikëve	sq.wikipedia	1700
83	AL	Ema_Andrea	sq.wikipedia	1700
84	AL	HIV/AIDS	sq.wikipedia	1600
85	AL	Lista_e_shteteve	sq.wikipedia	1600
86	AL	Elsa_Lila	en.wikipedia	1600
87	AL	Amir_Khan_(boxer)	en.wikipedia	1600
88	AL	Wikipedia:Contact_us	en.wikipedia	1600
89	AL	CZN_Burak	en.wikipedia	1600
90	AL	Giorgia_Meloni	en.wikipedia	1600
91	AL	Olta_Daku	sq.wikipedia	1500
92	AL	Orikumi	sq.wikipedia	1500
93	AL	Recep_Tayyip_Erdoğan	en.wikipedia	1500
94	AL	Dita_e_Verës	en.wikipedia	1500
95	AL	Madeleine_Albright	en.wikipedia	1500
96	AL	Bujar_Nishani	sq.wikipedia	1500
97	AL	Krishtlindja	sq.wikipedia	1400
98	AL	Big_Brother_VIP_(Albanian_TV_series)	en.wikipedia	1400
99	AL	Feyenoord	en.wikipedia	1400
100	AL	Prince_Philip	_Duke_of_Edinburgh	en.wikipedia
101	AL	Maluma	en.wikipedia	1300
102	AL	Jada_Pinkett_Smith	en.wikipedia	1300
103	AL	Aqif_Rakipi	sq.wikipedia	1300
104	AL	Ylli_Ndroqi	sq.wikipedia	1300
105	AL	Dita_e_Shën_Gjergjit	sq.wikipedia	1300
106	AL	Islanda	sq.wikipedia	1300
107	AL	Coolio	en.wikipedia	1300
108	AL	Epilepsia	sq.wikipedia	1200
109	AL	Bashkimi_Sovjetik	sq.wikipedia	1200
110	AL	Satanizmi	sq.wikipedia	1200
111	AL	Stadiumi_“Air_Albania“	sq.wikipedia	1200
