	country	page	project	views
0	HN	Wikipedia:Portada	es.wikipedia	1238800
1	HN	Cleopatra	es.wikipedia	448500
2	HN	Main_Page	en.wikipedia	236800
3	HN	Jeffrey_Dahmer	es.wikipedia	48000
4	HN	Lempira_(cacique_lenca)	es.wikipedia	35100
5	HN	Isabel_II_del_Reino_Unido	es.wikipedia	32200
6	HN	Francisco_Morazán	es.wikipedia	26400
7	HN	Xiomara_Castro	es.wikipedia	22600
8	HN	Especial:Buscar	es.wikipedia	22100
9	HN	Bandera_de_Honduras	es.wikipedia	21400
10	HN	Serbia	en.wikipedia	20300
11	HN	Escudo_de_Honduras	es.wikipedia	19200
12	HN	Juan_Orlando_Hernández	es.wikipedia	18200
13	HN	Miguel_de_Cervantes	es.wikipedia	16300
14	HN	Cleopatra_I_de_Egipto	es.wikipedia	11100
15	HN	Elecciones_generales_de_Honduras_de_2021	es.wikipedia	10800
16	HN	Vicente_Fernández	es.wikipedia	10000
17	HN	Main_Page	en.wikivoyage	9400
18	HN	Jorge_Cálix	es.wikipedia	9000
19	HN	Día_del_Idioma_Español_en_las_Naciones_Unidas	es.wikipedia	7600
20	HN	Diana_de_Gales	es.wikipedia	7600
21	HN	Johann_Bollig	en.wikipedia	7500
22	HN	Wikipedia:Contact_us	en.wikipedia	7200
23	HN	Pablo_Lavallén	es.wikipedia	7000
24	HN	Kamala_Harris	es.wikipedia	6400
25	HN	Batalla_de_La_Trinidad	es.wikipedia	6100
26	HN	Carlos_III_del_Reino_Unido	es.wikipedia	5900
27	HN	Día_del_maestro	es.wikipedia	5600
28	HN	Bandera_de_la_Raza	es.wikipedia	5200
29	HN	Congreso_Nacional_de_Honduras	es.wikipedia	4800
30	HN	Porfirio_Lobo	es.wikipedia	4800
31	HN	Manuel_Zelaya	es.wikipedia	4500
32	HN	Catar	es.wikipedia	4300
33	HN	OTAN	es.wikipedia	4000
34	HN	Ucrania	es.wikipedia	3700
35	HN	Rondodasosa	it.wikipedia	3700
36	HN	Parlamento_Centroamericano	es.wikipedia	3300
37	HN	Francia	es.wikipedia	3200
38	HN	Eclipse_lunar	es.wikipedia	3100
39	HN	Asamblea_constituyente	es.wikipedia	3000
40	HN	Honduras	es.wikipedia	2900
41	HN	Elizabeth_II	en.wikipedia	2800
42	HN	Día_de_la_Madre	es.wikipedia	2700
43	HN	Rosa_Elena_Bonilla	es.wikipedia	2700
44	HN	Nuestra_Señora_de_Suyapa	es.wikipedia	2600
45	HN	Felipe_de_Edimburgo	es.wikipedia	2600
46	HN	Liga_Concacaf	es.wikipedia	2500
47	HN	Día_de_la_Raza	es.wikipedia	2400
48	HN	Irene_Bernasconi	es.wikipedia	2400
49	HN	Carmen_Salinas	es.wikipedia	2300
50	HN	Día_de_la_Tierra	es.wikipedia	2300
51	HN	Historia_de_Honduras	es.wikipedia	2100
52	HN	Diego_Verdaguer	es.wikipedia	1900
53	HN	Moloch	es.wikipedia	1900
54	HN	Carlos_de_Gales	es.wikipedia	1900
55	HN	Designado_presidencial	es.wikipedia	1800
56	HN	Día_Internacional_de_la_Mujer	es.wikipedia	1800
57	HN	Gruta_de_Sơn_Đoòng	es.wikipedia	1800
58	HN	Wikipedia:Wikiconcurso/WikiPorLosDerechosHumanos2022	es.wikipedia	1800
59	HN	Día_de_San_Valentín	es.wikipedia	1700
60	HN	Olivia_Newton-John	es.wikipedia	1700
61	HN	Marciano_Cantero	es.wikipedia	1700
62	HN	Club_Atlético_San_Lorenzo_de_Almagro	es.wikipedia	1600
63	HN	Isabel_Bowes-Lyon	es.wikipedia	1600
64	HN	Descubrimiento_de_América	es.wikipedia	1600
65	HN	Club_Deportivo_Olimpia	es.wikipedia	1600
66	HN	Rixi_Moncada	es.wikipedia	1500
67	HN	Día_Internacional_de_los_Trabajadores	es.wikipedia	1500
68	HN	La_Academia_(México)	es.wikipedia	1500
69	HN	Guillermo_de_Cambridge	es.wikipedia	1500
70	HN	Pedro_Troglio	es.wikipedia	1400
71	HN	Salvador_Nasralla	es.wikipedia	1400
72	HN	Hernán_Medina_(footballer)	en.wikipedia	1400
73	HN	Ana_Frank	es.wikipedia	1400
74	HN	Himno_Nacional_de_Honduras	es.wikisource	1400
75	HN	Halloween	es.wikipedia	1400
76	HN	Día_de_Muertos	es.wikipedia	1400
77	HN	Elena_Bottazzi	es.wikipedia	1300
78	HN	CODA_(película)	es.wikipedia	1300
79	HN	Ley_marcial	es.wikipedia	1200
80	HN	Decathlon	it.wikipedia	1200
81	HN	Estado_de_excepción	es.wikipedia	1200
