	country	page	project	views
0	UY	Wikipedia:Portada	es.wikipedia	1064800
1	UY	Copa_Mundial_de_Fútbol_de_2022	es.wikipedia	229000
2	UY	Isabel_II_del_Reino_Unido	es.wikipedia	104700
3	UY	Jeffrey_Dahmer	es.wikipedia	88600
4	UY	Diego_Alonso	es.wikipedia	73400
5	UY	Cleopatra	es.wikipedia	72900
6	UY	Catar	es.wikipedia	69700
7	UY	Luis_Suárez_(futbolista)	es.wikipedia	36500
8	UY	José_Pedro_Varela	es.wikipedia	32800
9	UY	Nicolás_Schiappacasse	es.wikipedia	30000
10	UY	Día_Internacional_de_la_Mujer	es.wikipedia	25700
11	UY	Treinta_y_Tres_Orientales	es.wikipedia	25700
12	UY	José_Gervasio_Artigas	es.wikipedia	25300
13	UY	Declaratoria_de_la_independencia_(Uruguay)	es.wikipedia	24100
14	UY	Elecciones_generales_de_Brasil_de_2022	es.wikipedia	22900
15	UY	Ucrania	es.wikipedia	21400
16	UY	Referéndum_sobre_la_Ley_de_Urgente_Consideración_(Uruguay)	es.wikipedia	21300
17	UY	Maximiliano_de_la_Cruz	es.wikipedia	19300
18	UY	Wikipedia:Encuentros/¡Alto!_Mujeres_trabajando	es.wikipedia	18100
19	UY	Día_Internacional_de_los_Trabajadores	es.wikipedia	17900
20	UY	Copa_Mundial_de_Fútbol	es.wikipedia	17800
21	UY	Carlos_III_del_Reino_Unido	es.wikipedia	17400
22	UY	Batalla_de_Las_Piedras_(1811)	es.wikipedia	17200
23	UY	Ricardo_Zielinski	es.wikipedia	16300
24	UY	Juana_de_Ibarbourou	es.wikipedia	15500
25	UY	OTAN	es.wikipedia	15100
26	UY	Mathías_Olivera	es.wikipedia	14600
27	UY	Daisy_Tourné	es.wikipedia	14600
28	UY	Eduardo_Bonomi	es.wikipedia	14100
29	UY	Diana_de_Gales	es.wikipedia	13900
30	UY	Pablo_Repetto	es.wikipedia	13400
31	UY	Vladímir_Putin	es.wikipedia	13100
32	UY	Selección_de_fútbol_de_Uruguay	es.wikipedia	13000
33	UY	Primera_División_de_Uruguay	es.wikipedia	12900
34	UY	Emmanuel_Gigliotti	es.wikipedia	12100
35	UY	Irene_Bernasconi	es.wikipedia	11800
36	UY	Elvira_Rawson	es.wikipedia	11500
37	UY	Jura_de_la_Constitución	es.wikipedia	10900
38	UY	Copa_Libertadores_Sub-20	es.wikipedia	10600
39	UY	Volodímir_Zelenski	es.wikipedia	10200
40	UY	Superclásico_del_fútbol_uruguayo	es.wikipedia	10200
41	UY	Alfredo_Arias_(entrenador)	es.wikipedia	10100
42	UY	Clasificación_de_Conmebol_para_la_Copa_Mundial_de_Fútbol_de_2022	es.wikipedia	9200
43	UY	Facundo_Pellistri	es.wikipedia	9200
44	UY	Liga_de_Campeones_de_la_UEFA	es.wikipedia	9200
45	UY	Humberto_de_Vargas	es.wikipedia	9200
46	UY	Copa_Libertadores_2022	es.wikipedia	8900
47	UY	Copa_Libertadores_de_América	es.wikipedia	8700
48	UY	Luiz_Inácio_Lula_da_Silva	es.wikipedia	8600
49	UY	Gerardo_Rozín	es.wikipedia	8400
50	UY	Laura_Daners	es.wikipedia	8400
51	UY	Halloween	es.wikipedia	8300
52	UY	Silvia_Novarese	es.wikipedia	7600
53	UY	Federico_Valverde	es.wikipedia	7400
54	UY	Felipe_de_Edimburgo	es.wikipedia	7300
55	UY	Copa_Sudamericana_2022	es.wikipedia	7200
56	UY	Olivia_Newton-John	es.wikipedia	7200
57	UY	Mirtha_Legrand	es.wikipedia	7100
58	UY	Día_de_la_Raza	es.wikipedia	7000
59	UY	La_Luz_Fútbol_Club	es.wikipedia	6800
60	UY	Guillermo_de_Cambridge	es.wikipedia	6800
61	UY	Día_del_maestro	es.wikipedia	6600
62	UY	Marilyn_Monroe	es.wikipedia	6600
63	UY	Wikipedia:Wikiconcurso/WikiPorLosDerechosHumanos2022	es.wikipedia	6500
64	UY	Brian_Lozano	es.wikipedia	6400
65	UY	Isabel_Bowes-Lyon	es.wikipedia	6400
66	UY	Aaron_Carter	es.wikipedia	6400
67	UY	Gabriel_Boric	es.wikipedia	6300
68	UY	Taylor_Hawkins	es.wikipedia	6300
69	UY	Club_Atlético_Peñarol	es.wikipedia	6200
70	UY	Anne_Heche	es.wikipedia	6200
71	UY	Gabriela_Brimmer	es.wikipedia	6100
72	UY	Sergio_Rochet	es.wikipedia	6000
73	UY	Yessy_López	es.wikipedia	6000
74	UY	Lobos_grises_(organización)	es.wikipedia	6000
75	UY	Elecciones_generales_de_Uruguay_de_2019	es.wikipedia	5900
76	UY	Michael_J._Fox	es.wikipedia	5900
77	UY	Enrique_de_Sussex	es.wikipedia	5800
78	UY	Miguel_Ángel_Rodríguez_(actor_argentino)	es.wikipedia	5700
79	UY	Países_Bajos	es.wikipedia	5700
80	UY	Cristian_Rodríguez	es.wikipedia	5600
81	UY	Ray_Liotta	es.wikipedia	5600
82	UY	Jorge_VI_del_Reino_Unido	es.wikipedia	5600
83	UY	Leonardo_Ramos	es.wikipedia	5400
84	UY	Fiesta_de_San_Juan	es.wikipedia	5300
85	UY	Hernán_Menosse	es.wikipedia	5200
86	UY	Federico_Carrizo	es.wikipedia	5200
87	UY	Julio_Ramón_Ribeyro	es.wikipedia	5200
88	UY	Día_Nacional_del_Libro_(Uruguay)	es.wikipedia	5100
89	UY	Noche_de_la_nostalgia	es.wikipedia	5100
90	UY	El_Noba	es.wikipedia	4900
91	UY	Gales	es.wikipedia	4900
92	UY	Día_de_la_Tierra	es.wikipedia	4800
93	UY	Club_Nacional_de_Football	es.wikipedia	4800
94	UY	Carlos_de_Gales	es.wikipedia	4800
95	UY	Uruguay	es.wikipedia	4800
96	UY	Copa_Mundial_de_Fútbol_de_2018	es.wikipedia	4700
97	UY	Cruzada_Libertadora	es.wikipedia	4700
98	UY	Carlitos_Balá	es.wikipedia	4700
99	UY	Germán_Ferreira	es.wikipedia	4500
100	UY	Hatila_Passos	es.wikipedia	4500
101	UY	Elizabeth_II	en.wikipedia	4500
102	UY	Robbie_Coltrane	es.wikipedia	4500
103	UY	Día_de_los_Santos_Inocentes	es.wikipedia	4400
104	UY	Rodolfo_Bebán	es.wikipedia	4400
105	UY	Miguel_Ángel_Russo	es.wikipedia	4400
106	UY	Michelle_Suárez	es.wikipedia	4300
107	UY	Alex_Stik_Castro	es.wikipedia	4200
108	UY	El_Kinto	es.wikipedia	4100
109	UY	Temporal_de_2005_en_Uruguay	es.wikipedia	4100
110	UY	Hernán_Rivero	es.wikipedia	4100
111	UY	Hebe_de_Bonafini	es.wikipedia	4100
112	UY	Jorge_Zabalza	es.wikipedia	4000
113	UY	Macedonia_del_Norte	es.wikipedia	4000
114	UY	Juan_Ramón_Carrasco	es.wikipedia	3900
115	UY	Gal_Costa	es.wikipedia	3900
116	UY	Hervé_Renard	es.wikipedia	3900
117	UY	Ladi_Kwali	es.wikipedia	3800
118	UY	Día_del_Amigo	es.wikipedia	3800
119	UY	Día_de_San_Patricio	es.wikipedia	3700
120	UY	Enzo_Fernández	es.wikipedia	3700
121	UY	Yemayá	es.wikipedia	3600
122	UY	Puente_de_la_Barra_de_Santa_Lucía	es.wikipedia	3600
123	UY	Atlético_Clube_Goianiense	es.wikipedia	3600
124	UY	Punta_Shopping	es.wikipedia	3600
125	UY	Club_Atlético_Barracas_Central	es.wikipedia	3500
126	UY	Día_de_San_Valentín	es.wikipedia	3500
127	UY	Accidente_de_Chernóbil	es.wikipedia	3500
128	UY	Línea_de_Kármán	es.wikipedia	3500
129	UY	Ezequiel_Cirigliano	es.wikipedia	3500
130	UY	Cristiano_Ronaldo	es.wikipedia	3500
131	UY	Julio_César_Morales	es.wikipedia	3400
132	UY	Francia	es.wikipedia	3400
133	UY	Julia_Möller_(modelo)	es.wikipedia	3400
134	UY	Puente_Leonel_Viera	es.wikipedia	3400
135	UY	Rafael_Nadal	es.wikipedia	3300
136	UY	Clube_de_Regatas_do_Flamengo	es.wikipedia	3300
137	UY	Túnez	es.wikipedia	3300
138	UY	Genocidio_armenio	es.wikipedia	3200
139	UY	Jair_Bolsonaro	es.wikipedia	3200
140	UY	Enner_Valencia	es.wikipedia	3200
141	UY	Selección_de_fútbol_de_Catar	es.wikipedia	3200
142	UY	Francisco_Ginella	es.wikipedia	3100
143	UY	Copa_Libertadores_Sub-20_de_2022	es.wikipedia	3000
144	UY	Darwin_Núñez	es.wikipedia	3000
145	UY	Guns_N'_Roses	es.wikipedia	3000
146	UY	Esteban_Bullrich	es.wikipedia	2900
147	UY	Día_del_Padre	es.wikipedia	2900
148	UY	Sebastián_Cristóforo	es.wikipedia	2900
149	UY	Eva_Perón	es.wikipedia	2900
150	UY	Simone_Tebet	es.wikipedia	2900
151	UY	Facundo_Ponce_de_León	es.wikipedia	2800
152	UY	Jayson_Granger	es.wikipedia	2800
153	UY	Silvina_Batakis	es.wikipedia	2800
154	UY	Cristina_Peri_Rossi	es.wikipedia	2700
155	UY	Hospital_de_Clínicas_Dr._Manuel_Quintela	es.wikipedia	2700
156	UY	Carlo_Ancelotti	es.wikipedia	2700
157	UY	Capitán_Miranda_(ROU_20)	es.wikipedia	2700
158	UY	Oskar_Sala	es.wikipedia	2700
159	UY	Billy_Arce	es.wikipedia	2700
160	UY	Sebastián_Sosa	es.wikipedia	2700
161	UY	Pablo_Milanés	es.wikipedia	2700
162	UY	José_Luis_Rodríguez_Bebanz	es.wikipedia	2600
163	UY	Ley_marcial	es.wikipedia	2600
164	UY	Will_Smith	es.wikipedia	2600
165	UY	Lorena_Ponce_de_León	es.wikipedia	2600
166	UY	Carlos_del_Reino_Unido	es.wikipedia	2600
167	UY	Selección_de_fútbol_de_Argentina	es.wikipedia	2600
168	UY	Selección_de_fútbol_de_Corea_del_Sur	es.wikipedia	2600
169	UY	Voto_observado_(Uruguay)	es.wikipedia	2500
170	UY	Cacho_de_la_Cruz	es.wikipedia	2500
171	UY	Yeferson_Soteldo	es.wikipedia	2400
172	UY	Manuel_Ugarte_(futbolista)	es.wikipedia	2400
173	UY	Freddy_Rincón	es.wikipedia	2400
174	UY	Cristina_Fernández_de_Kirchner	es.wikipedia	2400
175	UY	Axl_Rose	es.wikipedia	2400
176	UY	Hasbulla_Magomédov	es.wikipedia	2400
177	UY	Félix_Sánchez_Bas	es.wikipedia	2400
178	UY	Selección_de_fútbol_de_Arabia_Saudita	es.wikipedia	2400
179	UY	Lucas_Cavallini	es.wikipedia	2400
180	UY	Henny_Trayles	es.wikipedia	2300
181	UY	Anexo:Final_de_la_Copa_América_1995	es.wikipedia	2300
182	UY	Vuelta_Ciclista_del_Uruguay_2022	es.wikipedia	2300
183	UY	Thibaut_Courtois	es.wikipedia	2300
184	UY	Wolfsangel	es.wikipedia	2300
185	UY	Descubrimiento_de_América	es.wikipedia	2300
186	UY	Arabia_Saudita	es.wikipedia	2300
187	UY	Paulo_Bento	es.wikipedia	2300
188	UY	Bandera_de_Uruguay	es.wikipedia	2300
189	UY	Teatro_Solís	es.wikipedia	2200
190	UY	Nicolás_Vikonis	es.wikipedia	2200
191	UY	Hospital_Pasteur_de_Montevideo	es.wikipedia	2200
192	UY	Supercopa_Uruguaya	es.wikipedia	2200
193	UY	Jada_Pinkett_Smith	es.wikipedia	2200
194	UY	Federico_Leicht	es.wikipedia	2200
195	UY	Angelina_Vunge	es.wikipedia	2200
196	UY	Tini_Stoessel	es.wikipedia	2200
197	UY	Argentina	es.wikipedia	2200
198	UY	Susana_Pereyra	es.wikipedia	2100
199	UY	Enrique_Pinti	es.wikipedia	2100
200	UY	Pascua	es.wikipedia	2100
201	UY	Juego_de_las_tabas	es.wikipedia	2100
202	UY	Alfonsina_Maldonado	es.wikipedia	2100
203	UY	Marciano_Cantero	es.wikipedia	2100
204	UY	Hugo_Maradona	es.wikipedia	2000
205	UY	Copa_Mundial_de_Clubes_de_la_FIFA	es.wikipedia	2000
206	UY	Luis_Lacalle_Pou	es.wikipedia	2000
207	UY	Quino	es.wikipedia	2000
208	UY	Constitución_de_Uruguay_de_1830	es.wikipedia	2000
209	UY	Torneo_Intermedio	es.wikipedia	2000
210	UY	Coolio	es.wikipedia	2000
211	UY	Día_Internacional_del_Hombre	es.wikipedia	2000
212	UY	Jason_David_Frank	es.wikipedia	2000
213	UY	Los_doce_trabajos_de_Heracles	es.wikipedia	1900
214	UY	Sergio_Agüero	es.wikipedia	1900
215	UY	Bandera_de_los_Treinta_y_Tres_Orientales	es.wikipedia	1900
216	UY	Estadio_de_Francia	es.wikipedia	1900
217	UY	Ruta_23_(Uruguay)	es.wikipedia	1900
218	UY	Ricardo_Perdomo	es.wikipedia	1900
219	UY	Milan_Borjan	es.wikipedia	1900
220	UY	Batalla_de_Sarandí	es.wikipedia	1900
221	UY	Holanda	es.wikipedia	1900
222	UY	Club_Deportivo_Ñublense	es.wikipedia	1800
223	UY	Damián_Suárez	es.wikipedia	1800
224	UY	Hotel_Carrasco	es.wikipedia	1800
225	UY	CODA_(película)	es.wikipedia	1800
226	UY	Red_Bull_Bragantino	es.wikipedia	1800
227	UY	Manuel_Castro_(futbolista)	es.wikipedia	1800
228	UY	Ana_Frank	es.wikipedia	1800
229	UY	¿Quién_es_la_máscara?_(Uruguay)	es.wikipedia	1800
230	UY	Martín_Satriano	es.wikipedia	1800
231	UY	4_de_noviembre	es.wikipedia	1800
232	UY	Morgan_Freeman	es.wikipedia	1800
233	UY	Tamim_bin_Hamad_Al_Thani	es.wikipedia	1800
234	UY	George_Weah	es.wikipedia	1800
235	UY	Pablo_Goncálvez	es.wikipedia	1700
236	UY	Copa_Africana_de_Naciones	es.wikipedia	1700
237	UY	Matías_Cóccaro	es.wikipedia	1700
238	UY	William_Hurt	es.wikipedia	1700
239	UY	Chris_Rock	es.wikipedia	1700
240	UY	Clasificación_de_Conmebol_para_la_Copa_Mundial_de_Fútbol_de_2018	es.wikipedia	1700
241	UY	Elon_Musk	es.wikipedia	1700
242	UY	Arturo_Valls	es.wikipedia	1700
243	UY	Caso_Lola_Chomnalez	es.wikipedia	1700
244	UY	Pichu_Straneo	es.wikipedia	1700
245	UY	Stephen_Curry	es.wikipedia	1700
246	UY	Gustavo_Petro	es.wikipedia	1700
247	UY	Diego_Gonzalo_García	es.wikipedia	1700
248	UY	Mijaíl_Gorbachov	es.wikipedia	1700
249	UY	Castillo_de_Balmoral	es.wikipedia	1700
250	UY	Ana_del_Reino_Unido	es.wikipedia	1700
251	UY	Muerte_de_Diana_de_Gales	es.wikipedia	1700
252	UY	Slash_(músico)	es.wikipedia	1700
253	UY	Accidente_del_avión_571_de_la_Fuerza_Aérea_Uruguaya	es.wikipedia	1700
254	UY	Esteban_Conde	es.wikipedia	1700
255	UY	Julio_Baraibar	es.wikipedia	1700
256	UY	Selección_de_fútbol_de_Gales	es.wikipedia	1700
257	UY	Marcelo_Filippini	es.wikipedia	1600
258	UY	Crisis_ruso-ucraniana_de_2021-2022	es.wikipedia	1600
259	UY	Arturo_Bonín	es.wikipedia	1600
260	UY	Camila_Cabello	es.wikipedia	1600
261	UY	Shinzō_Abe	es.wikipedia	1600
262	UY	Copa_AUF_Uruguay	es.wikipedia	1600
263	UY	Giorgia_Meloni	es.wikipedia	1600
264	UY	Son_Heung-min	es.wikipedia	1600
265	UY	Kylian_Mbappé	es.wikipedia	1600
266	UY	Matías_Aguirregaray	es.wikipedia	1500
267	UY	Physalia_physalis	es.wikipedia	1500
268	UY	Canal_10_(Uruguay)	es.wikipedia	1500
269	UY	Diego_Zabala	es.wikipedia	1500
270	UY	Cerro_Pan_de_Azúcar_(Uruguay)	es.wikipedia	1500
271	UY	Giorgian_de_Arrascaeta	es.wikipedia	1500
272	UY	Anderson_Daronco	es.wikipedia	1500
273	UY	Carlos_Alberto_Aguilera	es.wikipedia	1500
274	UY	Cono_de_Teggiano	es.wikipedia	1500
275	UY	Nicolás_Milesi	es.wikipedia	1500
276	UY	Saúl_Rivero	es.wikipedia	1500
277	UY	Victoria_Rodríguez_(presentadora)	es.wikipedia	1500
278	UY	Jô	es.wikipedia	1500
279	UY	Sucesos_del_Hospital_Filtro	es.wikipedia	1500
280	UY	Eduardo_VIII_del_Reino_Unido	es.wikipedia	1500
281	UY	Atentados_del_11_de_septiembre_de_2001	es.wikipedia	1500
282	UY	Enzo_Francescoli	es.wikipedia	1500
283	UY	Eduardo_Gianarelli	es.wikipedia	1500
284	UY	Mauricio_Larriera	es.wikipedia	1400
285	UY	Nicola_Pérez	es.wikipedia	1400
286	UY	Rincón_de_Darwin	es.wikipedia	1400
287	UY	China_Zorrilla	es.wikipedia	1400
288	UY	Juan_Cazares	es.wikipedia	1400
289	UY	Foo_Fighters	es.wikipedia	1400
290	UY	Landing_of_the_33_Patriots_Day	en.wikipedia	1400
291	UY	Revuelta_de_Haymarket	es.wikipedia	1400
292	UY	Presidente_de_Uruguay	es.wikipedia	1400
293	UY	Día_Internacional_del_Libro	es.wikipedia	1400
294	UY	China_Suárez	es.wikipedia	1400
295	UY	Copa_de_Campeones_Conmebol-UEFA	es.wikipedia	1400
296	UY	Liverpool_Fútbol_Club	es.wikipedia	1400
297	UY	Carlos_Gardel	es.wikipedia	1400
298	UY	Ricardo_Alarcón_(Uruguay)	es.wikipedia	1400
299	UY	Teófilo_Gutiérrez	es.wikipedia	1400
300	UY	Fermín_Hontou	es.wikipedia	1400
301	UY	Pedro_Guilherme_Abreu_dos_Santos	es.wikipedia	1400
302	UY	Magnicidio	es.wikipedia	1400
303	UY	Santiago_Damián_García	es.wikipedia	1400
304	UY	Plebiscito_constitucional_de_Chile_de_2022	es.wikipedia	1400
305	UY	Andrés_de_York	es.wikipedia	1400
306	UY	Margarita_del_Reino_Unido	es.wikipedia	1400
307	UY	Fernando_Muslera	es.wikipedia	1400
308	UY	Thiago_Cardozo	es.wikipedia	1400
309	UY	Isabel_de_Baviera	es.wikipedia	1400
310	UY	Omar_Borrás	es.wikipedia	1400
311	UY	Rishi_Sunak	es.wikipedia	1400
312	UY	Breel_Embolo	es.wikipedia	1400
313	UY	Diego_Alonso	en.wikipedia	1300
314	UY	El_marginal	es.wikipedia	1300
315	UY	Daniel_Jiménez	es.wikipedia	1300
316	UY	Prisión_preventiva	es.wikipedia	1300
317	UY	La_noche_de_12_años	es.wikipedia	1300
318	UY	Nicolás_Casalánguida	es.wikipedia	1300
319	UY	Juancho_Hernangómez	es.wikipedia	1300
320	UY	Magnolio_Media_Group	es.wikipedia	1300
321	UY	Serena_Williams	es.wikipedia	1300
322	UY	Colón_Fútbol_Club	es.wikipedia	1300
323	UY	Sebastián_Cáceres	es.wikipedia	1300
324	UY	Indio_Solari_y_los_Fundamentalistas_del_Aire_Acondicionado	es.wikipedia	1300
325	UY	Sebastián_Coates	es.wikipedia	1300
326	UY	Gustavo_Alfaro	es.wikipedia	1300
327	UY	Copa_Mundial_de_Fútbol_de_2026	es.wikipedia	1300
328	UY	Timothy_Weah	es.wikipedia	1300
329	UY	Corea_del_Sur	es.wikipedia	1300
330	UY	Luis_Enrique_Martínez_García	es.wikipedia	1300
331	UY	Rodrigo_Bentancur	es.wikipedia	1300
332	UY	Calificación_escolar	es.wikipedia	1200
333	UY	Billiken	es.wikipedia	1200
334	UY	Crimea	es.wikipedia	1200
335	UY	Campeonato_Uruguayo_de_Primera_División_1990	es.wikipedia	1200
336	UY	Luis_Miguel_Rodríguez	es.wikipedia	1200
337	UY	Estrella_polar	es.wikipedia	1200
338	UY	Pablo_Cavallero	es.wikipedia	1200
339	UY	Guillermo_Francella	es.wikipedia	1200
340	UY	Martín_Abascal	es.wikipedia	1200
341	UY	Sergio_Germán_Romero	es.wikipedia	1200
342	UY	Rhona_Mitra	es.wikipedia	1200
343	UY	Eduardo_de_Wessex	es.wikipedia	1200
344	UY	Mónica_Cahen_D'Anvers	es.wikipedia	1200
345	UY	Luana_Persíncula	es.wikipedia	1200
