	country	page	project	views	4
0	AT	Wikipedia:Hauptseite	de.wikipedia	23650800	
1	AT	Spezial:Suche	de.wikipedia	5196200	
2	AT	Main_Page	en.wikipedia	4966300	
3	AT	Special:Search	en.wikipedia	1250200	
4	AT	Österreich	de.wikipedia	647000	
5	AT	Ukraine	de.wikipedia	510000	
6	AT	NATO	de.wikipedia	483900	
7	AT	Jeffrey_Dahmer	de.wikipedia	477700	
8	AT	Bundespräsidentenwahl_in_Österreich_2022	de.wikipedia	449300	
9	AT	Elisabeth_von_Österreich-Ungarn	de.wikipedia	341100	
10	AT	Wladimir_Wladimirowitsch_Putin	de.wikipedia	326700	
11	AT	Dietrich_Mateschitz	de.wikipedia	274000	
12	AT	Marco_Pogo	de.wikipedia	272900	
13	AT	Russischer_Überfall_auf_die_Ukraine_2022	de.wikipedia	261100	
14	AT	Elisabeth_II.	de.wikipedia	259600	
15	AT	Wikipedia:Featured_pictures	en.wikipedia	238100	
16	AT	Karl_Nehammer	de.wikipedia	237200	
17	AT	Wolodymyr_Selenskyj	de.wikipedia	206800	
18	AT	Willi_Resetarits	de.wikipedia	204500	
19	AT	Заглавная_страница	ru.wikipedia	204100	
20	AT	Krieg_in_der_Ukraine_seit_2014	de.wikipedia	203000	
21	AT	Franz_Klammer	de.wikipedia	187800	
22	AT	Kleopatra_VII.	de.wikipedia	171000	
23	AT	Fußball-Weltmeisterschaft_2022	de.wikipedia	170900	
24	AT	Franz_Joseph_I.	de.wikipedia	166100	
25	AT	COVID-19-Pandemie_in_Österreich	de.wikipedia	165200	
26	AT	Tassilo_Wallentin	de.wikipedia	160700	
27	AT	Anna_Sorokin	de.wikipedia	148100	
28	AT	2022_Russian_invasion_of_Ukraine	en.wikipedia	146700	
29	AT	Heinrich_Staudinger	de.wikipedia	146300	
30	AT	Russland	de.wikipedia	145600	
31	AT	Gerald_Grosz	de.wikipedia	138400	
32	AT	Mirco_Nontschew	de.wikipedia	137700	
33	AT	Amber_Heard	de.wikipedia	119900	
34	AT	Affenpocken	de.wikipedia	119700	
35	AT	Nationalfeiertag_(Österreich)	de.wikipedia	113300	
36	AT	Anne_Heche	de.wikipedia	111500	
37	AT	Alexander_Van_der_Bellen	de.wikipedia	109100	
38	AT	Wannseekonferenz	de.wikipedia	107700	
39	AT	Katar	de.wikipedia	105800	
40	AT	Sepp_Forcher	de.wikipedia	105200	
41	AT	Walter_Rosenkranz	de.wikipedia	95600	
42	AT	Valerie_Huber	de.wikipedia	95400	
43	AT	Oligarch	de.wikipedia	84500	
44	AT	Olympische_Winterspiele_2022	de.wikipedia	83300	
45	AT	Stranger_Things	de.wikipedia	82800	
46	AT	Jeffrey_Dahmer	en.wikipedia	78000	
47	AT	Don’t_Look_Up	de.wikipedia	75100	
48	AT	Elon_Musk	de.wikipedia	75000	
49	AT	Heidi_Horten	de.wikipedia	73500	
50	AT	Maria_Theresia	de.wikipedia	73400	
51	AT	Sophie_Karmasin	de.wikipedia	73200	
52	AT	Marilyn_Monroe	de.wikipedia	72500	
53	AT	Thank_You/de	thankyou.wikipedia	71900	
54	AT	Romy_Schneider	de.wikipedia	70500	
55	AT	Regiment_Asow	de.wikipedia	69400	
56	AT	Vladimir_Putin	en.wikipedia	68500	
57	AT	Johnny_Depp	de.wikipedia	67900	
58	AT	Der_Herr_der_Ringe:_Die_Ringe_der_Macht	de.wikipedia	66300	
59	AT	Sowjetunion	de.wikipedia	66100	
60	AT	Aaron_Carter	de.wikipedia	65400	
61	AT	Tschetschenien	de.wikipedia	64100	
62	AT	Margaret	_Countess_of_Snowdon	de.wikipedia	63800.0
63	AT	Johannes_Rauch_(Politiker	_1959)	de.wikipedia	63100.0
64	AT	Sisi_(Fernsehserie)	de.wikipedia	62000	
65	AT	Engelbert_Dollfuß	de.wikipedia	61600	
66	AT	Michail_Sergejewitsch_Gorbatschow	de.wikipedia	61600	
67	AT	Fußball-Weltmeisterschaft	de.wikipedia	61600	
68	AT	Dagmar_Belakowitsch	de.wikipedia	61400	
69	AT	Kitz_(Fernsehserie)	de.wikipedia	60900	
70	AT	Christian_Wehrschütz	de.wikipedia	60900	
71	AT	Rafael_Nadal	de.wikipedia	59400	
72	AT	Max_Verstappen	de.wikipedia	59200	
73	AT	Vitali_Klitschko	de.wikipedia	59200	
74	AT	Philip	_Duke_of_Edinburgh	de.wikipedia	59000.0
75	AT	Anton_Zeilinger	de.wikipedia	58700	
76	AT	Christiane_Hörbiger	de.wikipedia	58600	
77	AT	House_of_the_Dragon	de.wikipedia	58000	
78	AT	John_Wayne_Gacy	de.wikipedia	57000	
79	AT	Anouschka_Renzi	de.wikipedia	56600	
80	AT	Peter_Thiel	de.wikipedia	55500	
81	AT	Michael_Brunner_(Politiker	_1960)	de.wikipedia	55400.0
82	AT	Joseph_II.	de.wikipedia	54100	
83	AT	Diana	_Princess_of_Wales	de.wikipedia	54100.0
84	AT	Republik_Moldau	de.wikipedia	53800	
85	AT	Anne	_Princess_Royal	de.wikipedia	53100.0
86	AT	Wanda_(Band)	de.wikipedia	52700	
87	AT	Moskwa_(Schiff	_1979)	de.wikipedia	52200.0
88	AT	Georg_VI._(Vereinigtes_Königreich)	de.wikipedia	51600	
89	AT	Olivia_Newton-John	de.wikipedia	50700	
90	AT	Aerosolbombe	de.wikipedia	50000	
91	AT	Johannes_Strolz	de.wikipedia	49900	
92	AT	Claudia_Plakolm	de.wikipedia	49400	
93	AT	Tage	_die_es_nicht_gab	de.wikipedia	48300.0
94	AT	Österreichische_Neutralität	de.wikipedia	48000	
95	AT	UEFA_Nations_League	de.wikipedia	47500	
96	AT	Alina_Maratowna_Kabajewa	de.wikipedia	47000	
97	AT	Laura_Sachslehner	de.wikipedia	46000	
98	AT	Republik_China_(Taiwan)	de.wikipedia	46000	
99	AT	Geschichte_der_Ukraine	de.wikipedia	45500	
100	AT	Kurt_Ostbahn	de.wikipedia	45500	
101	AT	Reinhard_Heydrich	de.wikipedia	45400	
102	AT	Helene_Fischer	de.wikipedia	45300	
103	AT	Nord_Stream	de.wikipedia	45200	
104	AT	Transnistrien	de.wikipedia	44400	
105	AT	Lukas_Resetarits	de.wikipedia	44300	
106	AT	Wladimir_Klitschko	de.wikipedia	44000	
107	AT	Gruppe_Wagner	de.wikipedia	43900	
108	AT	Elizabeth_II	en.wikipedia	43600	
109	AT	Tonga	de.wikipedia	43200	
110	AT	Karin_Kneissl	de.wikipedia	43000	
111	AT	Sanna_Marin	de.wikipedia	42300	
112	AT	Belarus	de.wikipedia	42200	
113	AT	Nina_Burger	de.wikipedia	41800	
114	AT	Kasachstan	de.wikipedia	41700	
115	AT	Beatrix_Neundlinger	de.wikipedia	41600	
116	AT	Elizabeth_Bowes-Lyon	de.wikipedia	41600	
117	AT	Novak_Đoković	de.wikipedia	41300	
118	AT	Paul_Pizzera	de.wikipedia	41200	
119	AT	Fußball-Weltmeisterschaft_2026	de.wikipedia	41200	
120	AT	Hubert_Strolz	de.wikipedia	41000	
121	AT	Streitkräfte_Russlands	de.wikipedia	40800	
122	AT	Roman_Rafreider	de.wikipedia	40600	
123	AT	Charles_III.	de.wikipedia	40300	
124	AT	SWIFT	de.wikipedia	40000	
125	AT	Eurovision_Song_Contest_2022	de.wikipedia	40000	
126	AT	Krim	de.wikipedia	39600	
127	AT	Falco	de.wikipedia	39300	
128	AT	Rishi_Sunak	de.wikipedia	39100	
129	AT	André_Heller	de.wikipedia	39000	
130	AT	Cristiano_Ronaldo	de.wikipedia	38300	
131	AT	Martin_Polaschek	de.wikipedia	37900	
132	AT	Halloween	de.wikipedia	37500	
133	AT	Die_Wannseekonferenz_(2022)	de.wikipedia	37300	
134	AT	Antonow_An-225	de.wikipedia	37300	
135	AT	Wolfgang_Ambros	de.wikipedia	37200	
136	AT	Ukrainische_Streitkräfte	de.wikipedia	36600	
137	AT	Filip_Misolic	de.wikipedia	36600	
138	AT	Charles_III._(Vereinigtes_Königreich)	de.wikipedia	36600	
139	AT	G7	de.wikipedia	36500	
140	AT	Peter_Resetarits	de.wikipedia	36500	
141	AT	Betty_White	de.wikipedia	36400	
142	AT	Reinhard_Schwabenitzky	de.wikipedia	36200	
143	AT	Gertraud_Jesserer	de.wikipedia	36100	
144	AT	Rudolf_von_Österreich-Ungarn	de.wikipedia	36100	
145	AT	Ray_Liotta	de.wikipedia	36100	
146	AT	Meat_Loaf	de.wikipedia	36000	
147	AT	Elisabeth_Köstinger	de.wikipedia	35500	
148	AT	Ct-Wert	de.wikipedia	35400	
149	AT	Elton_John	de.wikipedia	35200	
150	AT	Benjamin_Karl	de.wikipedia	35100	
151	AT	Ralf_Rangnick	de.wikipedia	34300	
152	AT	The_Witcher_(Fernsehserie)	de.wikipedia	33900	
153	AT	Matthias_Mayer_(Skirennläufer)	de.wikipedia	33800	
154	AT	Ted_Bundy	de.wikipedia	33700	
155	AT	Julija_Tymoschenko	de.wikipedia	33700	
156	AT	Commonwealth_of_Nations	de.wikipedia	33600	
157	AT	Charles	_Prince_of_Wales	de.wikipedia	33500.0
158	AT	Taylor_Hawkins	de.wikipedia	33300	
159	AT	Mathea_(Sängerin)	de.wikipedia	33000	
160	AT	Totenfrau_(Fernsehserie)	de.wikipedia	33000	
161	AT	Lewis_Hamilton	de.wikipedia	32900	
162	AT	Kernwaffe	de.wikipedia	32900	
163	AT	Aphasie	de.wikipedia	32900	
164	AT	Gerhard_Karner_(Politiker)	de.wikipedia	32800	
165	AT	Mikaela_Shiffrin	de.wikipedia	32800	
166	AT	Josef_Fritzl	de.wikipedia	32700	
167	AT	Olympische_Geschichte_Österreichs	de.wikipedia	32300	
168	AT	Jeanny_–_Das_5._Mädchen	de.wikipedia	32200	
169	AT	Harald_Glööckler	de.wikipedia	31900	
170	AT	Ivica_Osim	de.wikipedia	31300	
171	AT	Sebastian_Kurz	de.wikipedia	30700	
172	AT	Top_Gun:_Maverick	de.wikipedia	30700	
173	AT	RMS_Titanic	de.wikipedia	30100	
174	AT	Balmoral_Castle	de.wikipedia	30100	
175	AT	Fronleichnam	de.wikipedia	29900	
176	AT	Der_Palast_(Fernsehserie)	de.wikipedia	29800	
177	AT	Bruce_Willis	de.wikipedia	29800	
178	AT	International_Museum_Day_2022/de	meta.wikimedia	29800	
179	AT	Atommacht	de.wikipedia	29700	
180	AT	Gabriele_Sprickler-Falschlunger	de.wikipedia	29700	
181	AT	Edward	_Earl_of_Wessex	de.wikipedia	29700.0
182	AT	Blackout_(Fernsehserie	_2021)	de.wikipedia	29500.0
183	AT	Once_Upon_a_Time_in_Hollywood	de.wikipedia	29300	
184	AT	Olympische_Winterspiele	de.wikipedia	29100	
185	AT	Minsk_II	de.wikipedia	29000	
186	AT	Daniel_Barenboim	de.wikipedia	28900	
187	AT	Inventing_Anna	de.wikipedia	28900	
188	AT	Lili_Paul-Roncalli	de.wikipedia	28800	
189	AT	Salman_Rushdie	de.wikipedia	28500	
190	AT	Hardy_Krüger	de.wikipedia	28300	
191	AT	Kiew	de.wikipedia	28300	
192	AT	Andrew	_Duke_of_York	de.wikipedia	28200.0
193	AT	Top_Gun_–_Sie_fürchten_weder_Tod_noch_Teufel	de.wikipedia	28200	
194	AT	1899_(Fernsehserie)	de.wikipedia	28200	
195	AT	Rauhnacht	de.wikipedia	28100	
196	AT	Nuklearkatastrophe_von_Tschernobyl	de.wikipedia	28100	
197	AT	Erhard_Busek	de.wikipedia	27900	
198	AT	Karoline_Edtstadler	de.wikipedia	27800	
199	AT	Michelle_Hunziker	de.wikipedia	27700	
200	AT	Sissi_(Film)	de.wikipedia	27600	
201	AT	James-Webb-Weltraumteleskop	de.wikipedia	27600	
202	AT	Roger_Federer	de.wikipedia	27600	
203	AT	Liz_Truss	de.wikipedia	27400	
204	AT	2022_FIFA_World_Cup	en.wikipedia	27400	
205	AT	Liste_der_Bundeskanzler_der_Republik_Österreich	de.wikipedia	27200	
206	AT	Andrea_Schlager	de.wikipedia	27100	
207	AT	Sophie_Friederike_von_Österreich	de.wikipedia	27100	
208	AT	Katharina_Stemberger	de.wikipedia	27100	
209	AT	Narziss_und_Goldmund_(Film)	de.wikipedia	27000	
210	AT	Ramsay-Hunt-Syndrom	de.wikipedia	26800	
211	AT	Elfi_Eschke	de.wikipedia	26600	
212	AT	Gerlinde_Lang	de.wikipedia	26600	
213	AT	TOS-1	de.wikipedia	26600	
214	AT	Präsident_Russlands	de.wikipedia	26500	
215	AT	Jada_Pinkett_Smith	de.wikipedia	26400	
216	AT	Maximilian_I._(Mexiko)	de.wikipedia	26300	
217	AT	Ramsan_Achmatowitsch_Kadyrow	de.wikipedia	25900	
218	AT	Lwiw	de.wikipedia	25800	
219	AT	Bridgerton	de.wikipedia	25800	
220	AT	Gerhard_Rodax	de.wikipedia	25800	
221	AT	Ivana_Trump	de.wikipedia	25700	
222	AT	Peter_Vogel_(Schauspieler)	de.wikipedia	25600	
223	AT	Thronfolge_(Vereinigtes_Königreich)	de.wikipedia	25500	
224	AT	Uwe_Bohm	de.wikipedia	25400	
225	AT	Mark_Mateschitz	de.wikipedia	25400	
226	AT	Josef_Hader	de.wikipedia	25300	
227	AT	Herbert_Kickl	de.wikipedia	25200	
228	AT	Zerfall_der_Sowjetunion	de.wikipedia	25200	
229	AT	Peter_Nidetzky	de.wikipedia	24900	
230	AT	Die_Kaiserin_(2022)	de.wikipedia	24900	
231	AT	Will_Smith	de.wikipedia	24800	
232	AT	Volodymyr_Zelenskyy	en.wikipedia	24700	
233	AT	Kleopatra_I.	de.wikipedia	24700	
234	AT	Anna_Gasser	de.wikipedia	24600	
235	AT	Oscarverleihung_2022	de.wikipedia	24600	
236	AT	Schlangeninsel	de.wikipedia	24500	
237	AT	Katharina_Reich_(Medizinerin)	de.wikipedia	24400	
238	AT	Sidney_Poitier	de.wikipedia	24400	
239	AT	Robbie_Coltrane	de.wikipedia	24400	
240	AT	Dritter_Weltkrieg	de.wikipedia	24300	
241	AT	Vorstadtweiber	de.wikipedia	24200	
242	AT	Werner_Grissmann	de.wikipedia	24100	
243	AT	Tupolew_M-141	de.wikipedia	24100	
244	AT	Toto_Wolff	de.wikipedia	24000	
245	AT	Melissa_Naschenweng	de.wikipedia	24000	
246	AT	Ukraine	en.wikipedia	24000	
247	AT	Roman_Arkadjewitsch_Abramowitsch	de.wikipedia	24000	
248	AT	Michael_Edwards_(Skispringer)	de.wikipedia	23800	
249	AT	Neptun_(Seezielflugkörper)	de.wikipedia	23800	
250	AT	Elvis_Presley	de.wikipedia	23200	
251	AT	Olympische_Winterspiele_1976/Ski_Alpin_–_Abfahrt_(Männer)	de.wikipedia	23100	
252	AT	FIM-92_Stinger	de.wikipedia	23100	
253	AT	Pantherpilz	de.wikipedia	23100	
254	AT	Landtagswahl_in_Tirol_2022	de.wikipedia	23100	
255	AT	Spider-Man:_No_Way_Home	de.wikipedia	23000	
256	AT	Verena_Hanshaw	de.wikipedia	23000	
257	AT	Erster_Weltkrieg	de.wikipedia	23000	
258	AT	Bob_Saget	de.wikipedia	22900	
259	AT	Giorgia_Meloni	de.wikipedia	22800	
260	AT	Im_Westen_nichts_Neues_(2022)	de.wikipedia	22800	
261	AT	Magnus_Brunner	de.wikipedia	22700	
262	AT	Dominique_Devenport	de.wikipedia	22700	
263	AT	Dave_Ryding	de.wikipedia	22700	
264	AT	Klammer_–_Chasing_the_Line	de.wikipedia	22700	
265	AT	Josh.	de.wikipedia	22600	
266	AT	Hermann_Nitsch	de.wikipedia	22600	
267	AT	Hans-Jörg_Jenewein	de.wikipedia	22500	
268	AT	Single_Bells	de.wikipedia	22500	
269	AT	Boris_Becker	de.wikipedia	22500	
270	AT	Erni_Mangold	de.wikipedia	22500	
271	AT	Bundesheer	de.wikipedia	22500	
272	AT	Hubert_von_Goisern	de.wikipedia	22400	
273	AT	Euromaidan	de.wikipedia	22300	
274	AT	Petro_Poroschenko	de.wikipedia	22300	
275	AT	Daniil_Sergejewitsch_Medwedew	de.wikipedia	22200	
276	AT	Red_Bull_GmbH	de.wikipedia	22200	
277	AT	Wilhelm_Stuckart	de.wikipedia	22100	
278	AT	Braune_Jägerspinne	de.wikipedia	22000	
279	AT	Palantir_Technologies	de.wikipedia	21900	
280	AT	Thierry_Mugler	de.wikipedia	21900	
281	AT	Russisch-Ukrainischer_Krieg	de.wikipedia	21900	
282	AT	Jannik_Schümann	de.wikipedia	21800	
283	AT	Tom_Cruise	de.wikipedia	21800	
284	AT	Phosphorbombe	de.wikipedia	21800	
285	AT	Euer_Ehren_(Fernsehserie)	de.wikipedia	21800	
286	AT	Dodi_Al-Fayed	de.wikipedia	21800	
287	AT	Sebastian_Vettel	de.wikipedia	21700	
288	AT	Marie_Valerie_von_Österreich	de.wikipedia	21700	
289	AT	Sonnenfinsternis_vom_25._Oktober_2022	de.wikipedia	21600	
290	AT	Andrea_Berg	de.wikipedia	21500	
291	AT	Oliver_Glasner	de.wikipedia	21500	
292	AT	Griechisches_Alphabet	de.wikipedia	21300	
293	AT	Ferdinand_Zvonimir_Habsburg-Lothringen	de.wikipedia	21300	
294	AT	Haus_des_Geldes	de.wikipedia	21200	
295	AT	Russo-Ukrainian_War	en.wikipedia	21200	
296	AT	Coolio	de.wikipedia	21200	
297	AT	Peter_Maffay	de.wikipedia	21000	
298	AT	Marcel_Hirscher	de.wikipedia	20900	
299	AT	Rammstein	de.wikipedia	20800	
300	AT	The_Kelly_Family	de.wikipedia	20800	
301	AT	Manuel_Fettner	de.wikipedia	20700	
302	AT	Ronnie_Leitgeb	de.wikipedia	20700	
303	AT	Commonwealth_Realm	de.wikipedia	20700	
304	AT	The_Rolling_Stones	de.wikipedia	20600	
305	AT	Gaspard_Ulliel	de.wikipedia	20600	
306	AT	Kaliningrad	de.wikipedia	20500	
307	AT	Rainer_Schaller	de.wikipedia	20500	
308	AT	Manchinelbaum	de.wikipedia	20400	
309	AT	Harry	_Duke_of_Sussex	de.wikipedia	20300.0
310	AT	Ken_Miles	de.wikipedia	20200	
311	AT	Michael_J._Fox	de.wikipedia	20100	
312	AT	Boeing_B-52	de.wikipedia	20000	
313	AT	Julia_Stemberger	de.wikipedia	19900	
314	AT	Toby_Gad	de.wikipedia	19900	
315	AT	Kalte_Progression	de.wikipedia	19900	
316	AT	Shinzō_Abe	de.wikipedia	19900	
317	AT	Charles_III	en.wikipedia	19900	
318	AT	Cookie_(informatique)	fr.wikipedia	19900	
319	AT	Adolf_Eichmann	de.wikipedia	19700	
320	AT	Olena_Selenska	de.wikipedia	19700	
321	AT	Geist_von_Kiew	de.wikipedia	19700	
322	AT	Jean-Michel_Basquiat	de.wikipedia	19600	
323	AT	Molotowcocktail	de.wikipedia	19500	
324	AT	Patrick_Swayze	de.wikipedia	19400	
325	AT	Tom_Brady	de.wikipedia	19300	
326	AT	William_Hurt	de.wikipedia	19300	
327	AT	Dominic_Thiem	de.wikipedia	19200	
328	AT	Frank_Hoffmann_(Schauspieler)	de.wikipedia	19200	
329	AT	Georg_Danzer	de.wikipedia	19100	
330	AT	Pelješac-Brücke	de.wikipedia	19100	
331	AT	Pocken	de.wikipedia	19000	
332	AT	Olympische_Winterspiele_2022/Teilnehmer_(Österreich)	de.wikipedia	19000	
333	AT	Irene_Fuhrmann	de.wikipedia	19000	
334	AT	Fußball-Weltmeisterschaft_2030	de.wikipedia	18900	
335	AT	Bernhard_Russi	de.wikipedia	18800	
336	AT	Raffaela_Schaidreiter	de.wikipedia	18800	
337	AT	Roland_Kaiser	de.wikipedia	18700	
338	AT	Wild_Republic	de.wikipedia	18700	
339	AT	Victoria_(Vereinigtes_Königreich)	de.wikipedia	18600	
340	AT	Muttertag_–_Die_härtere_Komödie	de.wikipedia	18600	
341	AT	Im_Westen_nichts_Neues	de.wikipedia	18600	
342	AT	Angela_Lansbury	de.wikipedia	18500	
343	AT	Jerry_Lee_Lewis	de.wikipedia	18500	
344	AT	Sophie_Friederike_von_Bayern	de.wikipedia	18400	
345	AT	Tina_Ruland	de.wikipedia	18400	
346	AT	NATO-Osterweiterung	de.wikipedia	18400	
347	AT	Michael_Ostrowski	de.wikipedia	18400	
348	AT	Oskar_Werner	de.wikipedia	18400	
349	AT	Astrid_Lindgren	de.wikipedia	18300	
350	AT	Pia_Hierzegger	de.wikipedia	18200	
351	AT	Karl_Spiehs	de.wikipedia	18200	
352	AT	Bert_Trautmann	de.wikipedia	18200	
353	AT	Isabella_von_Bourbon-Parma	de.wikipedia	18100	
354	AT	Wiktor_Janukowytsch	de.wikipedia	18100	
355	AT	Niki_Lauda	de.wikipedia	18000	
356	AT	Fußball-Europameisterschaft_der_Frauen_2022	de.wikipedia	18000	
357	AT	Attentat_auf_Kaiser_Franz_Joseph_I._1853	de.wikipedia	17900	
358	AT	Eric_Stehfest	de.wikipedia	17900	
359	AT	Boris_Nikolajewitsch_Jelzin	de.wikipedia	17900	
360	AT	Susanne_Riess	de.wikipedia	17800	
361	AT	Christian_W._Mucha	de.wikipedia	17800	
362	AT	Staatsfeiertag_(Österreich)	de.wikipedia	17700	
363	AT	Unbefleckte_Empfängnis	de.wikipedia	17600	
364	AT	Arnold_Schwarzenegger	de.wikipedia	17600	
365	AT	Stefan_Banach	de.wikipedia	17600	
366	AT	Harry_Potter_(Filmreihe)	de.wikipedia	17500	
367	AT	Ich_bin_ein_Star_–_Holt_mich_hier_raus!	de.wikipedia	17500	
368	AT	Ewiger_Medaillenspiegel_der_Olympischen_Winterspiele	de.wikipedia	17500	
369	AT	Eduard_VIII.	de.wikipedia	17500	
370	AT	Karl_Lauterbach	de.wikipedia	17400	
371	AT	Sigi_Bergmann	de.wikipedia	17400	
372	AT	Karim_Benzema	de.wikipedia	17300	
373	AT	Freddie_Mercury	de.wikipedia	17300	
374	AT	Pfingsten	de.wikipedia	17300	
375	AT	Camilla	_Queen_Consort	de.wikipedia	17300.0
376	AT	Heiko_von_der_Leyen	de.wikipedia	17200	
377	AT	Svenja_Jung	de.wikipedia	17200	
378	AT	Präsident_der_Ukraine	de.wikipedia	17200	
379	AT	Carlo_Ancelotti	de.wikipedia	17100	
380	AT	Alexander_Schallenberg	de.wikipedia	17000	
381	AT	Alain_Weissgerber	de.wikipedia	17000	
382	AT	Chris_Rock	de.wikipedia	17000	
383	AT	Vereinigtes_Königreich	de.wikipedia	17000	
384	AT	Anne_Spiegel	de.wikipedia	16900	
385	AT	Alina_Kabajewa	de.wikipedia	16800	
386	AT	Nadine_Prohaska	de.wikipedia	16800	
387	AT	Die_satanischen_Verse	de.wikipedia	16800	
388	AT	Gabriela_Brimmer	en.wikipedia	16800	
389	AT	Terminator:_Dark_Fate	de.wikipedia	16700	
390	AT	Leopold_II._(HRR)	de.wikipedia	16700	
391	AT	Volksrepublik_Donezk	de.wikipedia	16600	
392	AT	Ljudmila_Alexandrowna_Putina	de.wikipedia	16600	
393	AT	Bilderbuch_(Band)	de.wikipedia	16600	
394	AT	Kottan_ermittelt	de.wikipedia	16500	
395	AT	Stefanie_Werger	de.wikipedia	16500	
396	AT	Flugabwehrkanonenpanzer_Gepard	de.wikipedia	16500	
397	AT	Margarete_Schramböck	de.wikipedia	16400	
398	AT	Nora_Tschirner	de.wikipedia	16400	
399	AT	Internationaler_Frauentag	de.wikipedia	16400	
400	AT	Seiler_und_Speer	de.wikipedia	16400	
401	AT	Lisa-Maria_Kellermayr	de.wikipedia	16400	
402	AT	Wikipedia:Strona_główna	pl.wikipedia	16300	
403	AT	Emmanuel_Macron	de.wikipedia	16300	
404	AT	David_Alaba	de.wikipedia	16300	
405	AT	Heinz_Faßmann	de.wikipedia	16200	
406	AT	Endemie	de.wikipedia	16200	
407	AT	Jeffrey_Epstein	de.wikipedia	16200	
408	AT	Janina_Youssefian	de.wikipedia	16100	
409	AT	Valentinstag	de.wikipedia	16100	
410	AT	Marmolata	de.wikipedia	16100	
411	AT	Fußball-Weltmeisterschaft_2018	de.wikipedia	16100	
412	AT	Chaleo_Yoovidhya	de.wikipedia	16000	
413	AT	Ukrainische_Sprache	de.wikipedia	15900	
414	AT	Nürnberger_Kodex	de.wikipedia	15800	
415	AT	Margit_Laufer	de.wikipedia	15800	
416	AT	Nena	de.wikipedia	15800	
417	AT	Petra_Morzé	de.wikipedia	15700	
418	AT	Diego_Maradona	de.wikipedia	15700	
419	AT	Maria_Furtwängler	de.wikipedia	15700	
420	AT	Manuel_Rubey	de.wikipedia	15600	
421	AT	Alles_finster	de.wikipedia	15600	
422	AT	Formel-1-Weltmeisterschaft_2022	de.wikipedia	15500	
423	AT	Michael_Degen	de.wikipedia	15500	
424	AT	Michael_Schumacher	de.wikipedia	15400	
425	AT	Helmut_Horten	de.wikipedia	15300	
426	AT	Dusty_Springfield	de.wikipedia	15300	
427	AT	Johannes_Hahn_(Politiker)	de.wikipedia	15200	
428	AT	Lisa_Eckhart	de.wikipedia	15200	
429	AT	Charkiw	de.wikipedia	15200	
430	AT	Hyperschallwaffe	de.wikipedia	15200	
431	AT	Antonia_Moretti	de.wikipedia	15200	
432	AT	Roe_v._Wade	de.wikipedia	15200	
433	AT	Helmut_Marko	de.wikipedia	15100	
434	AT	Jennifer_Klauninger	de.wikipedia	15100	
435	AT	Vier_(Film)	de.wikipedia	15100	
436	AT	Bierpartei_(Österreich)	de.wikipedia	15100	
437	AT	Alexander_Geljewitsch_Dugin	de.wikipedia	15100	
438	AT	Grace_Kelly	de.wikipedia	15100	
439	AT	K-141_Kursk	de.wikipedia	15000	
440	AT	Christian_Baha	de.wikipedia	15000	
441	AT	Nicola_Peltz	de.wikipedia	15000	
442	AT	Mika_(Musiker)	de.wikipedia	15000	
443	AT	Andreas_Sönnichsen	de.wikipedia	14900	
444	AT	Annexion_der_Krim_2014	de.wikipedia	14900	
445	AT	Rudolf_Chametowitsch_Nurejew	de.wikipedia	14900	
446	AT	Till_Lindemann	de.wikipedia	14900	
447	AT	UEFA_Europa_Conference_League_2022/23	de.wikipedia	14900	
448	AT	Philippa_Strache	de.wikipedia	14800	
449	AT	Hilde_Dalik	de.wikipedia	14800	
450	AT	James_Caan	de.wikipedia	14800	
451	AT	Liste_der_britischen_Monarchen	de.wikipedia	14800	
452	AT	Bundespräsident_(Österreich)	de.wikipedia	14700	
453	AT	Charles_Leclerc	de.wikipedia	14700	
454	AT	Mick_Jagger	de.wikipedia	14600	
455	AT	UEFA_Champions_League	de.wikipedia	14600	
456	AT	Patrick_Pentz	de.wikipedia	14600	
457	AT	Bundeskanzler_(Österreich)	de.wikipedia	14500	
458	AT	Lady_Gaga	de.wikipedia	14500	
459	AT	Christopher_Drexler	de.wikipedia	14500	
460	AT	Woodstock_III	de.wikipedia	14500	
461	AT	Deutschland	de.wikipedia	14400	
462	AT	Helene_in_Bayern	de.wikipedia	14400	
463	AT	Gisela_von_Österreich	de.wikipedia	14400	
464	AT	Udo_Jürgens	de.wikipedia	14400	
465	AT	Karl_I._(Österreich-Ungarn)	de.wikipedia	14300	
466	AT	Eternals_(Film)	de.wikipedia	14300	
467	AT	Coccinelle_(Entertainerin)	de.wikipedia	14300	
468	AT	Wien_Energie	de.wikipedia	14300	
469	AT	Thomas_Schmid_(Manager)	de.wikipedia	14300	
470	AT	Rishi_Sunak	en.wikipedia	14300	
471	AT	Anonymous_(Kollektiv)	de.wikipedia	14200	
472	AT	Lockheed_Martin_F-35	de.wikipedia	14200	
473	AT	Mohandas_Karamchand_Gandhi	de.wikipedia	14200	
474	AT	Bundespräsidentenwahl_in_Österreich_2016	de.wikipedia	14200	
475	AT	Deepwater_Horizon	de.wikipedia	14100	
476	AT	Midway_–_Für_die_Freiheit	de.wikipedia	14100	
477	AT	Carlos_Alcaraz	de.wikipedia	14100	
478	AT	Narziß_und_Goldmund	de.wikipedia	14100	
479	AT	Gernot_Blümel	de.wikipedia	14000	
480	AT	Fernando_Alonso	de.wikipedia	14000	
481	AT	Angela_Merkel	de.wikipedia	13900	
482	AT	Nikolaus_von_Myra	de.wikipedia	13900	
483	AT	Wolfgang_Mückstein	de.wikipedia	13900	
484	AT	Liste_der_Formel-1-Weltmeister	de.wikipedia	13900	
485	AT	Désirée_Nosbusch	de.wikipedia	13900	
486	AT	Jugoslawienkriege	de.wikipedia	13900	
487	AT	Georgien	de.wikipedia	13900	
488	AT	Mikojan-Gurewitsch_MiG-29	de.wikipedia	13900	
489	AT	Ch-47M2_Kinschal	de.wikipedia	13900	
490	AT	Jochen_Rindt	de.wikipedia	13900	
491	AT	1917_(Film)	de.wikipedia	13900	
492	AT	Daniel_Hemetsberger	de.wikipedia	13800	
493	AT	Brigitte_Macron	de.wikipedia	13800	
494	AT	Münchner_Olympia-Attentat	de.wikipedia	13800	
495	AT	Ivermectin	de.wikipedia	13700	
496	AT	Karl_Schranz	de.wikipedia	13700	
497	AT	Simon_Leviev	en.wikipedia	13700	
498	AT	The_Unforgivable	de.wikipedia	13600	
499	AT	Liste_der_Sieger_der_Grand-Slam-Turniere_(Herreneinzel)	de.wikipedia	13600	
