	country	page	project	views	4
0	IN	Main_Page	en.wikipedia	123926600	
1	IN	Special:Search	en.wikipedia	27385200	
2	IN	Cleopatra	en.wikipedia	21701800	
3	IN	File:India-flag-a4.jpg	commons.wikimedia	13165700	
4	IN	K.G.F:_Chapter_2	en.wikipedia	12125700	
5	IN	RRR_(film)	en.wikipedia	11127500	
6	IN	YouTube	en.wikipedia	9933100	
7	IN	List_of_highest-grossing_Indian_films	en.wikipedia	9695300	
8	IN	India	en.wikipedia	8703400	
9	IN	Ponniyin_Selvan:_I	en.wikipedia	7939900	
10	IN	XXX:_Return_of_Xander_Cage	en.wikipedia	7786600	
11	IN	Pushpa:_The_Rise	en.wikipedia	7268200	
12	IN	XXXX_(beer)	en.wikipedia	7084300	
13	IN	Brahmāstra:_Part_One_–_Shiva	en.wikipedia	6873300	
14	IN	ICC_Men's_T20_World_Cup	en.wikipedia	6711200	
15	IN	Vikram_(2022_film)	en.wikipedia	6069700	
16	IN	XXXX	en.wikipedia	6054300	
17	IN	XXX_(film_series)	en.wikipedia	6039600	
18	IN	2022_FIFA_World_Cup	en.wikipedia	5863600	
19	IN	ಅಂಬರೀಶ್	kn.wikipedia	5730800	
20	IN	ಎಸ್.ನಾರಾಯಣ್	kn.wikipedia	5586200	
21	IN	Kantara_(film)	en.wikipedia	5525000	
22	IN	BBC_World_Service	en.wikipedia	5468700	
23	IN	Laal_Singh_Chaddha	en.wikipedia	5298500	
24	IN	The_Kashmir_Files	en.wikipedia	5198300	
25	IN	ರಾಫೆಲ್_ನಡಾಲ್	kn.wikipedia	5019800	
26	IN	Alia_Bhatt	en.wikipedia	4920100	
27	IN	Wikipedia:Featured_pictures	en.wikipedia	4886800	
28	IN	ನಾಲ್ವಡಿ_ಕೃಷ್ಣರಾಜ_ಒಡೆಯರು	kn.wikipedia	4833600	
29	IN	ರಕ್ಷಿತ್_ಶೆಟ್ಟಿ	kn.wikipedia	4718700	
30	IN	India_at_the_2022_Commonwealth_Games	en.wikipedia	4533500	
31	IN	Wikimedia_Foundation	en.wikipedia	4528900	
32	IN	ಮಹೇಶ್_ಭೂಪತಿ	kn.wikipedia	4472400	
33	IN	ನೇಹಾ_ಕಕ್ಕರ್	kn.wikipedia	4450000	
34	IN	ರಾಜೇಶ್_ಕೃಷ್ಣನ್	kn.wikipedia	4378500	
35	IN	Instagram	en.wikipedia	4350100	
36	IN	Sex	en.wikipedia	4307600	
37	IN	ಭಾವನಾ_ರಾವ್	kn.wikipedia	4305900	
38	IN	ಸುನಿಲ್‌_ಜೋಷಿ	kn.wikipedia	4256000	
39	IN	ನಂದಮೂರಿ_ತಾರಕ_ರಾಮಾರಾವ್	kn.wikipedia	4243700	
40	IN	Spider-Man:_No_Way_Home	en.wikipedia	4207700	
41	IN	ಎಸ್.ಪಿ.ಬಾಲಸುಬ್ರಹ್ಮಣ್ಯಂ	kn.wikipedia	4207000	
42	IN	ಮಾಸ್ತಿ_ವೆಂಕಟೇಶ_ಅಯ್ಯಂಗಾರ್	kn.wikipedia	4197100	
43	IN	XXXTentacion	en.wikipedia	4134200	
44	IN	ಭಾವನಾ_(ನಟಿ-ಕಾರ್ತಿಕಾ_ಮೆನನ್)	kn.wikipedia	4056500	
45	IN	Lata_Mangeshkar	en.wikipedia	4041600	
46	IN	A._P._J._Abdul_Kalam	en.wikipedia	3918100	
47	IN	Sita_Ramam	en.wikipedia	3910400	
48	IN	ಬೆನ್_ಸ್ಟೋಕ್ಸ್	kn.wikipedia	3904200	
49	IN	ಪ್ರಶಾಂತ್_ನೀಲ್	kn.wikipedia	3899200	
50	IN	2022_ICC_Men's_T20_World_Cup	en.wikipedia	3896800	
51	IN	XXX_(2002_film)	en.wikipedia	3885800	
52	IN	WhatsApp	en.wikipedia	3877100	
53	IN	ಪ್ರಿಯಾಮಣಿ	kn.wikipedia	3815100	
54	IN	ರವಿ_ಶಾಸ್ತ್ರಿ	kn.wikipedia	3636900	
55	IN	Rishi_Sunak	en.wikipedia	3632000	
56	IN	Google	en.wikipedia	3595200	
57	IN	Elizabeth_II	en.wikipedia	3574500	
58	IN	Internet	en.wikipedia	3535400	
59	IN	विशेष:खोज	hi.wikipedia	3525900	
60	IN	CEO	en.wikipedia	3518400	
61	IN	Elon_Musk	en.wikipedia	3489900	
62	IN	Virat_Kohli	en.wikipedia	3481100	
63	IN	Katrina_Kaif	en.wikipedia	3441800	
64	IN	YouTube_Music	en.wikipedia	3410400	
65	IN	B._R._Ambedkar	en.wikipedia	3404700	
66	IN	2022_Commonwealth_Games	en.wikipedia	3387400	
67	IN	File:Circle-icons-water.svg	commons.wikimedia	3363100	
68	IN	ಕರ್ಣಂ_ಮಲ್ಲೇಶ್ವರಿ	kn.wikipedia	3350700	
69	IN	Susan_Wojcicki	en.wikipedia	3348000	
70	IN	List_of_Hindi_films_of_2022	en.wikipedia	3345400	
71	IN	Vicky_Kaushal	en.wikipedia	3333200	
72	IN	Bipin_Rawat	en.wikipedia	3303200	
73	IN	YouTube_Premium	en.wikipedia	3281000	
74	IN	Karan_Johar	en.wikipedia	3254200	
75	IN	Mahatma_Gandhi	en.wikipedia	3243300	
76	IN	2022_Uttar_Pradesh_Legislative_Assembly_election	en.wikipedia	3157600	
77	IN	ರವಿಚಂದ್ರನ್	kn.wikipedia	3111700	
78	IN	XXXX_(album)	en.wikipedia	3101000	
79	IN	List_of_prime_ministers_of_India	en.wikipedia	3100400	
80	IN	Maharashtra	en.wikipedia	3098700	
81	IN	List_of_Marvel_Cinematic_Universe_films	en.wikipedia	3092700	
82	IN	Narendra_Modi	en.wikipedia	3079700	
83	IN	K.G.F:_Chapter_1	en.wikipedia	3067800	
84	IN	Gangubai_Kathiawadi	en.wikipedia	3054600	
85	IN	Sidhu_Moose_Wala	en.wikipedia	3050700	
86	IN	Nandamuri_Balakrishna	en.wikipedia	3041300	
87	IN	Liger_(film)	en.wikipedia	2974100	
88	IN	Radhe_Shyam	en.wikipedia	2942800	
89	IN	Rashmika_Mandanna	en.wikipedia	2939800	
90	IN	XXX:_State_of_the_Union	en.wikipedia	2927100	
91	IN	Gangubai_Kothewali	en.wikipedia	2921100	
92	IN	Paresh_Rawal	en.wikipedia	2911700	
93	IN	Gmail	en.wikipedia	2830900	
94	IN	Nambi_Narayanan	en.wikipedia	2748800	
95	IN	Cristiano_Ronaldo	en.wikipedia	2748200	
96	IN	Wikipedia	en.wikipedia	2732200	
97	IN	Allu_Arjun	en.wikipedia	2728400	
98	IN	ಸೋನಮ್_ಕಪೂರ್	kn.wikipedia	2723800	
99	IN	Ranbir_Kapoor	en.wikipedia	2701400	
100	IN	Bhool_Bhulaiyaa_2	en.wikipedia	2682000	
101	IN	Andhra_Pradesh	en.wikipedia	2672400	
102	IN	ABP_News	en.wikipedia	2655000	
103	IN	Flipkart	en.wikipedia	2631900	
104	IN	N._T._Rama_Rao_Jr.	en.wikipedia	2622500	
105	IN	Sunil_Narine	en.wikipedia	2622200	
106	IN	मुखपृष्ठ	hi.wikipedia	2614700	
107	IN	Amazon_(company)	en.wikipedia	2603700	
108	IN	S._S._Rajamouli	en.wikipedia	2574200	
109	IN	KK_(singer)	en.wikipedia	2539800	
110	IN	Yash_(actor)	en.wikipedia	2537200	
111	IN	Ram_Charan	en.wikipedia	2534300	
112	IN	Samantha_Ruth_Prabhu	en.wikipedia	2518800	
113	IN	Ukraine	en.wikipedia	2510100	
114	IN	Omegle	en.wikipedia	2509400	
115	IN	Video_hosting_service	en.wikipedia	2471600	
116	IN	Doctor_Strange_in_the_Multiverse_of_Madness	en.wikipedia	2462900	
117	IN	Ratan_Tata	en.wikipedia	2449800	
118	IN	ಅಮೀಶಾ_ಪಟೇಲ್	kn.wikipedia	2428700	
119	IN	Uttar_Pradesh	en.wikipedia	2396600	
120	IN	Asia_Cup	en.wikipedia	2392500	
121	IN	83_(film)	en.wikipedia	2386800	
122	IN	States_and_union_territories_of_India	en.wikipedia	2378600	
123	IN	Draupadi_Murmu	en.wikipedia	2360900	
124	IN	Salman_Khan	en.wikipedia	2340000	
125	IN	Droupadi_Murmu	en.wikipedia	2337200	
126	IN	Bharatiya_Janata_Party	en.wikipedia	2330900	
127	IN	Mahesh_Babu	en.wikipedia	2323900	
128	IN	Shah_Rukh_Khan	en.wikipedia	2315600	
129	IN	Karthikeya_2	en.wikipedia	2300700	
130	IN	List_of_highest-grossing_films	en.wikipedia	2273100	
131	IN	Mrunal_Thakur	en.wikipedia	2266200	
132	IN	List_of_presidents_of_India	en.wikipedia	2264700	
133	IN	Akshay_Kumar	en.wikipedia	2232700	
134	IN	Indian_National_Congress	en.wikipedia	2201100	
135	IN	Kagiso_Rabada	en.wikipedia	2190800	
136	IN	2022_Russian_invasion_of_Ukraine	en.wikipedia	2181400	
137	IN	XNXX	en.wikipedia	2171800	
138	IN	Nayanthara	en.wikipedia	2170400	
139	IN	Thor:_Love_and_Thunder	en.wikipedia	2155400	
140	IN	Constitution_of_India	en.wikipedia	2138700	
141	IN	MS_Dhoni	en.wikipedia	2125500	
142	IN	Pro_Kabaddi_League	en.wikipedia	2121200	
143	IN	President_of_India	en.wikipedia	2119600	
144	IN	Vikram_Vedha_(2022_film)	en.wikipedia	2117300	
145	IN	Kamal_Haasan	en.wikipedia	2116500	
146	IN	Skathi_(moon)	en.wikipedia	2110500	
147	IN	Dhanush	en.wikipedia	2105700	
148	IN	Cookie_(informatique)	fr.wikipedia	2094400	
149	IN	Russo-Ukrainian_War	en.wikipedia	2082900	
150	IN	Beast_(2022_film)	en.wikipedia	2081600	
151	IN	List_of_current_Indian_chief_ministers	en.wikipedia	2072500	
152	IN	List_of_highest-grossing_films_in_India	en.wikipedia	2070700	
153	IN	Facebook	en.wikipedia	2059000	
154	IN	Tamil_Nadu	en.wikipedia	2041900	
155	IN	Jawaharlal_Nehru	en.wikipedia	2019000	
156	IN	Rocketry:_The_Nambi_Effect	en.wikipedia	2013100	
157	IN	Prabhas	en.wikipedia	2006000	
158	IN	Vikrant_Rona	en.wikipedia	2005500	
159	IN	Dulquer_Salmaan	en.wikipedia	1996600	
160	IN	Economy_of_India	en.wikipedia	1989600	
161	IN	Taj_Mahal	en.wikipedia	1987700	
162	IN	2022_Asia_Cup	en.wikipedia	1981500	
163	IN	Vijay_(actor)	en.wikipedia	1980700	
164	IN	Mika_Singh	en.wikipedia	1964800	
165	IN	Srinivasa_Ramanujan	en.wikipedia	1952700	
166	IN	Subhas_Chandra_Bose	en.wikipedia	1939400	
167	IN	Ponniyin_Selvan	en.wikipedia	1936800	
168	IN	Flag_of_India	en.wikipedia	1930100	
169	IN	Top_Gun:_Maverick	en.wikipedia	1927300	
170	IN	Netflix	en.wikipedia	1911000	
171	IN	Amitabh_Bachchan	en.wikipedia	1890000	
172	IN	Sandeep_Unnikrishnan	en.wikipedia	1887100	
173	IN	Indian_Premier_League	en.wikipedia	1876300	
174	IN	Chiranjeevi	en.wikipedia	1876100	
175	IN	Disney+_Hotstar	en.wikipedia	1867300	
176	IN	The_Batman_(film)	en.wikipedia	1850300	
177	IN	XXXX	en.wiktionary	1848000	
178	IN	Android_(operating_system)	en.wikipedia	1809500	
179	IN	Fahadh_Faasil	en.wikipedia	1807200	
180	IN	Vijay_Deverakonda	en.wikipedia	1804100	
181	IN	Prithviraj_Chauhan	en.wikipedia	1802200	
182	IN	JavaScript	en.wikipedia	1801900	
183	IN	Commons:Wiki_Loves_Monuments_2022_in_India	commons.wikimedia	1793200	
184	IN	Indira_Gandhi	en.wikipedia	1789700	
185	IN	Kiara_Advani	en.wikipedia	1778700	
186	IN	Rajasthan	en.wikipedia	1774600	
187	IN	Lok_Sabha	en.wikipedia	1774300	
188	IN	Swami_Vivekananda	en.wikipedia	1769600	
189	IN	ಮಣಿರತ್ನಂ	kn.wikipedia	1764000	
190	IN	Urfi_Javed	en.wikipedia	1763400	
191	IN	Pooja_Hegde	en.wikipedia	1762600	
192	IN	Premier_League	en.wikipedia	1745600	
193	IN	Drishyam_2_(2022_film)	en.wikipedia	1741100	
194	IN	Suriya	en.wikipedia	1740800	
195	IN	Sachin_Tendulkar	en.wikipedia	1734000	
196	IN	Adipurush	en.wikipedia	1733300	
197	IN	Karnataka	en.wikipedia	1731100	
198	IN	India_national_cricket_team	en.wikipedia	1703700	
199	IN	Meta_Platforms	en.wikipedia	1703200	
200	IN	Rishab_Shetty	en.wikipedia	1701800	
201	IN	ಪ್ರಕಾಶ್_ಪಡುಕೋಣೆ	kn.wikipedia	1693500	
202	IN	Privacy_policy	foundation.wikimedia	1691700	
203	IN	Microsoft_Windows	en.wikipedia	1686500	
204	IN	House_of_the_Dragon	en.wikipedia	1678000	
205	IN	Bhagat_Singh	en.wikipedia	1677100	
206	IN	777_Charlie	en.wikipedia	1674300	
207	IN	Aamir_Khan	en.wikipedia	1670100	
208	IN	2022_elections_in_India	en.wikipedia	1668200	
209	IN	2023_Cricket_World_Cup	en.wikipedia	1667200	
210	IN	Aishwarya_Rai_Bachchan	en.wikipedia	1660700	
211	IN	Raksha_Bandhan_(film)	en.wikipedia	1657500	
212	IN	Russia	en.wikipedia	1655500	
213	IN	Krithi_Shetty	en.wikipedia	1653700	
214	IN	भारत_का_संविधान	hi.wikipedia	1648800	
215	IN	Amazon_Prime_Video	en.wikipedia	1643300	
216	IN	Mumbai	en.wikipedia	1636100	
217	IN	Valimai	en.wikipedia	1635400	
218	IN	Atrangi_Re	en.wikipedia	1625900	
219	IN	Vikram_(actor)	en.wikipedia	1623100	
220	IN	United_States	en.wikipedia	1621400	
221	IN	Rajya_Sabha	en.wikipedia	1621300	
222	IN	Naga_Chaitanya	en.wikipedia	1615700	
223	IN	Shivaji	en.wikipedia	1614800	
224	IN	Vladimir_Putin	en.wikipedia	1607800	
225	IN	Lionel_Messi	en.wikipedia	1603700	
226	IN	Prime_Minister_of_India	en.wikipedia	1601400	
227	IN	Ram_Setu_(film)	en.wikipedia	1596200	
228	IN	Godfather_(2022_film)	en.wikipedia	1595900	
229	IN	Sundar_Pichai	en.wikipedia	1594800	
230	IN	2022_in_film	en.wikipedia	1593800	
231	IN	Ek_Villain_Returns	en.wikipedia	1585100	
232	IN	Lokesh_Kanagaraj	en.wikipedia	1580000	
233	IN	Salaar	en.wikipedia	1572300	
234	IN	Shamshera	en.wikipedia	1570300	
235	IN	Johnny_Depp	en.wikipedia	1568100	
236	IN	Amber_Heard	en.wikipedia	1563500	
237	IN	Army_ranks_and_insignia_of_India	en.wikipedia	1563000	
238	IN	State_Bank_of_India	en.wikipedia	1561100	
239	IN	Homi_J._Bhabha	en.wikipedia	1555000	
240	IN	C++	en.wikipedia	1536400	
241	IN	Deepika_Padukone	en.wikipedia	1531500	
242	IN	Vivek_Agnihotri	en.wikipedia	1517900	
243	IN	Eknath_Shinde	en.wikipedia	1516900	
244	IN	Thiruchitrambalam	en.wikipedia	1516800	
245	IN	Rabindranath_Tagore	en.wikipedia	1515700	
246	IN	1337x	en.wikipedia	1513000	
247	IN	List_of_Hindi_film_families	en.wikipedia	1509000	
248	IN	Love_Today_(2022_film)	en.wikipedia	1508500	
249	IN	N._T._Rama_Rao	en.wikipedia	1501900	
250	IN	XXX	en.wikipedia	1493300	
251	IN	2022_Indian_presidential_election	en.wikipedia	1472000	
252	IN	NATO	en.wikipedia	1468900	
253	IN	Sarkaru_Vaari_Paata	en.wikipedia	1465300	
254	IN	Gautam_Adani	en.wikipedia	1463000	
255	IN	Black_Adam_(film)	en.wikipedia	1456500	
256	IN	Shyam_Singha_Roy	en.wikipedia	1446900	
257	IN	Major_(film)	en.wikipedia	1446600	
258	IN	FIFA_World_Cup	en.wikipedia	1446200	
259	IN	Bangalore	en.wikipedia	1441700	
260	IN	Bigg_Boss_(Hindi_season_15)	en.wikipedia	1441600	
261	IN	E-commerce	en.wikipedia	1440800	
262	IN	Samrat_Prithviraj	en.wikipedia	1440500	
263	IN	List_of_political_parties_in_India	en.wikipedia	1436500	
264	IN	Super_Bowl_XXX	en.wikipedia	1433800	
265	IN	Madhya_Pradesh	en.wikipedia	1430400	
266	IN	Krishna	en.wikipedia	1412300	
267	IN	Gujarat	en.wikipedia	1408800	
268	IN	IOS	en.wikipedia	1404700	
269	IN	Runway_34	en.wikipedia	1399900	
270	IN	Doordarshan	en.wikipedia	1397800	
271	IN	Main_Page	commons.wikimedia	1396000	
272	IN	HDFC_Bank	en.wikipedia	1395800	
273	IN	दैनिक_जागरण	hi.wikipedia	1392000	
274	IN	Rohit_Sharma	en.wikipedia	1389900	
275	IN	Hrithik_Roshan	en.wikipedia	1386500	
276	IN	The_World's_Billionaires	en.wikipedia	1369400	
277	IN	Prashanth_Neel	en.wikipedia	1368100	
278	IN	Artificial_intelligence	en.wikipedia	1361600	
279	IN	BTS	en.wikipedia	1357800	
280	IN	Baahubali_2:_The_Conclusion	en.wikipedia	1357600	
281	IN	United_Kingdom	en.wikipedia	1355500	
282	IN	Kerala	en.wikipedia	1353900	
283	IN	Bigg_Boss_(Hindi_season_16)	en.wikipedia	1352700	
284	IN	2022_Gujarat_Legislative_Assembly_election	en.wikipedia	1348500	
285	IN	Pravin_Tambe	en.wikipedia	1340100	
286	IN	Priyanka_Chopra	en.wikipedia	1339300	
287	IN	Saif_Ali_Khan	en.wikipedia	1330000	
288	IN	William_Shakespeare	en.wikipedia	1327200	
289	IN	List_of_most-followed_Instagram_accounts	en.wikipedia	1326500	
290	IN	Kaithi_(2019_film)	en.wikipedia	1322600	
291	IN	Hindi	en.wikipedia	1320200	
292	IN	Google_Translate	en.wikipedia	1315800	
293	IN	Puneeth_Rajkumar	en.wikipedia	1312500	
294	IN	List_of_Tamil_films_of_2022	en.wikipedia	1304100	
295	IN	Mithali_Raj	en.wikipedia	1301400	
296	IN	2017_Uttar_Pradesh_Legislative_Assembly_election	en.wikipedia	1299200	
297	IN	Raju_Srivastav	en.wikipedia	1291200	
298	IN	Sai_Pallavi	en.wikipedia	1288900	
299	IN	क्लिओपात्रा	mr.wikipedia	1282600	
300	IN	Pakistan	en.wikipedia	1278900	
301	IN	Bachchhan_Paandey	en.wikipedia	1277500	
302	IN	Cobra_(2022_film)	en.wikipedia	1276900	
303	IN	Indian_Army	en.wikipedia	1273500	
304	IN	Tata_Group	en.wikipedia	1273200	
305	IN	महात्मा_गांधी	hi.wikipedia	1272500	
306	IN	Brahmāstra_(film)	en.wikipedia	1266100	
307	IN	Telangana	en.wikipedia	1263000	
308	IN	A._R._Rahman	en.wikipedia	1262200	
309	IN	Nagarjuna_(actor)	en.wikipedia	1259400	
310	IN	Rakesh_Jhunjhunwala	en.wikipedia	1251500	
311	IN	Bharat_Ratna	en.wikipedia	1250100	
312	IN	Rajinikanth	en.wikipedia	1248600	
313	IN	.xxx	en.wikipedia	1247800	
314	IN	Mia_Khalifa	en.wikipedia	1245400	
315	IN	World_War_II	en.wikipedia	1243800	
316	IN	Ranveer_Singh	en.wikipedia	1243400	
317	IN	Nora_Fatehi	en.wikipedia	1241300	
318	IN	Mammootty	en.wikipedia	1221600	
319	IN	2022_Indian_Premier_League	en.wikipedia	1221100	
320	IN	Keerthy_Suresh	en.wikipedia	1217400	
321	IN	Shark_Tank_India	en.wikipedia	1214500	
322	IN	Vijay_Sethupathi	en.wikipedia	1212500	
323	IN	Akshay_Kumar_filmography	en.wikipedia	1208200	
324	IN	Java_(programming_language)	en.wikipedia	1207100	
325	IN	Jugjugg_Jeeyo	en.wikipedia	1200500	
326	IN	भीमराव_आम्बेडकर	hi.wikipedia	1198700	
327	IN	Vikram_Sarabhai	en.wikipedia	1197500	
328	IN	Delhi	en.wikipedia	1193100	
329	IN	Prithviraj_Sukumaran	en.wikipedia	1192200	
330	IN	Computer	en.wikipedia	1188500	
331	IN	Government_of_India	en.wikipedia	1183000	
332	IN	Muhammad	en.wikipedia	1178100	
333	IN	Mukesh_Ambani	en.wikipedia	1177600	
334	IN	Diana	_Princess_of_Wales	en.wikipedia	1172500.0
335	IN	Apple_Inc.	en.wikipedia	1172200	
336	IN	Karthi	en.wikipedia	1172200	
337	IN	S._Jaishankar	en.wikipedia	1168900	
338	IN	Streaming_media	en.wikipedia	1162400	
339	IN	List_of_countries_by_foreign-exchange_reserves	en.wikipedia	1157500	
340	IN	Charles_III	en.wikipedia	1150800	
341	IN	Jammu_and_Kashmir_(union_territory)	en.wikipedia	1150400	
342	IN	Independence_Day_(India)	en.wikipedia	1149400	
343	IN	Saba_Azad	en.wikipedia	1148700	
344	IN	West_Bengal	en.wikipedia	1146200	
345	IN	Ala_Vaikunthapurramuloo	en.wikipedia	1146200	
346	IN	List_of_countries_by_GDP_(nominal)	en.wikipedia	1145200	
347	IN	Jeff_Bezos	en.wikipedia	1143700	
348	IN	Yogi_Adityanath	en.wikipedia	1138500	
349	IN	Black_Panther:_Wakanda_Forever	en.wikipedia	1137200	
350	IN	Maharashtra_Legislative_Assembly	en.wikipedia	1135700	
351	IN	Sexy	en.wikipedia	1132700	
352	IN	Akbar	en.wikipedia	1131100	
353	IN	Yeh_Rishta_Kya_Kehlata_Hai	en.wikipedia	1128000	
354	IN	Aadhaar	en.wikipedia	1124900	
355	IN	Albert_Einstein	en.wikipedia	1120900	
356	IN	Gautama_Buddha	en.wikipedia	1119800	
357	IN	Anand_Dighe	en.wikipedia	1109300	
358	IN	Sanjay_Dutt	en.wikipedia	1109200	
359	IN	Sivakarthikeyan	en.wikipedia	1108800	
360	IN	Ajay_Devgn	en.wikipedia	1107400	
361	IN	Odisha	en.wikipedia	1105800	
362	IN	English_language	en.wikipedia	1104000	
363	IN	Baahubali:_The_Beginning	en.wikipedia	1098300	
364	IN	Srinidhi_Shetty	en.wikipedia	1094500	
365	IN	Bimbisara_(film)	en.wikipedia	1090500	
366	IN	Exodus_of_Kashmiri_Hindus	en.wikipedia	1089700	
367	IN	Infosys	en.wikipedia	1085800	
368	IN	List_of_Telugu_films_of_2022	en.wikipedia	1084800	
369	IN	Union_Council_of_Ministers	en.wikipedia	1083400	
370	IN	Hridayam	en.wikipedia	1082500	
371	IN	Akshata_Murty	en.wikipedia	1081000	
372	IN	Krishna_(Telugu_actor)	en.wikipedia	1080200	
373	IN	World_War_I	en.wikipedia	1076400	
374	IN	Kareena_Kapoor	en.wikipedia	1076200	
375	IN	China	en.wikipedia	1075100	
376	IN	Bheemla_Nayak	en.wikipedia	1074800	
377	IN	Pawan_Kalyan	en.wikipedia	1073000	
378	IN	Mahesh_Bhatt	en.wikipedia	1071500	
379	IN	Beast_(2022_Indian_film)	en.wikipedia	1068900	
380	IN	Gehraiyaan_(film)	en.wikipedia	1065900	
381	IN	Mughal_Empire	en.wikipedia	1065600	
382	IN	Ajith_Kumar	en.wikipedia	1063200	
383	IN	Indian_Air_Force	en.wikipedia	1062400	
384	IN	List_of_highest-grossing_Telugu_films	en.wikipedia	1062200	
385	IN	Hyderabad	en.wikipedia	1060000	
386	IN	Vallabhbhai_Patel	en.wikipedia	1055300	
387	IN	Twitter	en.wikipedia	1051800	
388	IN	1983_Cricket_World_Cup	en.wikipedia	1047400	
389	IN	Telegram_(software)	en.wikipedia	1041500	
390	IN	Union_territory	en.wikipedia	1039200	
391	IN	File:WhatsApp_logo-color-vertical.svg	ak.wikipedia	1038400	
392	IN	Shah_Rukh_Khan_filmography	en.wikipedia	1036500	
393	IN	2022_Punjab_Legislative_Assembly_election	en.wikipedia	1035300	
394	IN	Burj_Khalifa	en.wikipedia	1032100	
395	IN	Shiva	en.wikipedia	1030600	
396	IN	Bhagwant_Mann	en.wikipedia	1030400	
397	IN	Rajiv_Gandhi	en.wikipedia	1027500	
398	IN	Pirates_of_the_Caribbean_(film_series)	en.wikipedia	1027100	
399	IN	Vijay_filmography	en.wikipedia	1026700	
400	IN	Uttarakhand	en.wikipedia	1011900	
401	IN	List_of_Hindi_film_clans	en.wikipedia	1009900	
402	IN	Kriti_Sanon	en.wikipedia	1009300	
403	IN	Chola_dynasty	en.wikipedia	1008500	
404	IN	Rakshit_Shetty	en.wikipedia	1008000	
405	IN	Rakul_Preet_Singh	en.wikipedia	1005000	
406	IN	Aurangzeb	en.wikipedia	1002600	
407	IN	List_of_Bollywood_films_of_2022	en.wikipedia	998200	
408	IN	List_of_Indian_states_and_union_territories_by_GDP	en.wikipedia	997000	
409	IN	Statue_of_Unity	en.wikipedia	996400	
410	IN	Video_on_demand	en.wikipedia	993600	
411	IN	Mohanlal	en.wikipedia	993000	
412	IN	Dharmendra	en.wikipedia	989400	
413	IN	Vikram_Vedha	en.wikipedia	989200	
414	IN	Tom_Cruise	en.wikipedia	985900	
415	IN	Sooryavanshi	en.wikipedia	985100	
416	IN	Acharya_(2022_film)	en.wikipedia	981700	
417	IN	Kylie_Jenner	en.wikipedia	980200	
418	IN	Help:IPA/English	en.wikipedia	975600	
419	IN	Pornography	en.wikipedia	973900	
420	IN	Suryakumar_Yadav	en.wikipedia	969900	
421	IN	1983_Cricket_World_Cup_squads	en.wikipedia	967100	
422	IN	Sushant_Singh_Rajput	en.wikipedia	965800	
423	IN	Ram_Nath_Kovind	en.wikipedia	965300	
424	IN	Sushmita_Sen	en.wikipedia	965200	
425	IN	Republic_Day_(India)	en.wikipedia	964900	
426	IN	Jeffrey_Dahmer	en.wikipedia	962800	
427	IN	Kartik_Aaryan	en.wikipedia	960900	
428	IN	Jersey_(2022_film)	en.wikipedia	957100	
429	IN	Lalit_Modi	en.wikipedia	952600	
430	IN	Tata_Consultancy_Services	en.wikipedia	952200	
431	IN	C_(programming_language)	en.wikipedia	951200	
432	IN	Uttar_Pradesh_Legislative_Assembly	en.wikipedia	950200	
433	IN	Harnaaz_Sandhu	en.wikipedia	946000	
434	IN	Vignesh_Shivan	en.wikipedia	943300	
435	IN	Shane_Warne	en.wikipedia	938800	
436	IN	LinkedIn	en.wikipedia	934000	
437	IN	Tejasswi_Prakash	en.wikipedia	932900	
438	IN	ICICI_Bank	en.wikipedia	930900	
439	IN	Goa	en.wikipedia	927100	
440	IN	Shahid_Kapoor	en.wikipedia	926800	
441	IN	Etharkkum_Thunindhavan	en.wikipedia	926700	
442	IN	Garena_Free_Fire	en.wikipedia	921000	
443	IN	Rekha	en.wikipedia	921000	
444	IN	Wikiquote	en.wikipedia	920700	
445	IN	Kishore_Kumar	en.wikipedia	920400	
446	IN	Kim_Kardashian	en.wikipedia	916500	
447	IN	Arvind_Kejriwal	en.wikipedia	914800	
448	IN	The_Pirate_Bay	en.wikipedia	914800	
449	IN	Indian_Railway_Catering_and_Tourism_Corporation	en.wikipedia	914000	
450	IN	Adolf_Hitler	en.wikipedia	913500	
451	IN	Bihar	en.wikipedia	911300	
452	IN	Antim:_The_Final_Truth	en.wikipedia	910300	
453	IN	History_of_India	en.wikipedia	908900	
454	IN	Tamil_language	en.wikipedia	908400	
455	IN	Don_(2022_film)	en.wikipedia	907400	
456	IN	Indian_Space_Research_Organisation	en.wikipedia	906600	
457	IN	प्रेमचंद	hi.wikipedia	905900	
458	IN	Urvashi_Rautela	en.wikipedia	905600	
459	IN	Akhanda	en.wikipedia	905200	
460	IN	Canada	en.wikipedia	901000	
461	IN	N._R._Narayana_Murthy	en.wikipedia	900000	
462	IN	C._V._Raman	en.wikipedia	899500	
463	IN	Stranger_Things_(season_4)	en.wikipedia	896800	
464	IN	List_of_highest-grossing_Kannada_films	en.wikipedia	892500	
465	IN	Ayan_Mukerji	en.wikipedia	891800	
466	IN	Vendhu_Thanindhathu_Kaadu	en.wikipedia	891500	
467	IN	BF	en.wikipedia	889400	
468	IN	Kapil_Dev	en.wikipedia	883200	
469	IN	Reliance_Industries	en.wikipedia	881600	
470	IN	Avatar_(2009_film)	en.wikipedia	881600	
471	IN	Kaathuvaakula_Rendu_Kaadhal	en.wikipedia	875100	
472	IN	Cyrus_Mistry	en.wikipedia	873700	
473	IN	The_Legend_(2022_film)	en.wikipedia	870900	
474	IN	Harshad_Mehta	en.wikipedia	868900	
475	IN	Tamannaah	en.wikipedia	868700	
476	IN	List_of_most_expensive_Indian_films	en.wikipedia	867800	
477	IN	Sara_Ali_Khan	en.wikipedia	866600	
478	IN	Jurassic_World_Dominion	en.wikipedia	866500	
479	IN	Rahul_Gandhi	en.wikipedia	866100	
480	IN	Nazriya_Nazim	en.wikipedia	865100	
481	IN	Air_pollution	en.wikipedia	858000	
482	IN	Thank_God_(film)	en.wikipedia	857900	
483	IN	List_of_Bollywood_films_of_2021	en.wikipedia	857600	
484	IN	Sobhita_Dhulipala	en.wikipedia	857100	
485	IN	Sai_Baba_of_Shirdi	en.wikipedia	855500	
486	IN	MacOS	en.wikipedia	854900	
487	IN	Australia	en.wikipedia	854900	
488	IN	P._V._Sindhu	en.wikipedia	850400	
489	IN	Marvel_Cinematic_Universe:_Phase_Four	en.wikipedia	850000	
490	IN	The_Lord_of_the_Rings:_The_Rings_of_Power	en.wikipedia	849700	
491	IN	Atal_Bihari_Vajpayee	en.wikipedia	849600	
492	IN	भारत	hi.wikipedia	848100	
493	IN	2008_Mumbai_attacks	en.wikipedia	847500	
494	IN	Parliament_of_India	en.wikipedia	847400	
495	IN	Taarak_Mehta_Ka_Ooltah_Chashmah	en.wikipedia	846800	
496	IN	Reserve_Bank_of_India	en.wikipedia	846600	
497	IN	Manmohan_Singh	en.wikipedia	844900	
498	IN	Malaika_Arora	en.wikipedia	844200	
499	IN	Hinduism	en.wikipedia	840700	
