	country	page	project	views	4
0	CR	Wikipedia:Portada	es.wikipedia	1174700	
1	CR	Cleopatra	es.wikipedia	487000	
2	CR	Main_Page	en.wikipedia	138500	
3	CR	Rodrigo_Chaves	es.wikipedia	115500	
4	CR	Jeffrey_Dahmer	es.wikipedia	111600	
5	CR	Isabel_II_del_Reino_Unido	es.wikipedia	85800	
6	CR	Elecciones_generales_de_Costa_Rica_de_2022	es.wikipedia	68300	
7	CR	José_María_Figueres_Olsen	es.wikipedia	55400	
8	CR	Eliécer_Feinzaig_Mintz	es.wikipedia	36400	
9	CR	Cleopatra_I_de_Egipto	es.wikipedia	26600	
10	CR	Club_Sport_Cartaginés	es.wikipedia	24800	
11	CR	Catar	es.wikipedia	22000	
12	CR	Copa_Mundial_de_Fútbol_de_2022	es.wikipedia	21000	
13	CR	Jeffrey_Dahmer	en.wikipedia	19300	
14	CR	Vicente_Fernández	es.wikipedia	18700	
15	CR	Carlos_III_del_Reino_Unido	es.wikipedia	17500	
16	CR	Primera_División_de_Costa_Rica	es.wikipedia	16400	
17	CR	Diana_de_Gales	es.wikipedia	16100	
18	CR	Elecciones_generales_de_Costa_Rica_de_2018	es.wikipedia	15500	
19	CR	OTAN	es.wikipedia	15500	
20	CR	Ucrania	es.wikipedia	13800	
21	CR	Clasificación_de_Concacaf_para_la_Copa_Mundial_de_Fútbol_de_2022	es.wikipedia	13000	
22	CR	Vladímir_Putin	es.wikipedia	12500	
23	CR	Fabián_Coito	es.wikipedia	12300	
24	CR	Dancing_with_the_Stars_(Costa_Rica)	es.wikipedia	11700	
25	CR	Diego_Verdaguer	es.wikipedia	11600	
26	CR	Anthony_Contreras	es.wikipedia	11200	
27	CR	José_Figueres_Ferrer	es.wikipedia	10900	
28	CR	Coldplay	es.wikipedia	10200	
29	CR	Rainer_Schaller	en.wikipedia	10100	
30	CR	Ganimedes_(mitología)	es.wikipedia	10000	
31	CR	Selección_de_fútbol_de_Costa_Rica	es.wikipedia	9900	
32	CR	Francia	es.wikipedia	9400	
33	CR	Josette_Altmann_Borbón	es.wikipedia	9300	
34	CR	Olivia_Newton-John	es.wikipedia	9300	
35	CR	Anexión_del_Partido_de_Nicoya	es.wikipedia	9200	
36	CR	Felipe_de_Edimburgo	es.wikipedia	9200	
37	CR	José_María_Villalta	es.wikipedia	9000	
38	CR	Selección_de_fútbol_de_Nueva_Zelanda	es.wikipedia	8600	
39	CR	Partido_Progreso_Social_Democrático	es.wikipedia	8500	
40	CR	Yokasta_Valle	es.wikipedia	8500	
41	CR	Anne_Heche	es.wikipedia	8100	
42	CR	Marilyn_Monroe	es.wikipedia	8100	
43	CR	Tonga	es.wikipedia	7700	
44	CR	Lineth_Saborío_Chaverri	es.wikipedia	7600	
45	CR	Virgen_de_los_Ángeles_(Costa_Rica)	es.wikipedia	7600	
46	CR	Jorge_VI_del_Reino_Unido	es.wikipedia	7200	
47	CR	Chris_Martin	es.wikipedia	7100	
48	CR	Guillermo_de_Cambridge	es.wikipedia	7000	
49	CR	2022_Costa_Rican_general_election	en.wikipedia	6900	
50	CR	Taylor_Hawkins	es.wikipedia	6800	
51	CR	Castrato	es.wikipedia	6800	
52	CR	Luis_Fernando_Suárez	es.wikipedia	6600	
53	CR	Presidente_de_Costa_Rica	es.wikipedia	6500	
54	CR	Charlton_Heston	es.wikipedia	6300	
55	CR	Copa_Mundial_de_Fútbol	es.wikipedia	6300	
56	CR	Carmen_Salinas	es.wikipedia	6200	
57	CR	Deportivo_Saprissa	es.wikipedia	6200	
58	CR	Elizabeth_II	en.wikipedia	6000	
59	CR	Miss_Universo_2021	es.wikipedia	5500	
60	CR	Fabricio_Alvarado	es.wikipedia	5500	
61	CR	Asamblea_Legislativa_de_Costa_Rica	es.wikipedia	5500	
62	CR	Deméter	es.wikipedia	5400	
63	CR	Isabel_Bowes-Lyon	es.wikipedia	5400	
64	CR	Michael_J._Fox	es.wikipedia	5400	
65	CR	Hedy_Lamarr	es.wikipedia	5300	
66	CR	José_Rafael_Meza_Ivancovich	es.wikipedia	5300	
67	CR	Enrique_de_Sussex	es.wikipedia	5300	
68	CR	Jason_David_Frank	es.wikipedia	5300	
69	CR	Copa_Mundial_Femenina_de_Fútbol_Sub-20_de_2022	es.wikipedia	5200	
70	CR	Ley_marcial	es.wikipedia	5000	
71	CR	Natalia_Díaz_Quintana	es.wikipedia	4900	
72	CR	Ray_Liotta	es.wikipedia	4900	
73	CR	Elecciones_generales_de_Costa_Rica_de_2014	es.wikipedia	4800	
74	CR	Día_Internacional_de_la_Mujer	es.wikipedia	4500	
75	CR	Robert_Powell	es.wikipedia	4500	
76	CR	Lorna_Cepeda	es.wikipedia	4500	
77	CR	Anexo:Sondeos_de_las_elecciones_presidenciales_de_Costa_Rica_de_2022	es.wikipedia	4400	
78	CR	Anexo:Presidentes_de_Costa_Rica	es.wikipedia	4400	
79	CR	Benemérito_de_la_Patria	es.wikipedia	4300	
80	CR	José_León_Sánchez	es.wikipedia	4200	
81	CR	Los_diez_mandamientos_(película_de_1956)	es.wikipedia	4100	
82	CR	Carlos_de_Gales	es.wikipedia	4100	
83	CR	Badwater_Ultramarathon	es.wikipedia	4000	
84	CR	Nicole_Aunapu_Mann	es.wikipedia	4000	
85	CR	Gran_Esfinge_de_Guiza	es.wikipedia	3900	
86	CR	Teletón_Costa_Rica	es.wikipedia	3800	
87	CR	Isla_San_Lucas	es.wikipedia	3800	
88	CR	Enner_Valencia	es.wikipedia	3800	
89	CR	Betty_White	es.wikipedia	3700	
90	CR	Bob_Saget	es.wikipedia	3700	
91	CR	Escudo_de_Costa_Rica	es.wikipedia	3700	
92	CR	Browser	it.wikipedia	3600	
93	CR	Jesús_de_Nazaret_(miniserie)	es.wikipedia	3600	
94	CR	Daddy_Yankee	es.wikipedia	3600	
95	CR	Partido_Liberal_Progresista_(Costa_Rica	_2016)	es.wikipedia	3500.0
96	CR	Elecciones_generales_de_Costa_Rica_de_2010	es.wikipedia	3500	
97	CR	Liga_Deportiva_Alajuelense	es.wikipedia	3500	
98	CR	Acuerdo_de_Escazú	es.wikipedia	3400	
99	CR	Taylor_Hawkins	en.wikipedia	3400	
100	CR	Will_Smith	es.wikipedia	3400	
101	CR	Batalla_de_Rivas_(1856)	es.wikipedia	3400	
102	CR	Elecciones_generales_de_Costa_Rica_de_2006	es.wikipedia	3300	
103	CR	Volodímir_Zelenski	es.wikipedia	3300	
104	CR	J_Balvin	es.wikipedia	3300	
105	CR	sofofobia	es.wiktionary	3300	
106	CR	Música_folclórica_de_Costa_Rica	es.wikipedia	3200	
107	CR	Amanda_Miguel	es.wikipedia	3200	
108	CR	Gruta_de_Sơn_Đoòng	es.wikipedia	3200	
109	CR	Nueva_Zelanda	es.wikipedia	3200	
110	CR	Día_de_Muertos	es.wikipedia	3100	
111	CR	Georgina_Rodríguez	es.wikipedia	3000	
112	CR	Partidos_políticos_de_Costa_Rica	es.wikipedia	3000	
113	CR	Frente_Amplio_(Costa_Rica)	es.wikipedia	3000	
114	CR	Unión_Soviética	es.wikipedia	3000	
115	CR	Costa_Rica_en_la_Copa_Mundial_de_Fútbol	es.wikipedia	3000	
116	CR	Día_de_la_Madre	es.wikipedia	3000	
117	CR	Inés_Sánchez	es.wikipedia	3000	
118	CR	Elecciones_generales_de_Costa_Rica_de_2002	es.wikipedia	2900	
119	CR	CODA_(película)	es.wikipedia	2900	
120	CR	Miguel_Ángel	es.wikipedia	2900	
121	CR	Viajes_extraordinarios	es.wikipedia	2900	
122	CR	Uzbekistán	es.wikipedia	2900	
123	CR	Chris_Rock	es.wikipedia	2800	
124	CR	Geisha	es.wikipedia	2800	
125	CR	Fernando_del_Solar_(conductor)	es.wikipedia	2800	
126	CR	Coolio	es.wikipedia	2800	
127	CR	Accidente_de_Chernóbil	es.wikipedia	2700	
128	CR	Hebe_(mitología)	es.wikipedia	2700	
129	CR	Shakira	es.wikipedia	2700	
130	CR	Juancho_Hernangómez	es.wikipedia	2700	
131	CR	Partido_Nueva_República	es.wikipedia	2600	
132	CR	Aaron_Carter	es.wikipedia	2600	
133	CR	Irene_Bernasconi	es.wikipedia	2600	
134	CR	Club_Sport_Herediano	es.wikipedia	2500	
135	CR	Quijongo	es.wikipedia	2500	
136	CR	Ben-Hur_(película_de_1959)	es.wikipedia	2500	
137	CR	Benedicto_XVI	es.wikipedia	2500	
138	CR	Johnny_Chaves	es.wikipedia	2500	
139	CR	Carlos_del_Reino_Unido	es.wikipedia	2500	
140	CR	Marciano_Cantero	es.wikipedia	2500	
141	CR	Ricardo_Moreno_Cañas	es.wikipedia	2500	
142	CR	Keysher_Fuller	es.wikipedia	2500	
143	CR	Rodrigo_Chaves_Robles	en.wikipedia	2400	
144	CR	Sede_de_la_FIFA	es.wikipedia	2400	
145	CR	Bob_Saget	en.wikipedia	2300	
146	CR	Partido_Nueva_Generación	es.wikipedia	2300	
147	CR	Brandon_Aguilera	en.wikipedia	2300	
148	CR	Capilla_Sixtina	es.wikipedia	2300	
149	CR	Francisca_Carrasco_Jiménez	es.wikipedia	2300	
150	CR	Israel_Escalante	es.wikipedia	2200	
151	CR	Torneo_90_Minutos_por_la_Vida	es.wikipedia	2200	
152	CR	José_María_Figueres	en.wikipedia	2200	
153	CR	Partido_Liberación_Nacional	es.wikipedia	2200	
154	CR	Liza_Minnelli	es.wikipedia	2200	
155	CR	Campeonato_de_Fútbol_de_Costa_Rica_1940	es.wikipedia	2200	
156	CR	Coronación_de_Isabel_II_del_Reino_Unido	es.wikipedia	2200	
157	CR	Primera_transmisión_radiofónica	es.wikipedia	2200	
158	CR	Quo_vadis?_(película_de_1951)	es.wikipedia	2100	
159	CR	Liga_de_Campeones_de_la_UEFA	es.wikipedia	2100	
160	CR	Amando_Céspedes	es.wikipedia	2100	
161	CR	Melico_Salazar	es.wikipedia	2100	
162	CR	Gales	es.wikipedia	2100	
163	CR	Ladi_Kwali	es.wikipedia	2000	
164	CR	Freddy_Rincón	es.wikipedia	2000	
165	CR	The_Grapes_of_Wrath_(novela)	es.wikipedia	2000	
166	CR	Telescopio_espacial_James_Webb	es.wikipedia	2000	
167	CR	Leonel_Álvarez	es.wikipedia	2000	
168	CR	Bandera_de_Dinamarca	es.wikipedia	2000	
169	CR	Robbie_Coltrane	es.wikipedia	2000	
170	CR	Anexo:Diputados_del_periodo_legislativo_2018-2022_en_Costa_Rica	es.wikipedia	1900	
171	CR	Juan_Pablo_Vargas	es.wikipedia	1900	
172	CR	Susana_Dosamantes	es.wikipedia	1900	
173	CR	Nottingham_Forest_Football_Club	es.wikipedia	1900	
174	CR	Anne_Heche	en.wikipedia	1900	
175	CR	Erick_Cabalceta	es.wikipedia	1900	
176	CR	Ganimedes_(satélite)	es.wikipedia	1900	
177	CR	Pilar_Cisneros_Gallo	es.wikipedia	1800	
178	CR	San_Cristóbal_y_Nieves	es.wikipedia	1800	
179	CR	Crisis_ruso-ucraniana_de_2021-2022	es.wikipedia	1800	
180	CR	Batalla_de_Santa_Rosa_(Costa_Rica)	es.wikipedia	1800	
181	CR	Jada_Pinkett_Smith	es.wikipedia	1800	
182	CR	Julio_II	es.wikipedia	1800	
183	CR	Martinica	es.wikipedia	1800	
184	CR	Nigeria	es.wikipedia	1800	
185	CR	Gabriel_Boric	es.wikipedia	1700	
186	CR	Francisco_Rodríguez_(futbolista)	es.wikipedia	1700	
187	CR	Freddy_Góndola	en.wikipedia	1700	
188	CR	Clásico_del_fútbol_costarricense	es.wikipedia	1700	
189	CR	Antonov_An-225	es.wikipedia	1700	
190	CR	Anexo:Diputados_del_periodo_legislativo_2022-2026_en_Costa_Rica	es.wikipedia	1700	
191	CR	Sansón_y_Dalila_(película_de_1949)	es.wikipedia	1700	
192	CR	Rolando_Blackburn	es.wikipedia	1700	
193	CR	"Estadio_José_Joaquín_""Colleya""_Fonseca"	es.wikipedia	1700	
194	CR	Anthony_Vargas	es.wikipedia	1700	
195	CR	Volcán_Arenal	es.wikipedia	1700	
196	CR	Selección_de_fútbol_de_Nigeria	es.wikipedia	1700	
197	CR	Túnez	es.wikipedia	1700	
198	CR	Alejandro_Fernández	es.wikipedia	1600	
199	CR	Errol_Daniels	es.wikipedia	1600	
200	CR	Ana_Victoria	es.wikipedia	1600	
201	CR	Cheslie_Kryst	es.wikipedia	1600	
202	CR	Sistema_electoral_de_Costa_Rica	es.wikipedia	1600	
203	CR	Segunda_vuelta_electoral	es.wikipedia	1600	
204	CR	Período_legislativo_de_2018_a_2022_de_Costa_Rica	es.wikipedia	1600	
205	CR	Día_de_San_Valentín	es.wikipedia	1600	
206	CR	Conti_(ransomware)	en.wikipedia	1600	
207	CR	Compañía_de_Jesús	es.wikipedia	1600	
208	CR	Estadio_de_Francia	es.wikipedia	1600	
209	CR	Parque_nacional_Carara	es.wikipedia	1600	
210	CR	Juan_Carlos_I_de_España	es.wikipedia	1600	
211	CR	Betty_White	en.wikipedia	1500	
212	CR	Tasuku_Honjo	en.wikipedia	1500	
213	CR	Nerón	es.wikipedia	1500	
214	CR	David	es.wikipedia	1500	
215	CR	Elizabeth_Taylor	es.wikipedia	1500	
216	CR	Bóveda_de_la_Capilla_Sixtina	es.wikipedia	1500	
217	CR	Puntarenas_Fútbol_Club	es.wikipedia	1500	
218	CR	Archivo:Monumento_a_Juan_Rafael_Mora_Porras_en_San_José	_Costa_Rica.JPG	es.wikipedia	1500.0
219	CR	Gustavo_Petro	es.wikipedia	1500	
220	CR	Primera_División_Femenina_de_Costa_Rica	es.wikipedia	1500	
221	CR	Antonio_Machado	es.wikipedia	1500	
222	CR	Salma_Paralluelo	es.wikipedia	1500	
223	CR	Castillo_de_Balmoral	es.wikipedia	1500	
224	CR	Eduardo_VIII_del_Reino_Unido	es.wikipedia	1500	
225	CR	Ana_del_Reino_Unido	es.wikipedia	1500	
226	CR	Símbolos_patrios_de_Costa_Rica	es.wikipedia	1500	
227	CR	Disco_de_Uranio	es.wikipedia	1500	
228	CR	Selección_de_fútbol_de_Catar	es.wikipedia	1500	
229	CR	Torneo_Clausura_2021_(Costa_Rica)	es.wikipedia	1400	
230	CR	Día_de_los_Santos_Inocentes	es.wikipedia	1400	
231	CR	Eira_barbara	es.wikipedia	1400	
232	CR	Caballero_Luna	es.wikipedia	1400	
233	CR	Clasificación_para_la_Copa_Mundial_de_Fútbol_de_2022	es.wikipedia	1400	
234	CR	Karen_Olsen_Beck	es.wikipedia	1400	
235	CR	Foo_Fighters	es.wikipedia	1400	
236	CR	Estadio_Cuscatlán	es.wikipedia	1400	
237	CR	Jessica_Chastain	es.wikipedia	1400	
238	CR	Guadalupe_Urbina	es.wikipedia	1400	
239	CR	Mia_Khalifa	es.wikipedia	1400	
240	CR	Manuel_González_Zeledón	es.wikipedia	1400	
241	CR	Stephen_Curry	es.wikipedia	1400	
242	CR	Día_del_Padre	es.wikipedia	1400	
243	CR	Mario_Vargas_Llosa	es.wikipedia	1400	
244	CR	Carlos_Hernández_Valverde	es.wikipedia	1400	
245	CR	Paolo_Jiménez	es.wikipedia	1400	
246	CR	Edward_Jenner	es.wikipedia	1400	
247	CR	Túnel_Zurquí	es.wikipedia	1400	
248	CR	Copa_Mundial_Femenina_de_Fútbol_Sub-20	es.wikipedia	1400	
249	CR	Operación_Puente_de_Londres	es.wikipedia	1400	
250	CR	Atentados_del_11_de_septiembre_de_2001	es.wikipedia	1400	
251	CR	Pablo_Presbere	es.wikipedia	1400	
252	CR	Gerardo_Cruz	es.wikipedia	1400	
253	CR	Mauricio_Hoffmann	es.wikipedia	1400	
254	CR	Rohrmoser_Fútbol_Club	es.wikipedia	1400	
255	CR	Marcelo_Gallardo	es.wikipedia	1400	
256	CR	Día_Internacional_del_Hombre	es.wikipedia	1400	
257	CR	Abel_Pacheco_de_la_Espriella	es.wikipedia	1300	
258	CR	Partido_Unidad_Social_Cristiana	es.wikipedia	1300	
259	CR	Día_de_San_Patricio	es.wikipedia	1300	
260	CR	Jesus_of_Nazareth_(miniserie)	es.wikipedia	1300	
261	CR	Victor_Mature	es.wikipedia	1300	
262	CR	Amber_Heard	es.wikipedia	1300	
263	CR	Fabián_Coito	en.wikipedia	1300	
264	CR	Diego_Bertie	es.wikipedia	1300	
265	CR	Complejo_Nuclear_Atucha	es.wikipedia	1300	
266	CR	Nunca_me_abandones_(película)	es.wikipedia	1300	
267	CR	Mijaíl_Gorbachov	es.wikipedia	1300	
268	CR	Muerte_de_Diana_de_Gales	es.wikipedia	1300	
269	CR	Láser	es.wikipedia	1300	
270	CR	Parroquia_San_Isidro_Labrador_(Vázquez_de_Coronado)	es.wikipedia	1300	
271	CR	Pablo_Lyle	es.wikipedia	1300	
272	CR	Luiz_Inácio_Lula_da_Silva	es.wikipedia	1300	
273	CR	Jason_David_Frank	en.wikipedia	1300	
274	CR	Copa_Mundial_de_Fútbol_de_2026	es.wikipedia	1300	
275	CR	Bad_Bunny	es.wikipedia	1300	
276	CR	Decimotercera_Enmienda_a_la_Constitución_de_los_Estados_Unidos	es.wikipedia	1300	
277	CR	Hunga_Tonga	es.wikipedia	1200	
278	CR	Wikipédia:Accueil_principal	fr.wikipedia	1200	
279	CR	Letonia	es.wikipedia	1200	
280	CR	Duodeno	es.wikipedia	1200	
281	CR	Jeikel_Venegas	es.wikipedia	1200	
282	CR	Gabriela_Brimmer	es.wikipedia	1200	
283	CR	Duelo_nacional	es.wikipedia	1200	
284	CR	Monumento_nacional_Guayabo	es.wikipedia	1200	
285	CR	UD_Puriscal	es.wikipedia	1200	
286	CR	Rascacielos_de_Stalin	es.wikipedia	1200	
287	CR	Día_de_Acción_de_Gracias	es.wikipedia	1200	
288	CR	Clarence_Gilyard	es.wikipedia	1200	
